<?xml version="1.0" encoding="UTF-8"?>
<svg width="110px" height="188px" viewBox="0 0 110 188" version="1.1" xmlns="http://www.w3.org/2000/svg" xmlns:xlink="http://www.w3.org/1999/xlink">
    <!-- Generator: Sketch 40.3 (33839) - http://www.bohemiancoding.com/sketch -->
    <title>Pear Selected</title>
    <desc>Created with Sketch.</desc>
    <defs>
        <polygon id="path-1" points="0 0.0651040495 0 39.1320822 11.0519495 39.1320822 11.0519495 0.0651040495 2.89943645e-20 0.0651040495"></polygon>
        <polygon id="path-3" points="33.8004831 141.458115 33.8004831 0.317286094 0.167856298 0.317286094 0.167856298 141.458115 33.8004831 141.458115"></polygon>
        <polygon id="path-5" points="2.84217094e-14 142.357916 109.739103 142.357916 109.739103 0 2.84217094e-14 0"></polygon>
    </defs>
    <g id="Symbols" stroke="none" stroke-width="1" fill="none" fill-rule="evenodd">
        <g id="Pear-Selected">
            <g id="Page-1" opacity="0.6" transform="translate(5.000000, 0.000000)">
                <path d="M37.8522516,2.36399718 C36.1974206,5.50597458 30.8724379,6.06899718 27.9168478,7.58201977 C24.344039,9.41117232 21.1878796,12.1425565 18.7173999,15.297952 C12.8447291,22.8002684 11.9654331,32.1789689 11.9884317,41.397726 C12.0007333,46.4375565 12.1643979,51.4730932 11.7322378,56.5016525 C11.251941,62.0900141 10.2132591,67.6075282 9.26068841,73.1282627 C8.39797274,78.127839 7.58018461,83.1504944 7.26676156,88.2198446 C6.93996722,93.5135452 7.32131643,98.8201271 6.8993185,104.110607 C6.81695135,105.143799 8.42204106,105.138432 8.50387336,104.110607 C8.92587129,98.8201271 8.54452208,93.5135452 8.87131643,88.2198446 C9.19650621,82.9583475 10.0784765,77.7553531 10.9797015,72.5684605 C12.6826691,62.766822 13.6946084,53.3038559 13.6052881,43.3395904 C13.5159679,33.2765678 14.0374482,22.8829237 21.0509576,14.9936299 C24.0118961,11.6621893 27.624284,9.24961864 31.7677795,7.68721751 C34.3730418,6.7044774 37.8319272,5.84625706 39.2375173,3.17659605 C39.7199534,2.26094633 38.3352226,1.44673729 37.8522516,2.36399718" id="Fill-1" fill="#000000"></path>
                <g id="Group-5" transform="translate(0.000000, 103.270367)">
                    <mask id="mask-2" fill="white">
                        <use xlink:href="#path-1"></use>
                    </mask>
                    <g id="Clip-4"></g>
                    <path d="M6.89942547,0.84040113 C6.64109213,5.39235028 5.7880038,9.90511864 4.30379055,14.2176893 C3.0351225,17.9033672 0.686589027,21.3534237 0.0966476881,25.2516441 C-0.739325397,30.7788192 3.93795204,39.5687345 10.2807574,39.1152034 C11.3049983,39.042209 11.313021,37.4315028 10.2807574,37.5050339 C6.24851104,37.7932542 2.89499137,32.8639887 1.90284161,29.3704576 C0.810139752,25.5216158 2.73346618,22.0012486 4.27062974,18.5941299 C6.79192029,13.0052316 8.15686163,6.95743503 8.50398033,0.84040113 C8.56281401,-0.194937853 6.95772429,-0.191717514 6.89942547,0.84040113" id="Fill-3" fill="#000000" mask="url(#mask-2)"></path>
                </g>
                <path d="M10.6859075,142.275918 C11.9973637,141.551342 12.5145652,139.815042 11.751332,138.454449 C11.2683609,137.594082 10.1221739,137.069703 9.33005866,136.556596 C6.69858868,134.851963 4.97797101,132.176935 7.59553485,129.44072 C8.31063147,128.693065 7.17781573,127.553065 6.46057971,128.302331 C4.84639752,129.990325 4.16767081,132.250466 5.07852312,134.487528 C5.46201173,135.429477 6.07655625,136.152444 6.84727743,136.790071 C7.67201863,137.472246 12.0492443,139.684619 9.87614217,140.885805 C8.97117322,141.385494 9.77986888,142.776681 10.6859075,142.275918" id="Fill-6" fill="#000000"></path>
                <path d="M7.57595928,129.43326 C7.72090407,129.37422 7.50375431,133.262243 7.50428916,133.525237 C7.50642857,134.604588 7.84766391,136.041932 9.1478882,136.213147 C10.8706453,136.439107 12.0414355,133.798429 12.5088958,132.54196 C13.5037198,129.867469 13.3705418,126.981508 13.1913665,124.183571 C13.1255797,123.154672 11.52049,123.147158 11.5868116,124.183571 C11.7542202,126.799023 11.9323257,129.513232 10.9781504,132.007384 C10.7572567,132.586508 9.59769841,135.274955 9.09547274,133.694842 C8.97994479,133.330944 9.18639752,132.530153 9.2152795,132.154983 C9.32438923,130.751452 9.7913147,126.80439 7.14914769,127.88052 C6.20513458,128.26535 6.61804003,129.823458 7.57595928,129.43326" id="Fill-8" fill="#000000"></path>
                <path d="M26.351765,30.6322938 C24.8022999,35.4676328 26.3640666,40.147322 27.7391701,44.8264746 C29.3966753,50.4663616 29.642707,55.5909944 27.6509196,61.1900904 C25.8190528,66.3378023 22.8538354,70.9804576 20.2298533,75.7390452 C17.6203123,80.4724068 15.3835628,85.4140169 13.7046636,90.5579718 C6.5446049,112.492774 12.7077001,135.246079 21.3669479,155.80526 C26.4731763,167.927153 33.7402053,178.650345 41.3126346,189.328989 C41.9063199,190.166277 43.2985386,189.362802 42.6979003,188.51639 C36.2160335,179.375458 29.6844255,170.163141 24.9370825,159.962181 C20.0373068,149.435429 15.7141011,137.97639 13.6271101,126.51574 C11.5561646,115.141503 11.3678968,103.942237 14.6882557,92.7891299 C16.2879969,87.4159944 18.5177933,82.2494972 21.1893772,77.3282825 C23.6127899,72.8632825 26.3362543,68.5496384 28.3221584,63.858678 C30.2224862,59.3695254 31.3237457,54.5658531 30.5674655,49.688113 C29.6079417,43.4986215 25.8661197,37.4057401 27.8990908,31.0605989 C28.2157229,30.0714181 26.6673275,29.6479435 26.351765,30.6322938" id="Fill-10" fill="#000000"></path>
                <path d="M67.529403,31.0603305 C69.2789027,36.520952 66.7035921,41.7829859 65.4076467,47.0396525 C64.3026432,51.5218277 64.4320773,55.970726 65.8125293,60.3793701 C68.9061111,70.2615169 75.6698447,78.5742853 79.2463975,88.3066864 C83.1213975,98.8527599 84.0076467,109.394003 82.6945859,120.497732 C81.3376674,131.97663 77.81353,142.955302 74.1877709,153.886743 C70.4117184,165.271715 65.3611146,176.136602 61.3636335,187.436234 C61.0175845,188.414144 62.5675845,188.835472 62.9109593,187.864003 C70.2940511,166.993523 80.5583885,146.741347 83.7658937,124.587025 C85.3073361,113.942195 85.513254,103.69454 82.5512457,93.2670819 C81.155283,88.3512345 79.2362353,83.5803023 76.9374431,79.0213757 C74.5568185,74.3008955 71.6648758,69.8546808 69.4019186,65.0724774 C66.5549034,59.0547373 65.4338544,53.1019407 67.1854934,46.5861215 C68.6017805,41.3187203 70.827833,36.0974774 69.0767288,30.6320254 C68.7617012,29.649822 67.212236,30.0700763 67.529403,31.0603305" id="Fill-12" fill="#000000"></path>
                <g id="Group-16" transform="translate(55.624569, 0.219520)">
                    <mask id="mask-4" fill="white">
                        <use xlink:href="#path-3"></use>
                    </mask>
                    <g id="Clip-15"></g>
                    <path d="M0.382793306,1.71246893 C5.73451863,7.67277966 15.8073792,3.67097175 21.2163337,10.0375819 C23.9504952,13.2563107 25.2651605,17.561904 26.2690769,21.5932316 C27.4024275,26.140887 28.2309127,30.8044746 28.8818271,35.4433729 C32.1433523,58.6797288 29.239108,82.1468757 30.3157643,105.484136 C30.6184903,112.055774 31.7571894,118.571056 32.0230107,125.129814 C32.1610024,128.526734 31.8170928,131.574785 29.7771687,134.37487 C28.0528071,136.742356 25.7251329,138.729842 23.0840355,139.982554 C22.1507195,140.424814 22.9642288,141.813853 23.8938009,141.372667 C27.6345531,139.598797 31.1629693,136.239446 32.7723378,132.371819 C34.8571894,127.362582 33.2141253,121.066282 32.681413,115.896565 C31.3817236,103.280887 31.6138492,90.5895311 31.8839493,77.9303785 C32.1508402,65.410774 32.4038251,52.8525254 31.0886249,40.3780056 C30.1328451,31.311678 29.0128658,20.865435 24.7998395,12.6251243 C22.8476311,8.80687571 19.9888492,6.03201695 15.8266339,4.85981356 C11.360088,3.60280791 4.86645445,4.30376836 1.5172136,0.574079096 C0.824580745,-0.197728814 -0.307165286,0.943881356 0.382793306,1.71246893" id="Fill-14" fill="#000000" mask="url(#mask-4)"></path>
                </g>
                <path d="M27.6312371,45.3587429 C29.0261301,54.6633757 21.1686249,62.361596 22.2447464,71.7091667 C22.3618789,72.7262571 23.9680383,72.738065 23.8493012,71.7091667 C22.7598085,62.2424435 30.6103606,54.4835734 29.1785628,44.9304379 C29.0255952,43.9095904 27.4788043,44.3432627 27.6312371,45.3587429" id="Fill-17" fill="#000000"></path>
                <path d="M68.1772153,35.9303418 C70.3187612,41.8375169 71.462274,48.0313023 71.3740235,54.3276017 C71.2868427,60.5074322 71.0493685,66.5461045 71.7671394,72.7098333 C71.8853416,73.7269237 73.491501,73.7387316 73.3716943,72.7098333 C72.6138095,66.2036751 73.0192271,59.8424322 72.9823223,53.3271497 C72.9480918,47.2321215 71.7986957,41.2235056 69.7245411,35.5020367 C69.3742133,34.535935 67.8231435,34.9535056 68.1772153,35.9303418" id="Fill-19" fill="#000000"></path>
                <path d="M12.5234972,102.076051 C21.5635594,101.076672 29.9318478,104.168734 36.2019134,110.732859 C42.2815718,117.098395 46.5245497,124.961927 49.2405262,133.307435 C54.8917685,150.67204 54.6115062,169.584554 54.6494807,187.650119 C54.6516201,188.685994 56.2561749,188.688141 56.2540355,187.650119 C56.2219444,172.292859 56.302707,156.587266 53.0834351,141.499441 C50.2883006,128.399638 44.3450293,114.585458 33.5795359,106.086983 C27.7122136,101.455599 19.8686146,99.6538192 12.5234972,100.465881 C11.5083489,100.578056 11.497117,102.189299 12.5234972,102.076051" id="Fill-21" fill="#000000"></path>
                <path d="M81.9414614,98.8115395 C66.5826622,99.7234322 59.1851294,115.808489 46.0636146,121.471455 C45.1179969,121.879364 45.9341805,123.266794 46.8739148,122.861568 C59.6397533,117.352105 67.1084213,101.302472 81.9414614,100.421709 C82.9678416,100.360523 82.9747947,98.7503531 81.9414614,98.8115395" id="Fill-23" fill="#000000"></path>
                <path d="M69.016344,31.9428644 C55.6044048,27.350661 39.7187767,27.7279774 26.3742288,32.3867345 C25.4050776,32.7254068 25.8217271,34.2813672 26.8010404,33.9394746 C39.8958126,29.3682034 55.426834,28.9887401 68.5895324,33.4956045 C69.5693806,33.8310565 69.989774,32.2761695 69.016344,31.9428644" id="Fill-25" fill="#000000"></path>
            </g>
            <mask id="mask-6" fill="white">
                <use xlink:href="#path-5"></use>
            </mask>
            <g id="Clip-2"></g>
            <path d="M94.1140764,65.6231061 C83.0793376,50.9552043 80.7906321,49.4737475 78.7703945,33.6293001 C75.944753,11.4428282 54.8504742,13.0246355 54.8504742,13.0246355 C54.8504742,13.0246355 34.3623308,13.0465068 31.3105098,32.57176 C28.4284836,51.0130988 26.6478809,50.9552043 15.5996868,65.6231061 C-1.61045625,88.5178211 3.27835205,117.107429 22.0422775,131.526384 C38.5303122,144.194351 54.8504742,142.251025 54.8504742,142.251025 C54.8504742,142.251025 71.1962657,144.194351 87.6714856,131.526384 C106.449507,117.107429 111.324219,88.5178211 94.1140764,65.6231061" id="Fill-1" fill="#13D792" style="mix-blend-mode: multiply;"></path>
        </g>
    </g>
</svg>