<?xml version="1.0" encoding="UTF-8"?>
<svg width="40px" height="40px" viewBox="0 0 40 40" version="1.1" xmlns="http://www.w3.org/2000/svg" xmlns:xlink="http://www.w3.org/1999/xlink">
    <!-- Generator: Sketch 40.3 (33839) - http://www.bohemiancoding.com/sketch -->
    <title>Edit Image Icon@1.5x</title>
    <desc>Created with Sketch.</desc>
    <defs></defs>
    <g id="Symbols" stroke="none" stroke-width="1" fill="none" fill-rule="evenodd">
        <g id="Edit-Image-Icon">
            <g id="Group-2">
                <rect id="Rectangle" fill="#13D792" transform="translate(20.000000, 20.000000) rotate(45.000000) translate(-20.000000, -20.000000) " x="6.20689655" y="6.20689655" width="27.5862069" height="27.5862069"></rect>
                <path d="M25.2705116,17.4936691 C25.5764961,17.1791851 25.5764961,16.6744649 25.2705116,16.3599809 L22.7229711,13.7416753 C22.4088044,13.4195987 21.8950765,13.4195987 21.5817046,13.7416753 L14.7881641,20.7239253 L14.5758938,20.942092 C14.5054411,21.0145017 14.4585763,21.1065552 14.4414734,21.2061255 L13.8043653,24.9152644 C13.7455993,25.2573907 14.044799,25.5538249 14.3863649,25.4918844 L17.9955541,24.8373844 C18.0980014,24.8188063 18.1920935,24.76871 18.2647008,24.6940858 L18.4769711,24.4759191 L25.2705116,17.4936691 Z M17.5479749,23.9967309 L17.9063378,24.3454083 L17.8171216,23.8534323 L14.2079324,24.5079323 L14.789932,25.0845523 L15.4270401,21.3754134 L14.9342568,21.2907694 L15.2926197,21.6394469 L15.50489,21.4212803 L22.2984305,14.4390303 C22.219329,14.5203291 22.0855469,14.5203291 22.0066872,14.439484 L24.5537857,17.0573358 C24.4820714,16.9836295 24.4820714,16.8700205 24.5537857,16.7963142 L17.7602451,23.7785642 L17.5479749,23.9967309 Z" id="Stroke-463" fill="#FFFFFF"></path>
                <path d="M20.2846576,15.8113864 C20.0920883,15.613468 19.7755355,15.6091317 19.5776171,15.8017009 C19.3796987,15.9942702 19.3753624,16.310823 19.5679316,16.5087414 L22.5400127,19.5633803 C22.732582,19.7612987 23.0491348,19.765635 23.2470532,19.5730657 C23.4449716,19.3804965 23.4493079,19.0639437 23.2567386,18.8660253 L20.2846576,15.8113864 Z" id="Stroke-464" fill="#FFFFFF"></path>
            </g>
        </g>
    </g>
</svg>