[
  {
    "product_sku": "OT4849706E1",
    "product_name": "Bianca Sq",
    "size": 0,
    "Category": "Jewellery",
    "Sub category": "Bracelets/Cuffs",
    "quantity": 2,
    "price": 600,
    "tags": 0,
    "multiple images": "d3gyiijzpk1c44.cloudfront.net/upload/product_photos/base/0/29/155/big1.1940435.1.jpg",
    "extra_images": 0,
    "product_url": "http://www.chicaccessorizer.com/Bracelets-Cuffs/Bianca-Sq-id-1940435.html",
    "description": "<p>Marble Effect Stone Square Gold Bangle</p>"
  },
  {
    "product_sku": "ZE445DBC859",
    "product_name": "T - Bar Cuff",
    "size": 0,
    "Category": "Jewellery",
    "Sub category": "Bracelets/Cuffs",
    "quantity": 2,
    "price": 550,
    "tags": 0,
    "multiple images": "d3gyiijzpk1c44.cloudfront.net/upload/product_photos/base/0/28/0/big1.1835190.1.jpg",
    "extra_images": "d3gyiijzpk1c44.cloudfront.net/upload/product_photos/base/0/28/0/big2.1835190.1.jpg",
    "product_url": "http://www.chicaccessorizer.com/Bracelets-Cuffs/T---Bar-Cuff-id-1835190.html",
    "description": "<p>Celebs and Stylist Fav Gold Cut Out T bar cuff</p>"
  },
  {
    "product_sku": "EN4316108C7",
    "product_name": "Grande Pearla",
    "size": 0,
    "Category": "Jewellery",
    "Sub category": "Bracelets/Cuffs",
    "quantity": 3,
    "price": 550,
    "tags": 0,
    "multiple images": "d3gyiijzpk1c44.cloudfront.net/upload/product_photos/base/0/27/122/big1.1800831.1.jpg",
    "extra_images": "d3gyiijzpk1c44.cloudfront.net/upload/product_photos/base/0/27/122/big2.1800831.1.jpg",
    "product_url": "http://www.chicaccessorizer.com/Bracelets-Cuffs/Grande-Pearla-id-1800831.html",
    "description": "<p>oversized pearl and silver bangle bracelet.</p>"
  },
  {
    "product_sku": "AA2C9026B3D",
    "product_name": "Tribe",
    "size": 0,
    "Category": "Jewellery",
    "Sub category": "Bracelets/Cuffs",
    "quantity": 3,
    "price": 250,
    "tags": 0,
    "multiple images": "d3gyiijzpk1c44.cloudfront.net/upload/product_photos/base/0/18/64/big1.1196231.1.jpg",
    "extra_images": 0,
    "product_url": "http://www.chicaccessorizer.com/Bracelets-Cuffs/Tribe-id-1196231.html",
    "description": "<p>Dylanlex Inspired Silver Cuff Bracelet</p>"
  },
  {
    "product_sku": "CK1CD8A9774",
    "product_name": "Cobalt Crystal Cuff",
    "size": 0,
    "Category": "Jewellery",
    "Sub category": "Bracelets/Cuffs",
    "quantity": 2,
    "price": 300,
    "tags": 0,
    "multiple images": "d3gyiijzpk1c44.cloudfront.net/upload/product_photos/base/0/11/208/big1.774337.1.jpg",
    "extra_images": 0,
    "product_url": "http://www.chicaccessorizer.com/Bracelets-Cuffs/Cobalt-Crystal-Cuff-id-774337.html",
    "description": "<p>Blue Leather Cuff with Crystal embellishments</p>"
  },
  {
    "product_sku": "YH484959808",
    "product_name": "White Geotrix",
    "size": 0,
    "Category": "Jewellery",
    "Sub category": "Earrings/Ear Cuffs",
    "quantity": 2,
    "price": 650,
    "tags": 0,
    "multiple images": "d3gyiijzpk1c44.cloudfront.net/upload/product_photos/base/0/29/155/big1.1940426.1.jpg",
    "extra_images": "d3gyiijzpk1c44.cloudfront.net/upload/product_photos/base/0/29/155/big2.1940426.1.jpg",
    "product_url": "http://www.chicaccessorizer.com/Earrings-Ear-Cuffs/White-Geotrix-id-1940426.html",
    "description": "<p>White &amp; Gold Triangles Danglers</p>"
  },
  {
    "product_sku": "DX445D8F43A",
    "product_name": "Sainty",
    "size": 0,
    "Category": "Jewellery",
    "Sub category": "Earrings/Ear Cuffs",
    "quantity": 1,
    "price": 400,
    "tags": 0,
    "multiple images": "d3gyiijzpk1c44.cloudfront.net/upload/product_photos/base/0/28/0/big1.1835171.1.jpg",
    "extra_images": 0,
    "product_url": "http://www.chicaccessorizer.com/Earrings-Ear-Cuffs/Sainty-id-1835171.html",
    "description": "<p>Matt gold cut out Danglers with Black beads&nbsp;</p>"
  },
  {
    "product_sku": "YS4317AC784",
    "product_name": "StarShip",
    "size": 0,
    "Category": "Jewellery",
    "Sub category": "Earrings/Ear Cuffs",
    "quantity": 3,
    "price": 500,
    "tags": 0,
    "multiple images": "d3gyiijzpk1c44.cloudfront.net/upload/product_photos/base/0/27/123/big1.1800999.1.jpg",
    "extra_images": 0,
    "product_url": "http://www.chicaccessorizer.com/Earrings-Ear-Cuffs/StarShip-id-1800999.html",
    "description": "<p>Double Sided Pearl earrings with a twist&nbsp;</p>"
  },
  {
    "product_sku": "SF43179A3C2",
    "product_name": "Fete Antique",
    "size": 0,
    "Category": "Jewellery",
    "Sub category": "Earrings/Ear Cuffs",
    "quantity": 3,
    "price": 550,
    "tags": 0,
    "multiple images": "d3gyiijzpk1c44.cloudfront.net/upload/product_photos/base/0/27/123/big1.1800992.1.jpg",
    "extra_images": "d3gyiijzpk1c44.cloudfront.net/upload/product_photos/base/0/27/123/big2.1800992.1.jpg",
    "product_url": "http://www.chicaccessorizer.com/Earrings-Ear-Cuffs/Fete-Antique-id-1800992.html",
    "description": "<p>Rhinestone Danglers in antique gold finish</p>"
  },
  {
    "product_sku": "UM43178E69C",
    "product_name": "Bling on",
    "size": 0,
    "Category": "Jewellery",
    "Sub category": "Earrings/Ear Cuffs",
    "quantity": 1,
    "price": 500,
    "tags": 0,
    "multiple images": "d3gyiijzpk1c44.cloudfront.net/upload/product_photos/base/0/27/123/big1.1800987.1.jpg",
    "extra_images": 0,
    "product_url": "http://www.chicaccessorizer.com/Earrings-Ear-Cuffs/Bling-on-id-1800987.html",
    "description": "<p>Rhinestone and Pearl Earcuff&nbsp;</p>"
  },
  {
    "product_sku": "EJ3E02E5B40",
    "product_name": "Kaluha",
    "size": 0,
    "Category": "Jewellery",
    "Sub category": "Earrings/Ear Cuffs",
    "quantity": 1,
    "price": 550,
    "tags": 0,
    "multiple images": "d3gyiijzpk1c44.cloudfront.net/upload/product_photos/base/0/25/102/big1.1664603.1.jpg",
    "extra_images": 0,
    "product_url": "http://www.chicaccessorizer.com/Earrings-Ear-Cuffs/Kaluha-id-1664603.html",
    "description": "<p>Black Thread Tassel Earring with Four Side fleur Top</p>"
  },
  {
    "product_sku": "UV3E0248D22",
    "product_name": "Porpura",
    "size": 0,
    "Category": "Jewellery",
    "Sub category": "Earrings/Ear Cuffs",
    "quantity": 4,
    "price": 600,
    "tags": 0,
    "multiple images": "d3gyiijzpk1c44.cloudfront.net/upload/product_photos/base/0/25/102/big1.1664539.1.jpg",
    "extra_images": "d3gyiijzpk1c44.cloudfront.net/upload/product_photos/base/0/25/102/big2.1664539.1.jpg",
    "product_url": "http://www.chicaccessorizer.com/Earrings-Ear-Cuffs/Porpura-id-1664539.html",
    "description": "<p>Purple And Black stone along with gold Spike make this Earrign a total Statement piece</p>"
  },
  {
    "product_sku": "JZ3ACF53528",
    "product_name": "Fan Glam",
    "size": 0,
    "Category": "Jewellery",
    "Sub category": "Earrings/Ear Cuffs",
    "quantity": 3,
    "price": 600,
    "tags": 0,
    "multiple images": "d3gyiijzpk1c44.cloudfront.net/upload/product_photos/base/0/24/22/big1.1578665.1.jpg",
    "extra_images": 0,
    "product_url": "http://www.chicaccessorizer.com/Earrings-Ear-Cuffs/Fan-Glam-id-1578665.html",
    "description": "<p>Antique Gold and crystals Dangling earrings</p>"
  },
  {
    "product_sku": "VC38F1BD0E5",
    "product_name": "Paisley (silver)",
    "size": 0,
    "Category": "Jewellery",
    "Sub category": "Earrings/Ear Cuffs",
    "quantity": 1,
    "price": 700,
    "tags": 0,
    "multiple images": "d3gyiijzpk1c44.cloudfront.net/upload/product_photos/base/0/23/83/big1.1528586.1.jpg",
    "extra_images": 0,
    "product_url": "http://www.chicaccessorizer.com/Earrings-Ear-Cuffs/Paisley--silver--id-1528586.html",
    "description": "<p>intricate silver earcuff (pair) with engraved blue stone along with pearls</p>"
  },
  {
    "product_sku": "JU38AA71C0C",
    "product_name": "Double Illusion Long (pearl)",
    "size": 0,
    "Category": "Jewellery",
    "Sub category": "Earrings/Ear Cuffs",
    "quantity": 4,
    "price": 450,
    "tags": 0,
    "multiple images": "d3gyiijzpk1c44.cloudfront.net/upload/product_photos/base/0/23/53/big1.1521110.1.jpg",
    "extra_images": "d3gyiijzpk1c44.cloudfront.net/upload/product_photos/base/0/23/53/big2.1521110.1.jpg",
    "product_url": "http://www.chicaccessorizer.com/Earrings-Ear-Cuffs/Double-Illusion-Long--pearl--id-1521110.html",
    "description": "<p>Dior inspired Double pearl long earring</p>"
  },
  {
    "product_sku": "YV37F63F998",
    "product_name": "Yelloe SunShine",
    "size": 0,
    "Category": "Jewellery",
    "Sub category": "Earrings/Ear Cuffs",
    "quantity": 2,
    "price": 300,
    "tags": 0,
    "multiple images": "d3gyiijzpk1c44.cloudfront.net/upload/product_photos/base/0/22/236/big1.1502216.1.jpg",
    "extra_images": 0,
    "product_url": "http://www.chicaccessorizer.com/Earrings-Ear-Cuffs/Yelloe-SunShine-id-1502216.html",
    "description": "<p>Dior inspired Matt yellow Studs</p>"
  },
  {
    "product_sku": "EM37F5C914B",
    "product_name": "Santorini Studs (black)",
    "size": 0,
    "Category": "Jewellery",
    "Sub category": "Earrings/Ear Cuffs",
    "quantity": 2,
    "price": 500,
    "tags": 0,
    "multiple images": "d3gyiijzpk1c44.cloudfront.net/upload/product_photos/base/0/22/235/big1.1502167.1.jpg",
    "extra_images": 0,
    "product_url": "http://www.chicaccessorizer.com/Earrings-Ear-Cuffs/Santorini-Studs--black--id-1502167.html",
    "description": "<p>Dior inspired GlassDior inspired Glass Bottom Studs with Blue Crystals&nbsp;Bottom Studs with Black Crystals</p>"
  },
  {
    "product_sku": "BZ37F5BB874",
    "product_name": "Santorini Studs",
    "size": 0,
    "Category": "Jewellery",
    "Sub category": "Earrings/Ear Cuffs",
    "quantity": 5,
    "price": 500,
    "tags": 0,
    "multiple images": "d3gyiijzpk1c44.cloudfront.net/upload/product_photos/base/0/22/235/big1.1502161.1.jpg",
    "extra_images": 0,
    "product_url": "http://www.chicaccessorizer.com/Earrings-Ear-Cuffs/Santorini-Studs-id-1502161.html",
    "description": "<p>Dior inspired Glass Bottom Studs with Blue Crystals</p>"
  },
  {
    "product_sku": "IH32693C9D9",
    "product_name": "Orange Double Illusion Danglers",
    "size": 0,
    "Category": "Jewellery",
    "Sub category": "Earrings/Ear Cuffs",
    "quantity": 2,
    "price": 550,
    "tags": 0,
    "multiple images": "d3gyiijzpk1c44.cloudfront.net/upload/product_photos/base/0/20/165/big1.1353212.1.jpg",
    "extra_images": 0,
    "product_url": "http://www.chicaccessorizer.com/Earrings/Orange-Double-Illusion-Danglers-id-1353212.html",
    "description": "<p>Orange pearl Dior inspired Earrings</p>"
  },
  {
    "product_sku": "KG3268E6B59",
    "product_name": "Green Double Illusion Danglers",
    "size": 0,
    "Category": "Jewellery",
    "Sub category": "Earrings/Ear Cuffs",
    "quantity": 2,
    "price": 650,
    "tags": 0,
    "multiple images": "d3gyiijzpk1c44.cloudfront.net/upload/product_photos/base/0/20/165/big1.1353176.1.jpg",
    "extra_images": 0,
    "product_url": "http://www.chicaccessorizer.com/Earrings/Green-Double-Illusion-Danglers-id-1353176.html",
    "description": "<p>Green And White Pearl combo Dior Double Pearl Inspired Dangling Earrings</p>"
  },
  {
    "product_sku": "YA2D00F7761",
    "product_name": "Classsic Triangle",
    "size": 0,
    "Category": "Jewellery",
    "Sub category": "Earrings/Ear Cuffs",
    "quantity": 1,
    "price": 400,
    "tags": 0,
    "multiple images": "d3gyiijzpk1c44.cloudfront.net/upload/product_photos/base/0/18/110/big1.1208060.1.jpg",
    "extra_images": 0,
    "product_url": "http://www.chicaccessorizer.com/Earrings/Classsic-Triangle-id-1208060.html",
    "description": "<p>Enamel Black/white/gold triangle studs</p>"
  },
  {
    "product_sku": "JG23E111D82",
    "product_name": "Mai - Tai",
    "size": 0,
    "Category": "Jewellery",
    "Sub category": "Earrings/Ear Cuffs",
    "quantity": 2,
    "price": 400,
    "tags": 0,
    "multiple images": "d3gyiijzpk1c44.cloudfront.net/upload/product_photos/base/0/14/178/big1.963124.1.jpg",
    "extra_images": 0,
    "product_url": "http://www.chicaccessorizer.com/Earrings/Mai---Tai-id-963124.html",
    "description": "<p>Multi Colour Stone Earcuff</p>"
  },
  {
    "product_sku": "YW23DC8632B",
    "product_name": "Sambuka",
    "size": 0,
    "Category": "Jewellery",
    "Sub category": "Earrings/Ear Cuffs",
    "quantity": 1,
    "price": 500,
    "tags": 0,
    "multiple images": "d3gyiijzpk1c44.cloudfront.net/upload/product_photos/base/0/14/176/big1.962647.1.jpg",
    "extra_images": 0,
    "product_url": "http://www.chicaccessorizer.com/Earrings/Sambuka-id-962647.html",
    "description": "<p>Elegant Emerald and Pearl Rectangle Dangling Earrings&nbsp;</p>"
  },
  {
    "product_sku": "AT1E5B6F3A0",
    "product_name": "Monoztec",
    "size": 0,
    "Category": "Jewellery",
    "Sub category": "Earrings/Ear Cuffs",
    "quantity": 2,
    "price": 450,
    "tags": 0,
    "multiple images": "d3gyiijzpk1c44.cloudfront.net/upload/product_photos/base/0/12/111/big1.814893.1.jpg",
    "extra_images": 0,
    "product_url": "http://www.chicaccessorizer.com/Earrings/Monoztec-id-814893.html",
    "description": "<p>Black and White Aztec enamel hoop Danglers</p>"
  },
  {
    "product_sku": "OV1CD97DE7F",
    "product_name": "Bloddy Mary Studs",
    "size": 0,
    "Category": "Jewellery",
    "Sub category": "Earrings/Ear Cuffs",
    "quantity": 1,
    "price": 300,
    "tags": 0,
    "multiple images": "d3gyiijzpk1c44.cloudfront.net/upload/product_photos/base/0/11/209/big1.774424.1.jpg",
    "extra_images": 0,
    "product_url": "http://www.chicaccessorizer.com/Earrings/Bloddy-Mary-Studs2-id-774424.html",
    "description": "<p>Maroon mesh Round Studs</p>"
  },
  {
    "product_sku": "BP4849C8D8C",
    "product_name": "Rock Chic Tassel",
    "size": 0,
    "Category": "Jewellery",
    "Sub category": "Necklaces",
    "quantity": 3,
    "price": 700,
    "tags": 0,
    "multiple images": "d3gyiijzpk1c44.cloudfront.net/upload/product_photos/base/0/29/155/big1.1940472.1.jpg",
    "extra_images": "d3gyiijzpk1c44.cloudfront.net/upload/product_photos/base/0/29/155/big2.1940472.1.jpg",
    "product_url": "http://www.chicaccessorizer.com/Necklaces/Rock-Chic-Tassel-id-1940472.html",
    "description": "<p>Faux Leather long Fringe necklace with Silver &amp; gold Cube Details.</p>"
  },
  {
    "product_sku": "ZL4849C2D44",
    "product_name": "Midnight Bae",
    "size": 0,
    "Category": "Jewellery",
    "Sub category": "Necklaces",
    "quantity": 1,
    "price": 900,
    "tags": 0,
    "multiple images": "d3gyiijzpk1c44.cloudfront.net/upload/product_photos/base/0/29/155/big1.1940469.1.jpg",
    "extra_images": 0,
    "product_url": "http://www.chicaccessorizer.com/Necklaces/Midnight-Bae-id-1940469.html",
    "description": "<p>Black Stone along with Shimmery Blue Druzy Stone Mutli layer necklace.</p>"
  },
  {
    "product_sku": "UU4849B8995",
    "product_name": "Bianca Tri",
    "size": 0,
    "Category": "Jewellery",
    "Sub category": "Necklaces",
    "quantity": 1,
    "price": 700,
    "tags": 0,
    "multiple images": "d3gyiijzpk1c44.cloudfront.net/upload/product_photos/base/0/29/155/big1.1940465.1.jpg",
    "extra_images": "d3gyiijzpk1c44.cloudfront.net/upload/product_photos/base/0/29/155/big2.1940465.1.jpg",
    "product_url": "http://www.chicaccessorizer.com/Necklaces/Bianca-Tri-id-1940465.html",
    "description": "<p>White Marble Effect Stone set in metal Pendant along with long chain.</p>"
  },
  {
    "product_sku": "DV4848ECEE5",
    "product_name": "Turquoise Tassel",
    "size": 0,
    "Category": "Jewellery",
    "Sub category": "Necklaces",
    "quantity": 2,
    "price": 550,
    "tags": 0,
    "multiple images": "d3gyiijzpk1c44.cloudfront.net/upload/product_photos/base/0/29/155/big1.1940382.1.jpg",
    "extra_images": 0,
    "product_url": "http://www.chicaccessorizer.com/Necklaces/Turquoise-Tassel-id-1940382.html",
    "description": "<p>3 Layer Chains Necklace with Turquoise Stone and Gold &nbsp;Chain Tassels</p>"
  },
  {
    "product_sku": "VB44F388B5D",
    "product_name": "Powdered Blue Quartz",
    "size": 0,
    "Category": "Jewellery",
    "Sub category": "Necklaces",
    "quantity": 2,
    "price": 500,
    "tags": 0,
    "multiple images": "d3gyiijzpk1c44.cloudfront.net/upload/product_photos/base/0/28/62/big1.1850897.1.jpg",
    "extra_images": 0,
    "product_url": "http://www.chicaccessorizer.com/Necklaces/Powdered-Blue-Quartz-id-1850897.html",
    "description": "<p>Semi Precious Stone Pendant in long gold chain.</p>"
  },
  {
    "product_sku": "MM4459F2F15",
    "product_name": "Athena",
    "size": 0,
    "Category": "Jewellery",
    "Sub category": "Necklaces",
    "quantity": 3,
    "price": 1000,
    "tags": 0,
    "multiple images": "d3gyiijzpk1c44.cloudfront.net/upload/product_photos/base/0/27/255/big1.1834792.1.jpg",
    "extra_images": "d3gyiijzpk1c44.cloudfront.net/upload/product_photos/base/0/27/255/big2.1834792.1.jpg",
    "product_url": "http://www.chicaccessorizer.com/Necklaces/Athena-id-1834792.html",
    "description": "<p>A Beautiful Antique gold Necklace with Pearls and Rhinestone Details.</p>"
  },
  {
    "product_sku": "GY44599A983",
    "product_name": "3 layer Boho",
    "size": 0,
    "Category": "Jewellery",
    "Sub category": "Necklaces",
    "quantity": 3,
    "price": 450,
    "tags": 0,
    "multiple images": "d3gyiijzpk1c44.cloudfront.net/upload/product_photos/base/0/27/255/big1.1834756.1.jpg",
    "extra_images": "d3gyiijzpk1c44.cloudfront.net/upload/product_photos/base/0/27/255/big2.1834756.1.jpg",
    "product_url": "http://www.chicaccessorizer.com/Necklaces/3-layer-Boho-id-1834756.html",
    "description": "<p>A 3 layer Boho inspired chains with turquoise Stone. </p>"
  },
  {
    "product_sku": "WS3ACE5F0A8",
    "product_name": "Krystallo",
    "size": 0,
    "Category": "Jewellery",
    "Sub category": "Necklaces",
    "quantity": 2,
    "price": 600,
    "tags": 0,
    "multiple images": "d3gyiijzpk1c44.cloudfront.net/upload/product_photos/base/0/24/22/big1.1578565.2.jpg",
    "extra_images": "d3gyiijzpk1c44.cloudfront.net/upload/product_photos/base/0/24/22/big2.1578565.1.jpg",
    "product_url": "http://www.chicaccessorizer.com/Necklaces/Krystallo-id-1578565.html",
    "description": "<p>Rough Cut white crystal Stones along with gold bar and similar beads form this mutli layer necklace</p>"
  },
  {
    "product_sku": "AR3ACCC8985",
    "product_name": "Krystallo Blue",
    "size": 0,
    "Category": "Jewellery",
    "Sub category": "Necklaces",
    "quantity": 3,
    "price": 600,
    "tags": 0,
    "multiple images": "d3gyiijzpk1c44.cloudfront.net/upload/product_photos/base/0/24/21/big1.1578398.2.jpg",
    "extra_images": "d3gyiijzpk1c44.cloudfront.net/upload/product_photos/base/0/24/21/big2.1578398.1.jpg",
    "product_url": "http://www.chicaccessorizer.com/Necklaces/Krystallo-Blue-id-1578398.html",
    "description": "<p>Rough Cut Sapphire Stones along with gold bar and similar beads form this mutli layer necklace</p>"
  },
  {
    "product_sku": "SY3AC9CC0E4",
    "product_name": "Blue Fern",
    "size": 0,
    "Category": "Jewellery",
    "Sub category": "Necklaces",
    "quantity": 4,
    "price": 300,
    "tags": 0,
    "multiple images": "d3gyiijzpk1c44.cloudfront.net/upload/product_photos/base/0/24/20/big1.1578085.1.jpg",
    "extra_images": "d3gyiijzpk1c44.cloudfront.net/upload/product_photos/base/0/24/20/big2.1578085.1.jpg",
    "product_url": "http://www.chicaccessorizer.com/Necklaces/Blue-Fern-id-1578085.html",
    "description": "<p>Dainty necklace with Blue beads and leaf pendant.</p>"
  },
  {
    "product_sku": "BG38AB4E088",
    "product_name": "Arrow & Wing",
    "size": 0,
    "Category": "Jewellery",
    "Sub category": "Necklaces",
    "quantity": 2,
    "price": 500,
    "tags": 0,
    "multiple images": "d3gyiijzpk1c44.cloudfront.net/upload/product_photos/base/0/23/54/big1.1521201.1.jpg",
    "extra_images": "d3gyiijzpk1c44.cloudfront.net/upload/product_photos/base/0/23/54/big2.1521201.1.jpg",
    "product_url": "http://www.chicaccessorizer.com/Necklaces/Arrow---Wing-id-1521201.html",
    "description": "<p>Gold multi Layer necklace with Assorted pendants</p>"
  },
  {
    "product_sku": "JS2D5449771",
    "product_name": "Tassel Coins",
    "size": 0,
    "Category": "Jewellery",
    "Sub category": "Necklaces",
    "quantity": 2,
    "price": 500,
    "tags": 0,
    "multiple images": "d3gyiijzpk1c44.cloudfront.net/upload/product_photos/base/0/18/145/big1.1216797.1.jpg",
    "extra_images": "d3gyiijzpk1c44.cloudfront.net/upload/product_photos/base/0/18/145/big2.1216797.1.jpg",
    "product_url": "http://www.chicaccessorizer.com/Necklaces/Tassel-Coins-id-1216797.html",
    "description": "<p>Silver Coin tassel necklace</p>"
  },
  {
    "product_sku": "QS1E5929084",
    "product_name": "Two Sided long Chain",
    "size": 0,
    "Category": "Jewellery",
    "Sub category": "Necklaces",
    "quantity": 1,
    "price": 550,
    "tags": 0,
    "multiple images": "d3gyiijzpk1c44.cloudfront.net/upload/product_photos/base/0/12/110/big1.814655.1.jpg",
    "extra_images": "d3gyiijzpk1c44.cloudfront.net/upload/product_photos/base/0/12/110/big2.814655.1.jpg",
    "product_url": "http://www.chicaccessorizer.com/Necklaces/Two-Sided-long-Chain--id-814655.html",
    "description": "<p>Long Necklace with one side Pearl String and other silver chain link completed with Ring and Heart charm</p>\n<p>Lenght : 19\" approx</p>"
  },
  {
    "product_sku": "NC1E58A7C68",
    "product_name": "Charms Necklace",
    "size": 0,
    "Category": "Jewellery",
    "Sub category": "Necklaces",
    "quantity": 2,
    "price": 500,
    "tags": 0,
    "multiple images": "d3gyiijzpk1c44.cloudfront.net/upload/product_photos/base/0/12/110/big1.814602.1.jpg",
    "extra_images": "d3gyiijzpk1c44.cloudfront.net/upload/product_photos/base/0/12/110/big2.814602.1.jpg",
    "product_url": "http://www.chicaccessorizer.com/Necklaces/Charms-Necklace-id-814602.html",
    "description": "<p>Charms Necklace set in silver chain wih Pearls, Stars &amp; Ring Charm</p>"
  },
  {
    "product_sku": "CD48491D7A0",
    "product_name": "Fera Pink",
    "size": 0,
    "Category": "Jewellery",
    "Sub category": "Rings",
    "quantity": 2,
    "price": 500,
    "tags": 0,
    "multiple images": "d3gyiijzpk1c44.cloudfront.net/upload/product_photos/base/0/29/155/big1.1940401.1.jpg",
    "extra_images": 0,
    "product_url": "http://www.chicaccessorizer.com/Rings/Fera-Pink-id-1940401.html",
    "description": "<p>Pastel Colour Marble Stone ring</p>"
  },
  {
    "product_sku": "UG48491B18A",
    "product_name": "Fera Blue",
    "size": 0,
    "Category": "Jewellery",
    "Sub category": "Rings",
    "quantity": 2,
    "price": 500,
    "tags": 0,
    "multiple images": "d3gyiijzpk1c44.cloudfront.net/upload/product_photos/base/0/29/155/big1.1940400.1.jpg",
    "extra_images": "d3gyiijzpk1c44.cloudfront.net/upload/product_photos/base/0/29/155/big2.1940400.1.jpg",
    "product_url": "http://www.chicaccessorizer.com/Rings/Fera-Blue-id-1940400.html",
    "description": "<p>Blue and Brown Marble effect round Stone Ring</p>"
  },
  {
    "product_sku": "TN4848E72B1",
    "product_name": "Mecca",
    "size": 0,
    "Category": "Jewellery",
    "Sub category": "Rings",
    "quantity": 2,
    "price": 550,
    "tags": 0,
    "multiple images": "d3gyiijzpk1c44.cloudfront.net/upload/product_photos/base/0/29/155/big1.1940379.1.jpg",
    "extra_images": "d3gyiijzpk1c44.cloudfront.net/upload/product_photos/base/0/29/155/big2.1940379.1.jpg",
    "product_url": "http://www.chicaccessorizer.com/Rings/Mecca-id-1940379.html",
    "description": "<p>2 Black Stone with A middle Marble stone&nbsp;</p>"
  },
  {
    "product_sku": "ZQ4316218F3",
    "product_name": "Pearl Bottle Opener",
    "size": 0,
    "Category": "Jewellery",
    "Sub category": "Rings",
    "quantity": 2,
    "price": 450,
    "tags": 0,
    "multiple images": "d3gyiijzpk1c44.cloudfront.net/upload/product_photos/base/0/27/122/big1.1800838.1.jpg",
    "extra_images": "d3gyiijzpk1c44.cloudfront.net/upload/product_photos/base/0/27/122/big2.1800838.1.jpg",
    "product_url": "http://www.chicaccessorizer.com/Rings/Pearl-Bottle-Opener-id-1800838.html",
    "description": "<p>Eccentric Pearl ring in hammered gold finish</p>"
  },
  {
    "product_sku": "HY3E0335AE4",
    "product_name": "Nailed It",
    "size": 0,
    "Category": "Jewellery",
    "Sub category": "Rings",
    "quantity": 3,
    "price": 300,
    "tags": 0,
    "multiple images": "d3gyiijzpk1c44.cloudfront.net/upload/product_photos/base/0/25/102/big1.1664636.1.jpg",
    "extra_images": 0,
    "product_url": "http://www.chicaccessorizer.com/Rings/Nailed-It-id-1664636.html",
    "description": "<p>Cartier Inspired nail Ring</p>"
  },
  {
    "product_sku": "ZA36B5AD845",
    "product_name": "pearl Bullet Ring",
    "size": 0,
    "Category": "Jewellery",
    "Sub category": "Rings",
    "quantity": 3,
    "price": 400,
    "tags": 0,
    "multiple images": "d3gyiijzpk1c44.cloudfront.net/upload/product_photos/base/0/22/104/big1.1468601.1.jpg",
    "extra_images": 0,
    "product_url": "http://www.chicaccessorizer.com/Rings/pearl-Bullet-Ring-id-1468601.html",
    "description": "<p>Rose gold pearl open ring</p>\n<p>size : adjustable</p>"
  },
  {
    "product_sku": "NU30DA62103",
    "product_name": "Double Trouble - Silver",
    "size": 0,
    "Category": "Jewellery",
    "Sub category": "Rings",
    "quantity": 2,
    "price": 500,
    "tags": 0,
    "multiple images": "d3gyiijzpk1c44.cloudfront.net/upload/product_photos/base/0/20/2/big1.1311389.1.jpg",
    "extra_images": 0,
    "product_url": "http://www.chicaccessorizer.com/Rings/Double-Trouble---Silver-id-1311389.html",
    "description": "<p>double pearl 2 finger ring</p>\n<p>size : adjustable</p>"
  },
  {
    "product_sku": "WT303F8480F",
    "product_name": "Cubiod",
    "size": 0,
    "Category": "Jewellery",
    "Sub category": "Rings",
    "quantity": 3,
    "price": 500,
    "tags": 0,
    "multiple images": "d3gyiijzpk1c44.cloudfront.net/upload/product_photos/base/0/19/195/big1.1295150.1.jpg",
    "extra_images": "d3gyiijzpk1c44.cloudfront.net/upload/product_photos/base/0/19/195/big2.1295150.1.jpg",
    "product_url": "http://www.chicaccessorizer.com/Rings/Cubiod-id-1295150.html",
    "description": "<p>Chanel inspired pearl cube ring size : adjustable</p>"
  },
  {
    "product_sku": "SA28C42CFF0",
    "product_name": "3 Pearl Silver Ring",
    "size": 0,
    "Category": "Jewellery",
    "Sub category": "Rings",
    "quantity": 1,
    "price": 350,
    "tags": 0,
    "multiple images": "d3gyiijzpk1c44.cloudfront.net/upload/product_photos/base/0/16/178/big1.1094312.1.jpg",
    "extra_images": "d3gyiijzpk1c44.cloudfront.net/upload/product_photos/base/0/16/178/big2.1094312.1.jpg",
    "product_url": "http://www.chicaccessorizer.com/Rings/3-Pearl-Silver-Ring-id-1094312.html",
    "description": "<p>Chanel inspired Pearl ring</p>"
  },
  {
    "product_sku": "VA28C40F44B",
    "product_name": "5 Pearl ring",
    "size": 0,
    "Category": "Jewellery",
    "Sub category": "Rings",
    "quantity": 3,
    "price": 500,
    "tags": 0,
    "multiple images": "d3gyiijzpk1c44.cloudfront.net/upload/product_photos/base/0/16/178/big1.1094300.1.jpg",
    "extra_images": "d3gyiijzpk1c44.cloudfront.net/upload/product_photos/base/0/16/178/big2.1094300.1.jpg",
    "product_url": "http://www.chicaccessorizer.com/Rings/5-Pearl-ring-id-1094300.html",
    "description": "<p>chanel inspired pearl ring</p>"
  },
  {
    "product_sku": "KQ1F2A1E086",
    "product_name": "Anchor Up",
    "size": 0,
    "Category": "Jewellery",
    "Sub category": "Rings",
    "quantity": 1,
    "price": 300,
    "tags": 0,
    "multiple images": "d3gyiijzpk1c44.cloudfront.net/upload/product_photos/base/0/12/195/big1.836566.1.jpg",
    "extra_images": 0,
    "product_url": "http://www.chicaccessorizer.com/Rings/Anchor-Up--id-836566.html",
    "description": "<p>White Enamel and gold Ring with Anchor Symbol</p>\n<p>size: adjustable</p>"
  },
  {
    "product_sku": "TY1F29FF873",
    "product_name": "Peach stone With Charms",
    "size": 0,
    "Category": "Jewellery",
    "Sub category": "Rings",
    "quantity": 2,
    "price": 300,
    "tags": 0,
    "multiple images": "d3gyiijzpk1c44.cloudfront.net/upload/product_photos/base/0/12/195/big1.836553.1.jpg",
    "extra_images": 0,
    "product_url": "http://www.chicaccessorizer.com/Rings/Peach-stone-With-Charms--id-836553.html",
    "description": "<p>peach Stone Ring with mutli charms</p>\n<p>Size: ADjustable</p>"
  },
  {
    "product_sku": "YF2B0647938",
    "product_name": "Leaf Hair band",
    "size": 0,
    "Category": "Sunglasses & Hair Accessories",
    "Sub category": 0,
    "quantity": 0,
    "price": 0,
    "tags": 0,
    "multiple images": "d3gyiijzpk1c44.cloudfront.net/upload/product_photos/base/0/17/159/big1.1154930.1.jpg",
    "extra_images": "d3gyiijzpk1c44.cloudfront.net/upload/product_photos/base/0/17/159/big2.1154930.1.jpg",
    "product_url": "http://www.chicaccessorizer.com/Hair/Leaf-Hair-band-id-1154930.html",
    "description": "<p>Alloy Metal leaf placed on the side of hairband</p>"
  },
  {
    "product_sku": "ZB23E0FE3F2",
    "product_name": "Blair",
    "size": 0,
    "Category": "Sunglasses & Hair Accessories",
    "Sub category": 0,
    "quantity": 2,
    "price": 400,
    "tags": 0,
    "multiple images": "d3gyiijzpk1c44.cloudfront.net/upload/product_photos/base/0/14/178/big1.963116.1.jpg",
    "extra_images": 0,
    "product_url": "http://www.chicaccessorizer.com/Hair/Blair-id-963116.html",
    "description": "<p>3 pearl and Gold Chain Band That can worn as Headgear as well as Hairband</p>"
  },
  {
    "product_sku": "SA23E0F6A61",
    "product_name": "Gatsby",
    "size": 0,
    "Category": "Sunglasses & Hair Accessories",
    "Sub category": 0,
    "quantity": 1,
    "price": 400,
    "tags": 0,
    "multiple images": "d3gyiijzpk1c44.cloudfront.net/upload/product_photos/base/0/14/178/big1.963113.1.jpg",
    "extra_images": "d3gyiijzpk1c44.cloudfront.net/upload/product_photos/base/0/14/178/big2.963113.1.jpg",
    "product_url": "http://www.chicaccessorizer.com/Hair/Gatsby-id-963113.html",
    "description": "<p>Gold Chain Braided Band That can worn as Headgear as well as Hairband</p>"
  },
  {
    "product_sku": "LI42BC0EED2",
    "product_name": "Pink Matrix",
    "size": 0,
    "Category": "Sunglasses & Hair Accessories",
    "Sub category": "Sunglasses",
    "quantity": 4,
    "price": 1100,
    "tags": 0,
    "multiple images": "d3gyiijzpk1c44.cloudfront.net/upload/product_photos/base/0/27/85/big1.1791393.1.jpg",
    "extra_images": "d3gyiijzpk1c44.cloudfront.net/upload/product_photos/base/0/27/85/big2.1791393.1.jpg",
    "product_url": "http://www.chicaccessorizer.com/Sunglasses/Pink-Matrix-id-1791393.html",
    "description": "<p>Dior Inspired Pink Reflective Sunglasses with a touch of green!!!</p>"
  },
  {
    "product_sku": "MQ3E1C5299F",
    "product_name": "Moonlit",
    "size": 0,
    "Category": "Sunglasses & Hair Accessories",
    "Sub category": "Sunglasses",
    "quantity": 3,
    "price": 750,
    "tags": 0,
    "multiple images": "d3gyiijzpk1c44.cloudfront.net/upload/product_photos/base/0/25/112/big1.1667269.1.jpg",
    "extra_images": "d3gyiijzpk1c44.cloudfront.net/upload/product_photos/base/0/25/112/big2.1667269.1.jpg",
    "product_url": "http://www.chicaccessorizer.com/Sunglasses/Moonlit-id-1667269.html",
    "description": "<p>Transparent Frame With blue uv protected mercury Glasses.</p>"
  },
  {
    "product_sku": "MH3E01F0C65",
    "product_name": "Matrix Reloaded (reflective)",
    "size": 0,
    "Category": "Sunglasses & Hair Accessories",
    "Sub category": "Sunglasses",
    "quantity": 3,
    "price": 900,
    "tags": 0,
    "multiple images": "d3gyiijzpk1c44.cloudfront.net/upload/product_photos/base/0/25/101/big1.1664503.1.jpg",
    "extra_images": "d3gyiijzpk1c44.cloudfront.net/upload/product_photos/base/0/25/101/big2.1664503.1.jpg",
    "product_url": "http://www.chicaccessorizer.com/Sunglasses/Matrix-Reloaded--reflective--id-1664503.html",
    "description": "<p>Dior Insprised Uv protected Reflective Sunglasses</p>"
  },
  {
    "product_sku": "MA38F112DF5",
    "product_name": "Oculus",
    "size": 0,
    "Category": "Sunglasses & Hair Accessories",
    "Sub category": "Sunglasses",
    "quantity": 2,
    "price": 750,
    "tags": 0,
    "multiple images": "d3gyiijzpk1c44.cloudfront.net/upload/product_photos/base/0/23/82/big1.1528516.1.jpg",
    "extra_images": 0,
    "product_url": "http://www.chicaccessorizer.com/Sunglasses/Oculus-id-1528516.html",
    "description": "<p>Dior Inspired UV protected sunglasses</p>"
  },
  {
    "product_sku": "NC431850614",
    "product_name": "Arrows",
    "size": 0,
    "Category": "Flash Tattoos",
    "Sub category": 0,
    "quantity": 5,
    "price": 200,
    "tags": 0,
    "multiple images": "d3gyiijzpk1c44.cloudfront.net/upload/product_photos/base/0/27/123/big1.1801067.1.jpg",
    "extra_images": 0,
    "product_url": "http://www.chicaccessorizer.com/Mettalic-Flash-Tattoos/Arrows-id-1801067.html",
    "description": "<div>\n<p>Metallic / flash tattoos make you stand out in the crowd and we all know it!<br /> They are simple to use!</p>\n<p>INSTRUCTIONS TO USE:</p>\n<ul>\n<li class=\"first-child\">Cut the tattoo of your choice and remove the clear sheet.</li>\n<li>Place tattoo face down on skin</li>\n<li>Wet the tattoo thoroughly with a sponge or towel</li>\n<li>After 30 seconds, gently remove the back paper</li>\n<li class=\"last-child\">Allow tattoo to dry</li>\n</ul>\n</div>"
  },
  {
    "product_sku": "IJ3E06148DD",
    "product_name": "Gold Black Triangles",
    "size": 0,
    "Category": "Flash Tattoos",
    "Sub category": 0,
    "quantity": 11,
    "price": 225,
    "tags": 0,
    "multiple images": "d3gyiijzpk1c44.cloudfront.net/upload/product_photos/base/0/25/103/big1.1664937.1.jpg",
    "extra_images": 0,
    "product_url": "http://www.chicaccessorizer.com/Mettalic-Flash-Tattoos/Gold-Black-Triangles-id-1664937.html",
    "description": "<p>Metallic Flash Tattoos</p>"
  },
  {
    "product_sku": "OX2C619CA38",
    "product_name": "Freedom",
    "size": 0,
    "Category": "Flash Tattoos",
    "Sub category": 0,
    "quantity": 5,
    "price": 225,
    "tags": 0,
    "multiple images": "d3gyiijzpk1c44.cloudfront.net/upload/product_photos/base/0/18/45/big1.1191351.1.jpg",
    "extra_images": "d3gyiijzpk1c44.cloudfront.net/upload/product_photos/base/0/18/45/big2.1191351.1.jpg",
    "product_url": "http://www.chicaccessorizer.com/Mettalic-Flash-Tattoos/Freedom-id-1191351.html",
    "description": "<div>\n<p>Metallic / flash tattoos make you stand out in the crowd and we all know it!<br /> They are simple to use!</p>\n<p>INSTRUCTIONS TO USE:</p>\n<ul>\n<li class=\"first-child\">Cut the tattoo of your choice and remove the clear sheet.</li>\n<li>Place tattoo face down on skin</li>\n<li>Wet the tattoo thoroughly with a sponge or towel</li>\n<li>After 30 seconds, gently remove the back paper</li>\n<li class=\"last-child\">Allow tattoo to dry</li>\n</ul>\n</div>"
  },
  {
    "product_sku": "RJ2C60939AB",
    "product_name": "Dreamcatcher",
    "size": 0,
    "Category": "Flash Tattoos",
    "Sub category": 0,
    "quantity": 2,
    "price": 225,
    "tags": 0,
    "multiple images": "d3gyiijzpk1c44.cloudfront.net/upload/product_photos/base/0/18/45/big1.1191242.1.jpg",
    "extra_images": "d3gyiijzpk1c44.cloudfront.net/upload/product_photos/base/0/18/45/big2.1191242.1.jpg",
    "product_url": "http://www.chicaccessorizer.com/Mettalic-Flash-Tattoos/Dreamcatcher-id-1191242.html",
    "description": "<p>Metallic / flash tattoos make you stand out in the crowd and we all know it!<br /> They are simple to use!</p>\n<p>INSTRUCTIONS TO USE:</p>\n<ul>\n<li class=\"first-child\">Cut the tattoo of your choice and remove the clear sheet.</li>\n<li>Place tattoo face down on skin</li>\n<li>Wet the tattoo thoroughly with a sponge or towel</li>\n<li>After 30 seconds, gently remove the back paper</li>\n<li class=\"last-child\">Allow tattoo to dry</li>\n</ul>"
  },
  {
    "product_sku": "HV484AE0C89",
    "product_name": "Classic Chevron iphone 6/6s",
    "size": 0,
    "Category": "Mobile Accessories",
    "Sub category": "Mobile Covers",
    "quantity": 4,
    "price": 750,
    "tags": 0,
    "multiple images": "d3gyiijzpk1c44.cloudfront.net/upload/product_photos/base/0/29/156/big1.1940586.1.jpg",
    "extra_images": 0,
    "product_url": "http://www.chicaccessorizer.com/Mobile-Covers/Classic-Chevron-iphone-6-6s-id-1940586.html",
    "description": "<p>Black n White chevron print transparent hard back iphone 6/6s cover.</p>"
  },
  {
    "product_sku": "JE484ADCF35",
    "product_name": "Bow - Wow iphone 6/6s",
    "size": 0,
    "Category": "Mobile Accessories",
    "Sub category": "Mobile Covers",
    "quantity": 2,
    "price": 7500,
    "tags": 0,
    "multiple images": "d3gyiijzpk1c44.cloudfront.net/upload/product_photos/base/0/29/156/big1.1940585.1.jpg",
    "extra_images": 0,
    "product_url": "http://www.chicaccessorizer.com/Mobile-Covers/Bow---Wow-iphone-6-6s-id-1940585.html",
    "description": "<p>Black &amp; White Bow Print transparent soft silicon TPU iphone 6/6s cover.</p>"
  },
  {
    "product_sku": "ZB484ADA89F",
    "product_name": "Macarons iphone 6/6s",
    "size": 0,
    "Category": "Mobile Accessories",
    "Sub category": "Mobile Covers",
    "quantity": 2,
    "price": 750,
    "tags": 0,
    "multiple images": "d3gyiijzpk1c44.cloudfront.net/upload/product_photos/base/0/29/156/big1.1940584.1.jpg",
    "extra_images": 0,
    "product_url": "http://www.chicaccessorizer.com/Mobile-Covers/Macarons-iphone-6-6s-id-1940584.html",
    "description": "<p>Macaron Print Trasparent Hard back cover for iphone 6/6s.</p>"
  },
  {
    "product_sku": "YB484AD90DF",
    "product_name": "Purplicious Iphone 6/6s",
    "size": 0,
    "Category": "Mobile Accessories",
    "Sub category": "Mobile Covers",
    "quantity": 2,
    "price": 750,
    "tags": 0,
    "multiple images": "d3gyiijzpk1c44.cloudfront.net/upload/product_photos/base/0/29/156/big1.1940583.1.jpg",
    "extra_images": 0,
    "product_url": "http://www.chicaccessorizer.com/Mobile-Covers/Purplicious-Iphone-6-6s-id-1940583.html",
    "description": "<p>Shades of Purple in Cheveron print on Soft Silicon tpu transparent cover.</p>"
  },
  {
    "product_sku": "JD484AD3D2F",
    "product_name": "Oceanis Iphone 6/6s",
    "size": 0,
    "Category": "Mobile Accessories",
    "Sub category": "Mobile Covers",
    "quantity": 5,
    "price": 750,
    "tags": 0,
    "multiple images": "d3gyiijzpk1c44.cloudfront.net/upload/product_photos/base/0/29/156/big1.1940581.1.jpg",
    "extra_images": 0,
    "product_url": "http://www.chicaccessorizer.com/Mobile-Covers/Oceanis-Iphone-6-6s-id-1940581.html",
    "description": "<p>Transparent hard cover Iphone 6/6s case.</p>"
  },
  {
    "product_sku": "TB4849111C8",
    "product_name": "Donut Worry (iphone 6/6s)",
    "size": 0,
    "Category": "Mobile Accessories",
    "Sub category": "Mobile Covers",
    "quantity": 2,
    "price": 750,
    "tags": 0,
    "multiple images": "d3gyiijzpk1c44.cloudfront.net/upload/product_photos/base/0/29/155/big1.1940396.2.jpg",
    "extra_images": 0,
    "product_url": "http://www.chicaccessorizer.com/Mobile-Covers/Donut-Worry--iphone-6-6s--id-1940396.html",
    "description": "<p>Transparent Hard Back iphone 6/6s cover with 3d print of Donuts</p>"
  },
  {
    "product_sku": "UY48490A509",
    "product_name": "Vintage Floral (iphone 6/6s)",
    "size": 0,
    "Category": "Mobile Accessories",
    "Sub category": "Mobile Covers",
    "quantity": 3,
    "price": 750,
    "tags": 0,
    "multiple images": "d3gyiijzpk1c44.cloudfront.net/upload/product_photos/base/0/29/155/big1.1940394.1.jpg",
    "extra_images": 0,
    "product_url": "http://www.chicaccessorizer.com/Mobile-Covers/Vintage-Floral--iphone-6-6s--id-1940394.html",
    "description": "<p>Transparent Hard Back iphone 6/6s cover with Vintage floral Print</p>"
  },
  {
    "product_sku": "QS48490458F",
    "product_name": "Ferns (iphone 6/6s)",
    "size": 0,
    "Category": "Mobile Accessories",
    "Sub category": "Mobile Covers",
    "quantity": 5,
    "price": 750,
    "tags": 0,
    "multiple images": "d3gyiijzpk1c44.cloudfront.net/upload/product_photos/base/0/29/155/big1.1940391.1.jpg",
    "extra_images": 0,
    "product_url": "http://www.chicaccessorizer.com/Mobile-Covers/Ferns--iphone-6-6s--id-1940391.html",
    "description": "<p>Soft Silicone TPU iphone 6/6s Transparent Cover</p>"
  },
  {
    "product_sku": "MC4848FEC0C",
    "product_name": "Get Shit Done Iphone 6/6s",
    "size": 0,
    "Category": "Mobile Accessories",
    "Sub category": "Mobile Covers",
    "quantity": 4,
    "price": 750,
    "tags": 0,
    "multiple images": "d3gyiijzpk1c44.cloudfront.net/upload/product_photos/base/0/29/155/big1.1940389.1.jpg",
    "extra_images": 0,
    "product_url": 0,
    "description": "<p>Soft Silicone TPU iphone 6/6s Transparent Cover</p>"
  },
  {
    "product_sku": 0,
    "product_name": 0,
    "size": 0,
    "Category": 0,
    "Sub category": 0,
    "quantity": 0,
    "price": 0,
    "tags": 0,
    "multiple images": 0,
    "extra_images": "http://www.chicaccessorizer.com/Mobile-Covers/Get-Shit-Done-Iphone-6-6s-id-1940389.html",
    "product_url": 0,
    "description": 0
  }
]