<?xml version="1.0" encoding="UTF-8"?>
<svg width="244px" height="244px" viewBox="0 0 244 244" version="1.1" xmlns="http://www.w3.org/2000/svg" xmlns:xlink="http://www.w3.org/1999/xlink">
    <!-- Generator: Sketch 40.3 (33839) - http://www.bohemiancoding.com/sketch -->
    <title>Step 2@1.5x</title>
    <desc>Created with Sketch.</desc>
    <defs>
        <polygon id="path-1" points="161.417145 168.762345 161.417145 0.348635835 0 0.348635835 0 168.762345 161.417145 168.762345"></polygon>
    </defs>
    <g id="Symbols" stroke="none" stroke-width="1" fill="none" fill-rule="evenodd">
        <g id="Step-2">
            <g id="Group-6">
                <rect id="Rectangle-Copy-2" fill="#FFCC5C" transform="translate(121.654729, 121.654729) rotate(45.000000) translate(-121.654729, -121.654729) " x="35.6318453" y="35.6318453" width="172.045768" height="172.045768"></rect>
                <g id="Group-7" transform="translate(38.274510, 20.342335)">
                    <g id="Group-4">
                        <mask id="mask-2" fill="white">
                            <use xlink:href="#path-1"></use>
                        </mask>
                        <g id="Clip-3"></g>
                        <path d="M32.2524429,25.747346 C35.3545432,21.1074401 58.984122,31.5785792 70.8911737,37.2530587 C71.0478454,38.1552627 71.291557,39.0818505 71.6049005,40.0084383 C36.9038525,36.2672529 31.7824277,28.0185312 32.2524429,25.747346 M90.5134378,37.2530587 C102.427453,31.5785792 126.057032,21.1074401 129.159132,25.747346 C129.63611,28.0185312 124.514685,36.2672529 89.8066742,40.0084383 C90.1200177,39.0818505 90.3637292,38.1552627 90.5134378,37.2530587 M155.469538,45.6202165 L97.0483898,45.6202165 L86.7602794,45.6202165 C87.0318437,45.2753586 87.3173344,44.958368 87.5714908,44.5856428 C87.7943128,44.4079888 88.0136533,44.2268513 88.2086225,44.0143631 C101.121855,43.8332257 126.711571,43.1330597 132.111524,40.4299313 C139.405463,36.7793146 142.444895,23.7827012 129.343656,15.4434107 C118.401006,8.476585 117.857878,-8.01737495 104.366701,5.53658453 C93.4727927,16.474501 87.1571811,23.9359713 83.8357404,28.1752848 C82.8434861,28.0463985 81.8024895,27.9732468 80.7023057,27.9732468 C79.6090852,27.9732468 78.5680886,28.0463985 77.5827975,28.1752848 C74.2543935,23.9359713 67.9387819,16.474501 57.0518373,5.53658453 C43.5536972,-8.01737495 43.0105685,8.476585 32.0679184,15.4434107 C18.9736431,23.7827012 22.0130747,36.7793146 29.3000511,40.4299313 C34.7069667,43.1330597 60.2897198,43.8332257 73.2029521,44.0143631 C73.3909582,44.2268513 73.6172618,44.4045054 73.8400839,44.578676 C74.0942402,44.9548846 74.3797309,45.2718752 74.6512953,45.6202165 L64.3631848,45.6202165 L5.94203658,45.6202165 C2.67281976,45.6202165 -0.00104447822,48.2954775 -0.00104447822,51.5664022 L-0.00104447822,62.3998163 C-0.00104447822,65.6742244 2.67281976,68.3494854 5.94203658,68.3494854 L64.3631848,68.3494854 L64.3631848,73.2018796 L15.8924324,73.2018796 C12.619734,73.2018796 9.94935133,75.8841075 9.94935133,79.1515488 L9.94935133,162.816159 C9.94935133,166.0836 12.619734,168.762345 15.8924324,168.762345 L64.3631848,168.762345 L97.0483898,168.762345 L145.519142,168.762345 C148.791841,168.762345 151.469187,166.0836 151.469187,162.816159 L151.469187,79.1515488 C151.469187,75.8841075 148.791841,73.2018796 145.519142,73.2018796 L97.0483898,73.2018796 L97.0483898,68.3494854 L155.469538,68.3494854 C158.738755,68.3494854 161.419582,65.6742244 161.419582,62.3998163 L161.419582,51.5664022 C161.419582,48.2954775 158.738755,45.6202165 155.469538,45.6202165" id="Fill-2" fill="#D12626" mask="url(#mask-2)"></path>
                    </g>
                    <path d="M64.3617922,154.291551 L64.3617922,146.439939 L41.8323971,168.761648 L49.7634683,168.761648 L64.3617922,154.291551 Z M64.3617922,129.336381 L64.3617922,121.484769 L16.6535088,168.761648 L24.5810985,168.761648 L64.3617922,129.336381 Z M97.0504788,89.0959958 L97.0504788,96.9510919 L121.010809,73.2011829 L113.083219,73.2011829 L97.0504788,89.0959958 Z M151.471275,92.9695509 L151.471275,85.1179383 L97.0504788,139.023753 L97.0504788,146.875365 L151.471275,92.9695509 Z M151.471275,162.815462 L151.471275,160.000865 L142.617582,168.761648 L145.521231,168.761648 C148.790448,168.761648 151.471275,166.082904 151.471275,162.815462 L151.471275,162.815462 Z M151.471275,142.897308 L151.471275,135.045695 L117.414322,168.761648 L125.345394,168.761648 L151.471275,142.897308 Z M20.2499955,73.2011829 L15.8910398,73.2011829 C12.6218229,73.2011829 9.9479587,75.8834108 9.9479587,79.1508521 L9.9479587,83.4215163 L20.2499955,73.2011829 Z M97.0504788,121.913229 L146.1514,73.2638843 C145.942504,73.2429839 145.73709,73.2011829 145.521231,73.2011829 L138.28996,73.2011829 L97.0504788,114.054649 L97.0504788,121.913229 Z M64.3617922,79.4016578 L64.3617922,73.2011829 L62.6941086,73.2011829 L9.9479587,125.49766 L9.9479587,133.349273 L64.3617922,79.4016578 Z M64.3617922,104.374245 L64.3617922,96.5191487 L9.9479587,150.45283 L9.9479587,158.304443 L64.3617922,104.374245 Z M45.4323653,73.2011829 L37.5082572,73.2011829 L9.9479587,100.528557 L9.9479587,108.387136 L45.4323653,73.2011829 Z M151.471275,117.931688 L100.142134,168.761648 L97.0504788,168.761648 L97.0504788,163.971956 L151.471275,110.083558 L151.471275,117.931688 Z" id="Fill-5" fill="#FFF6E1"></path>
                </g>
            </g>
        </g>
    </g>
</svg>