<?xml version="1.0" encoding="UTF-8"?>
<svg width="101px" height="188px" viewBox="0 0 101 188" version="1.1" xmlns="http://www.w3.org/2000/svg" xmlns:xlink="http://www.w3.org/1999/xlink">
    <!-- Generator: Sketch 40.3 (33839) - http://www.bohemiancoding.com/sketch -->
    <title>Hourglass</title>
    <desc>Created with Sketch.</desc>
    <defs>
        <path d="M0.394978723,0.809220339 C0.109595745,9.9080678 0.149744681,14.647322 1.81646809,23.6951864 C3.98451064,35.4614237 7.96142553,46.8165424 12.3756383,57.9080678 C15.8501489,66.6402712 19.9561915,75.2184407 22.7199574,84.2142373 C23.0465745,85.2783729 24.7219787,84.8238644 24.3931915,83.7521356 C19.4396809,67.6273898 11.3805957,52.6405424 6.65278723,36.3910508 C3.75446809,26.4298305 1.81646809,10.7953898 2.01612766,0.382915254 L0.394978723,0.809220339 L0.394978723,0.809220339 Z" id="path-1"></path>
        <path d="M14.9408298,37.111322 C11.3035532,53.6385085 4.25795745,69.128678 0.387382979,85.5463051 C0.12912766,86.6364746 1.83274468,86.9792542 2.08774468,85.8945085 C4.24819149,76.736 7.77478723,67.904 10.6611702,58.9602712 C14.3277447,47.6008136 17.5418298,36.0081356 18.9231702,24.1214915 C19.9844043,14.9835932 19.7087872,10.2519322 18.8200851,1.19213559 L17.1739787,0.874305085 C18.0659362,11.2498983 17.1707234,26.9797966 14.9408298,37.111322 L14.9408298,37.111322 Z" id="path-3"></path>
        <path d="M39.035617,0.802711864 C31.9444468,8.61722034 18.4424681,4.67308475 14.2333404,15.8936949 C12.7858085,19.7532203 13.3641702,24.256 13.4791915,28.288 C13.647383,34.1694915 13.8177447,40.0542373 13.7548085,45.9389831 C13.698383,51.3616271 13.6321915,56.9578305 12.5015106,62.2850169 C11.4055532,67.4570847 9.16806383,72.132339 8.41934043,77.4649492 C6.51280851,91.0654915 8.55823404,105.357017 5.23021277,118.741695 C4.2167234,122.814915 2.77895745,126.819797 1.428,130.79322 C0.425361702,133.740475 0.0130212766,136.030373 0,138.899525 L0,139.166373 C0.00217021277,139.68922 0.0173617021,140.232678 0.0444893617,140.802169 C0.117191489,142.360949 -0.111765957,145.381966 0.75306383,146.820339 C1.35095745,147.815051 3.06651064,148.464814 4.03659574,148.894373 C6.49544681,149.980203 8.976,150.727593 11.2514681,152.227797 C11.669234,152.501153 12.179234,152.280949 12.4396596,151.916475 C13.8437872,149.942237 12.5687872,148.484339 10.9498085,147.420203 C11.0149149,147.653424 11.0897872,147.882305 11.178766,148.102508 C11.3437021,148.514712 10.9964681,149.086373 10.5721915,149.169898 C10.5114255,149.181831 10.4506596,149.192678 10.3920638,149.201356 C10.7284468,149.488814 10.9725957,149.781695 11.0832766,150.078915 C10.5645957,149.774102 10.0394043,149.493153 9.50444681,149.231729 C8.96406383,149.174237 8.5343617,148.962712 8.1936383,148.637288 C7.97119149,148.544 7.74548936,148.452881 7.51870213,148.363932 C5.97134043,147.762983 3.59387234,147.363797 2.55,146.032814 C1.30104255,144.438237 1.734,140.125288 1.71012766,138.225898 C1.62657447,131.646915 5.4906383,125.154712 6.99893617,118.799186 C9.93631915,106.423322 8.46491489,93.2913898 9.76378723,80.7115932 C10.362766,74.9060339 12.1618723,69.9845424 13.7558936,64.4729492 C14.9874894,60.2164068 15.1893191,55.5975593 15.3651064,51.2 C15.7611702,41.3179661 14.8833191,31.4608814 15.0764681,21.5886102 C15.218617,14.2470508 19.5015319,10.1499661 26.3377021,8.63240678 C31.2141702,7.55091525 36.8089787,5.8359322 40.2639574,2.03064407 C40.8368936,1.39715254 40.2541915,0.527186441 39.6096383,0.527186441 C39.4143191,0.527186441 39.2114043,0.608542373 39.035617,0.802711864 L39.035617,0.802711864 Z M11.0832766,150.078915 C11.4348511,150.283932 11.7820851,150.500881 12.1293191,150.728678 C11.7332553,150.832814 11.3371915,150.936949 10.9411277,151.038915 C11.1722553,150.715661 11.2026383,150.394576 11.0832766,150.078915 L11.0832766,150.078915 Z M25.2157021,52.2077288 C24.1891915,58.0837966 24.0036383,64.0976271 22.7611915,69.9129492 C21.1508936,77.4551864 19.1532128,84.9214915 17.1902553,92.3769492 C16.1246809,96.4187119 15.1285532,100.463729 14.1606383,104.529356 C12.9084255,109.789288 10.7110851,115.453831 11.2568936,120.898169 C11.7842553,126.148339 11.4457021,130.930983 10.4691064,136.080271 C9.92004255,138.970034 8.69604255,143.011797 8.99878723,146.336542 C8.94453191,146.310508 8.88919149,146.28339 8.83493617,146.257356 C8.89787234,146.477559 8.97274468,146.676068 9.05955319,146.848542 C9.03459574,146.679322 9.01397872,146.509017 8.99878723,146.336542 C9.25053191,146.458034 9.50119149,146.58278 9.74642553,146.714034 C10.1457447,146.927729 10.5580851,147.162034 10.9498085,147.420203 C9.99057447,143.920814 11.6594681,139.065492 12.2985957,135.726644 C13.1059149,131.511322 13.545383,127.536814 13.2176809,123.216271 C13.0136809,120.535864 12.648,118.236203 13.3044894,115.615458 C14.1020426,112.429559 14.8258085,109.224136 15.5864681,106.029559 C18.2612553,94.8046102 21.42,83.6989831 23.9754255,72.4469153 C25.4576809,65.9210847 25.7387234,59.2618305 26.8900213,52.6687458 C27.0039574,52.0113898 26.4451277,51.579661 25.938383,51.579661 C25.6041702,51.579661 25.2927447,51.7694915 25.2157021,52.2077288 L25.2157021,52.2077288 Z M5.69246809,134.365288 C4.68874468,136.838508 2.07038298,142.446644 3.42459574,144.996881 C3.81957447,145.739932 5.65665957,146.562169 7.44057447,147.446237 C7.28431915,147.048136 7.16604255,146.600136 7.07380851,146.120678 C7.02389362,145.859254 6.98157447,145.596746 6.94468085,145.334237 C5.31702128,144.478373 4.84391489,144.46861 5.15751064,142.23078 C5.3886383,140.591729 5.84438298,138.961356 6.39670213,137.376542 C6.25238298,136.517424 6.0342766,135.666983 5.69246809,134.82739 L7.36570213,134.82739 C7.02823404,135.660475 6.6983617,136.510915 6.39670213,137.376542 C6.83617021,139.994034 6.57682979,142.683119 6.94468085,145.334237 C6.97723404,145.350508 7.00978723,145.367864 7.04234043,145.38522 C7.62829787,145.698712 8.23487234,145.972068 8.83493617,146.257356 C8.34989362,144.569492 8.517,141.687322 8.48010638,140.883525 C8.37702128,138.663051 8.21208511,136.443661 7.36570213,134.365288 C7.19968085,133.956339 6.86438298,133.751322 6.528,133.751322 C6.19270213,133.751322 5.85848936,133.955254 5.69246809,134.365288 L5.69246809,134.365288 Z M9.50444681,148.563525 C8.89461702,148.181695 8.17302128,147.808542 7.44057447,147.446237 C7.62938298,147.92461 7.87244681,148.332475 8.1936383,148.637288 C8.64070213,148.824949 9.07582979,149.022373 9.50444681,149.231729 C9.77246809,149.259932 10.067617,149.251254 10.3920638,149.201356 C10.1414043,148.986576 9.84082979,148.772881 9.50444681,148.563525 C9.7062766,148.207729 9.90810638,147.851932 10.1110213,147.496136 C9.63682979,147.588339 9.2982766,147.322576 9.05955319,146.848542 C9.1463617,147.452746 9.28959574,148.027661 9.50444681,148.563525 L9.50444681,148.563525 Z" id="path-5"></path>
        <path d="M1.07208511,2.03064407 C4.52597872,5.8359322 10.1218723,7.55091525 14.9983404,8.63240678 C21.8345106,10.1499661 26.1163404,14.2470508 26.2595745,21.5886102 C26.4516383,31.4608814 25.5748723,41.3179661 25.9698511,51.2 C26.1456383,55.5975593 26.3474681,60.2164068 27.5790638,64.4729492 C29.1730851,69.9845424 30.9721915,74.9060339 31.5722553,80.7115932 C32.8700426,93.2913898 31.3997234,106.423322 34.3360213,118.799186 C35.8454043,125.154712 39.7094681,131.646915 39.6259149,138.225898 C39.6009574,140.125288 40.0339149,144.438237 38.7849574,146.032814 C37.7421702,147.363797 35.363617,147.762983 33.8173404,148.363932 C33.5894681,148.452881 33.3648511,148.544 33.1434894,148.637288 C32.8016809,148.962712 32.3719787,149.174237 31.8305106,149.231729 C31.2955532,149.493153 30.7703617,149.773017 30.252766,150.078915 C30.1334043,150.394576 30.1637872,150.715661 30.3949149,151.038915 C29.9988511,150.936949 29.6027872,150.832814 29.2078085,150.728678 C29.5539574,150.500881 29.9022766,150.283932 30.252766,150.078915 C30.3634468,149.781695 30.6075957,149.488814 30.9439787,149.201356 C30.8842979,149.192678 30.824617,149.181831 30.762766,149.169898 C30.3384894,149.086373 29.9912553,148.514712 30.1561915,148.102508 C30.2451702,147.882305 30.3211277,147.654508 30.3851489,147.420203 C28.7672553,148.484339 27.4911702,149.943322 28.896383,151.916475 C29.1557234,152.280949 29.6668085,152.501153 30.0834894,152.227797 C32.3589574,150.727593 34.8405957,149.980203 37.2983617,148.894373 C38.2695319,148.464814 39.9850851,147.815051 40.5829787,146.820339 C41.4478085,145.381966 41.2188511,142.360949 41.2915532,140.802169 C41.4705957,136.965424 41.1222766,134.362034 39.9080426,130.79322 C38.556,126.819797 37.1193191,122.814915 36.1047447,118.741695 C32.7778085,105.357017 34.823234,91.0654915 32.915617,77.4649492 C32.1679787,72.132339 29.9304894,67.4570847 28.8334468,62.2850169 C27.7038511,56.9578305 27.6365745,51.3616271 27.5801489,45.9389831 C27.519383,40.0542373 27.6886596,34.1694915 27.8568511,28.288 C27.9707872,24.256 28.5491489,19.7532203 27.101617,15.8936949 C22.8924894,4.67308475 9.39159574,8.61722034 2.30042553,0.802711864 C2.1246383,0.608542373 1.9217234,0.527186441 1.72531915,0.527186441 C1.08185106,0.527186441 0.49806383,1.39715254 1.07208511,2.03064407 L1.07208511,2.03064407 Z M14.4460213,52.6687458 C15.596234,59.2618305 15.8783617,65.9210847 17.3595319,72.4469153 C19.9149574,83.6989831 23.0747872,94.8046102 25.7484894,106.029559 C26.5091489,109.224136 27.2329149,112.429559 28.0315532,115.615458 C28.6880426,118.236203 28.3212766,120.535864 28.1183617,123.216271 C27.7895745,127.536814 28.2301277,131.511322 29.0363617,135.726644 C29.6765745,139.065492 31.344383,143.920814 30.3851489,147.420203 C30.7768723,147.162034 31.1892128,146.927729 31.5885319,146.714034 C31.8348511,146.58278 32.0844255,146.458034 32.3361702,146.336542 C32.3209787,146.509017 32.3003617,146.679322 32.2754043,146.848542 C32.3632979,146.676068 32.4370851,146.477559 32.5000213,146.257356 C32.445766,146.28339 32.3915106,146.310508 32.3361702,146.336542 C32.64,143.011797 31.416,138.970034 30.8680213,136.080271 C29.8892553,130.930983 29.5507021,126.148339 30.0780638,120.898169 C30.6249574,115.453831 28.427617,109.789288 27.1754043,104.529356 C26.2064043,100.463729 25.2102766,96.4187119 24.1457872,92.3769492 C22.1817447,84.9214915 20.1851489,77.4551864 18.573766,69.9129492 C17.3324043,64.0976271 17.145766,58.0837966 16.1203404,52.2077288 C16.044383,51.7694915 15.7318723,51.579661 15.3965745,51.579661 C14.8909149,51.579661 14.331,52.0113898 14.4460213,52.6687458 L14.4460213,52.6687458 Z M33.9703404,134.365288 C33.1250426,136.443661 32.9590213,138.663051 32.8559362,140.883525 C32.8190426,141.687322 32.9861489,144.569492 32.5000213,146.257356 C33.1000851,145.972068 33.7066596,145.698712 34.2937021,145.38522 C34.3262553,145.367864 34.3588085,145.351593 34.3902766,145.334237 C34.3544681,145.596746 34.3110638,145.859254 34.2611489,146.120678 C34.17,146.600136 34.0517234,147.048136 33.8954681,147.446237 C35.6782979,146.562169 37.5164681,145.739932 37.9103617,144.996881 C39.2656596,142.446644 36.6462128,136.838508 35.6435745,134.365288 C35.4775532,133.955254 35.1422553,133.751322 34.8069574,133.751322 C34.4727447,133.751322 34.1363617,133.956339 33.9703404,134.365288 L33.9703404,134.365288 Z M34.9393404,137.376542 C34.6376809,136.510915 34.3078085,135.660475 33.9703404,134.82739 L35.6435745,134.82739 C35.3028511,135.666983 35.0825745,136.518508 34.9393404,137.376542 C35.4916596,138.961356 35.9474043,140.591729 36.1774468,142.23078 C36.4921277,144.46861 36.0179362,144.478373 34.3902766,145.334237 C34.7581277,142.683119 34.4987872,139.995119 34.9393404,137.376542 L34.9393404,137.376542 Z M31.2239362,147.496136 C31.4268511,147.851932 31.629766,148.207729 31.8305106,148.563525 C32.0453617,148.028746 32.1885957,147.452746 32.2754043,146.848542 C32.0366809,147.322576 31.6992128,147.588339 31.2239362,147.496136 L31.2239362,147.496136 Z M30.9439787,149.201356 C31.2684255,149.251254 31.5635745,149.259932 31.8305106,149.231729 C32.2602128,149.022373 32.6953404,148.823864 33.1434894,148.637288 C33.4635957,148.33139 33.7066596,147.923525 33.8954681,147.446237 C32.762617,148.008136 31.6492979,148.594983 30.9439787,149.201356 L30.9439787,149.201356 Z" id="path-7"></path>
        <path d="M0.706404255,1.60216949 C1.88265957,2.2020339 2.57821277,9.8180339 2.83538298,11.268339 C4.0637234,18.1727458 5.06853191,25.1183729 5.99304255,32.0672542 C6.93491489,39.1528136 7.7856383,46.2513898 8.43670213,53.3694915 C8.86857447,58.1022373 9.46104255,63.0031186 9.08993617,67.7597288 C9.00312766,68.872678 10.740383,68.8672542 10.8261064,67.7597288 C11.2221702,62.664678 10.5548298,57.399322 10.0762979,52.3346441 C9.35470213,44.6980339 8.41825532,37.0798644 7.37980851,29.4790508 C6.43902128,22.5854915 5.43312766,15.6897627 4.15378723,8.84935593 C3.82934043,7.12244068 3.54829787,1.10644068 1.58208511,0.103050847 C1.44210638,0.0325423729 1.30429787,0 1.173,0 C0.378702128,0 -0.149744681,1.16610169 0.706404255,1.60216949 L0.706404255,1.60216949 Z" id="path-9"></path>
        <path d="M49.0967234,1.35810169 C45.1523617,1.56637288 41.208,1.75837288 37.2625532,1.94711864 C29.8436809,2.30074576 22.3922553,2.47538983 14.9831489,3.00257627 C9.73340426,3.37464407 6.14061702,11.6046102 5.84980851,16.1985085 C5.3387234,24.2614237 10.9899574,30.6050169 14.0564681,37.576678 C17.4311489,45.2469153 14.8377447,51.8855593 10.3161064,58.4927458 C7.50134043,62.6061017 3.67634043,66.0848814 2.18648936,70.9423729 C0.89412766,75.1566102 0.659744681,79.6181695 0.151914894,83.9734237 C0.209425532,83.7998644 0.335297872,83.6425763 0.546893617,83.528678 C1.03302128,83.268339 1.52348936,83.0318644 2.01721277,82.8181695 C1.96512766,83.3052203 1.90978723,83.7922712 1.8522766,84.2782373 C1.78065957,84.8867797 1.21423404,85.1601356 0.745468085,85.0950508 C0.948382979,85.1644746 1.18168085,85.1557966 1.42257447,85.0277966 C8.74378723,81.1064407 16.9537021,83.2932881 23.2668511,88.1345085 C26.1955532,90.3799322 28.733617,93.1449492 30.6368936,96.3124068 C31.7382766,98.1467119 31.9520426,100.747932 33.966,101.600542 C33.3865532,101.167729 33.5504043,100.058034 34.466234,100.034169 L34.466234,101.182915 C34.4401915,101.371661 34.415234,101.558237 34.3902766,101.745898 C34.2405319,101.705763 34.098383,101.656949 33.966,101.600542 C34.0951277,101.697085 34.262234,101.761085 34.466234,101.770847 L34.466234,101.182915 C34.517234,100.803254 34.568234,100.422508 34.6203191,100.041763 C34.568234,100.038508 34.517234,100.036339 34.466234,100.034169 C34.547617,100.033085 34.6300851,100.026576 34.7125532,100.018983 C33.7120851,99.5167458 32.844,96.648678 32.3828298,95.8470508 C31.5375319,94.3783051 30.5446596,92.9887458 29.4617234,91.6859661 C26.9670638,88.6823051 23.8951277,86.1027797 20.4651064,84.2261695 C17.0014468,82.3300339 13.2675957,81.2658983 9.54025532,81.2658983 C7.00219149,81.2658983 4.46629787,81.7583729 2.01721277,82.8181695 C2.39591489,79.304678 2.67912766,75.7618983 3.59604255,72.3395254 C4.83306383,67.720678 8.13938298,64.5326102 10.8543191,60.7414237 C14.2604681,55.9858983 17.778383,50.3853559 17.5570213,44.2945085 C17.3671277,39.1018305 14.5111277,34.3907797 12.0414255,29.9867119 C7.5132766,21.9129492 5.29314894,13.4964068 12.5004255,6.26549153 C14.5784043,4.18277966 17.1132128,4.63077966 19.9355745,4.49735593 C23.5402979,4.3259661 27.1471915,4.15891525 30.7540851,3.98969492 C34.5758298,3.81071186 38.3975745,3.62955932 42.218234,3.44298305 C43.931617,3.35728814 45.6460851,3.27267797 47.3594681,3.18372881 C49.0261915,3.0980339 51.3928085,2.52094915 53.0172128,2.87891525 C55.2319149,3.36813559 58.130234,6.74928814 59.6276809,8.43064407 C62.6540426,11.8258983 63.893234,15.8969492 63.0034468,20.3975593 C62.4793404,23.035661 61.5396383,25.6347119 59.7915319,27.7304407 C58.4752979,29.3098305 56.8595745,30.6039322 55.5921702,32.2538305 C53.7572553,34.6446102 52.2771702,37.367322 51.8832766,40.3905085 C51.0130213,47.0714576 55.599766,52.919322 58.9429787,58.2291525 C61.2151915,61.8348475 63.3376596,65.5566102 64.6191702,69.6439322 C65.8464255,73.5642034 67.503383,77.3662373 68.1305745,81.4372881 C60.8137021,80.5857627 54.3301915,82.7086102 48.6485745,87.5552542 C46.0388936,89.7822373 43.7797021,92.3628475 41.4228511,94.8469153 C39.8461915,96.5109153 37.2527872,99.7543051 34.7125532,100.018983 C34.7581277,100.041763 34.8047872,100.060203 34.8514468,100.07322 C35.6826383,100.296678 35.6327234,101.504 34.9198085,101.73939 C39.4295106,101.230644 43.5138511,95.0595254 46.2862979,92.2001356 C52.5310851,85.76 59.6710851,81.8071864 68.8999149,83.2813559 C69.3925532,83.3605424 70.0653191,83.0622373 69.9980426,82.4439322 C69.5770213,78.5681356 68.1490213,75.2715932 66.9771064,71.6094915 C65.8095319,67.9604068 64.6354468,64.5618983 62.7517021,61.1959322 C59.4931277,55.3708475 53.5554255,49.1953898 53.5065957,42.1694915 C53.4740426,37.4736271 56.4700213,33.4893559 59.6298511,30.3023729 C61.1641915,28.7555254 62.2536383,27.8248136 63.0956809,25.8136949 C63.9257872,23.8286102 64.5844468,21.7751864 64.8795957,19.639322 C65.8496809,12.6307797 61.8922979,7.70494915 56.8270213,3.4299661 C56.0218723,2.74983051 54.9617234,1.45681356 53.9471489,1.13355932 C53.601,1.02291525 53.1951702,0.982779661 52.7600426,0.982779661 C51.5447234,0.982779661 50.1015319,1.30494915 49.0967234,1.35810169 L49.0967234,1.35810169 Z M68.1305745,81.4372881 C68.5385745,81.4850169 68.9487447,81.5414237 69.3621702,81.6075932 C68.9954043,81.8852881 68.6297234,82.1651525 68.2629574,82.4439322 C68.2260638,82.1065763 68.1815745,81.7703051 68.1305745,81.4372881 L68.1305745,81.4372881 Z M0.117191489,84.2695593 C0.117191489,84.2728136 0.116106383,84.2760678 0.116106383,84.2782373 C0.0575106383,84.7717966 0.370021277,85.0429831 0.745468085,85.0950508 C0.39606383,84.9757288 0.143234043,84.6253559 0.117191489,84.2695593 C0.12912766,84.1708475 0.14106383,84.0732203 0.151914894,83.9734237 C0.120446809,84.0699661 0.109595745,84.1697627 0.117191489,84.2695593 L0.117191489,84.2695593 Z M34.466234,101.770847 C34.517234,101.773017 34.568234,101.775186 34.6203191,101.777356 C34.731,101.78278 34.8297447,101.768678 34.9198085,101.73939 C34.7700638,101.755661 34.6170638,101.766508 34.466234,101.770847 L34.466234,101.770847 Z" id="path-11"></path>
    </defs>
    <g id="Symbols" stroke="none" stroke-width="1" fill="none" fill-rule="evenodd">
        <g id="Hourglass">
            <g id="Group">
                <g id="Page-1" opacity="0.6">
                    <path d="M15.5872277,106.585817 C15.3007596,115.684664 15.3409085,120.423919 17.0076319,129.471783 C19.1756745,141.239105 23.1525894,152.593139 27.5668021,163.685749 C31.0413128,172.416868 35.1473553,180.995037 37.9111213,189.990834 C38.2377383,191.054969 39.9142277,190.600461 39.5854404,189.528732 C34.6319298,173.405071 26.5717596,158.417139 21.8439511,142.168732 C18.9456319,132.207512 17.0076319,116.571986 17.2083766,106.159512" id="Fill-1" fill="#221E1F"></path>
                    <g id="Group-5" transform="translate(15.191489, 105.776814)">
                        <mask id="mask-2" fill="white">
                            <use xlink:href="#path-1"></use>
                        </mask>
                        <g id="Clip-4"></g>
                        <polygon id="Fill-3" fill="#221E1F" mask="url(#mask-2)" points="-5.47870213 90.2454237 76.0681277 90.2454237 76.0681277 -49.0804068 -5.47870213 -49.0804068"></polygon>
                    </g>
                    <path d="M85.0107064,105.884203 C85.9015787,114.944 86.1761106,119.675661 85.1148766,128.813559 C83.7335362,140.699119 80.5194511,152.292881 76.8528766,163.653424 C73.9654085,172.596068 70.4388128,181.428068 68.2794511,190.587661 C68.0244511,191.671322 66.3219191,191.329627 66.5790894,190.238373 C70.4496638,173.820746 77.4952596,158.330576 81.1325362,141.80339 C83.3624298,131.671864 84.2576426,115.943051 83.3646,105.566373" id="Fill-6" fill="#221E1F"></path>
                    <g id="Group-10" transform="translate(66.191489, 104.692068)">
                        <mask id="mask-4" fill="white">
                            <use xlink:href="#path-3"></use>
                        </mask>
                        <g id="Clip-9"></g>
                        <polygon id="Fill-8" fill="#221E1F" mask="url(#mask-4)" points="30.6246319 90.0412746 -50.7420702 95.4574102 -60.0023681 -43.5603525 21.364334 -48.9775729"></polygon>
                    </g>
                    <g id="Group-13" transform="translate(0.000000, 0.556475)">
                        <mask id="mask-6" fill="white">
                            <use xlink:href="#path-5"></use>
                        </mask>
                        <g id="Clip-12"></g>
                        <polygon id="Fill-11" fill="#221E1F" mask="url(#mask-6)" points="-5.42553191 157.774102 45.9227872 157.774102 45.9227872 -4.89545763 -5.42553191 -4.89545763"></polygon>
                    </g>
                    <g id="Group-16" transform="translate(59.680851, 0.556475)">
                        <mask id="mask-8" fill="white">
                            <use xlink:href="#path-7"></use>
                        </mask>
                        <g id="Clip-15"></g>
                        <polygon id="Fill-14" fill="#221E1F" mask="url(#mask-8)" points="-4.58674468 157.774102 46.7615745 157.774102 46.7615745 -4.89545763 -4.58674468 -4.89545763"></polygon>
                    </g>
                    <g id="Group-19" transform="translate(47.744681, 122.048000)">
                        <mask id="mask-10" fill="white">
                            <use xlink:href="#path-9"></use>
                        </mask>
                        <g id="Clip-18"></g>
                        <polygon id="Fill-17" fill="#221E1F" mask="url(#mask-10)" points="-5.15751064 74.0165424 16.3720851 74.0165424 16.3720851 -5.42372881 -5.15751064 -5.42372881"></polygon>
                    </g>
                    <g id="Group-22" transform="translate(15.191489, 23.336136)">
                        <mask id="mask-12" fill="white">
                            <use xlink:href="#path-11"></use>
                        </mask>
                        <g id="Clip-21"></g>
                        <polygon id="Fill-20" fill="#221E1F" mask="url(#mask-12)" points="-5.31593617 107.202169 75.429 107.202169 75.429 -4.44094915 -5.31593617 -4.44094915"></polygon>
                    </g>
                </g>
                <path d="M49.9321716,80.8852255 L48.1431801,80.8852881 L90.6765798,142.796446 L91.5710541,141.097599 L6.5106383,141.097599 L7.40515557,142.796384 L49.9321716,80.8852255 Z M4.4492191,143.267091 L6.5106383,143.267091 L91.5710541,143.267091 L93.6326485,143.267091 L92.4655283,141.568243 L49.9321286,79.6570847 L49.0375872,78.355 L48.1431371,79.6571474 L5.61612102,141.568306 L4.4492191,143.267091 Z" id="Fill-1" fill="#13D792"></path>
                <path d="M48.1523181,80.9659648 L49.0468122,82.2678971 L49.9412543,80.965929 L92.4737421,19.0547707 L93.640831,17.3559322 L91.5792617,17.3559322 L6.5106383,17.3559322 L4.44896886,17.3559322 L5.61618249,19.0548065 L48.1523181,80.9659648 Z M6.5106383,19.5254237 L91.5792617,19.5254237 L90.6847813,17.8265852 L48.1522935,79.7377435 L49.9412297,79.7377077 L7.40509411,17.8265494 L6.5106383,19.5254237 Z" id="Fill-3" fill="#13D792"></path>
            </g>
        </g>
    </g>
</svg>