<?xml version="1.0" encoding="UTF-8"?>
<svg width="105px" height="188px" viewBox="0 0 105 188" version="1.1" xmlns="http://www.w3.org/2000/svg" xmlns:xlink="http://www.w3.org/1999/xlink">
    <!-- Generator: Sketch 40.3 (33839) - http://www.bohemiancoding.com/sketch -->
    <title>Apple@3x</title>
    <desc>Created with Sketch.</desc>
    <defs>
        <polygon id="path-1" points="0 0.146236576 0 29.885718 11.404358 29.885718 11.404358 0.146236576 0 0.146236576"></polygon>
        <polygon id="path-3" points="53.5807401 0.291418229 0 0.291418229 0 186.614609 89.8998817 186.614609 89.8998817 0.291418229 53.5807401 0.291418229 89.8998827 0.291355466 89.8998827 145.660127 53.5807401 145.660127 53.5807401 0.291418229"></polygon>
    </defs>
    <g id="Symbols" stroke="none" stroke-width="1" fill="none" fill-rule="evenodd">
        <g id="Apple">
            <g id="Group">
                <g id="Page-1" opacity="0.6" transform="translate(7.000000, 0.000000)">
                    <path d="M37.8551183,3.47552331 C37.7752367,5.21547729 37.7459467,7.26823798 36.4875444,8.62694206 C35.1652367,10.0535546 32.5067751,10.4198326 30.7089053,10.9406424 C27.579142,11.8464451 24.3854734,12.7442271 21.8239349,14.8547368 C16.4505621,19.2816203 14.1206805,26.7253508 12.9464201,33.3456244 C11.319497,42.5154064 12.4207988,51.8140541 11.5900296,61.0410504 C10.701213,70.9080973 7.60819527,80.3912208 6.06647929,90.1497211 C5.29002959,95.0653317 4.99553254,99.9643662 5.33210059,104.932913 C5.53713018,107.965802 5.72192308,110.929712 4.95825444,113.910199 C4.31707101,116.411583 3.2897929,118.798004 2.46701183,121.24057 C2.13630178,122.220698 3.67908284,122.641517 4.00713018,121.667271 C5.43275148,117.437696 7.16618343,113.468527 7.14275148,108.923472 C7.11825444,104.132984 6.57718935,99.4954235 7.06659763,94.6947761 C8.06991124,84.8533953 11.1762426,75.3847091 12.6327515,65.6181881 C14.1196154,55.6484764 12.7483136,45.5359965 14.1941716,35.5796526 C15.243284,28.3562235 17.5779586,19.2228019 24.1916272,15.107121 C27.7990828,12.8618638 32.2357101,12.7773793 35.978432,10.9123026 C38.9090237,9.45200321 39.315355,6.46296119 39.4527515,3.47552331 C39.5001479,2.44352848 37.9025148,2.44566733 37.8551183,3.47552331" id="Fill-1" fill="#000000"></path>
                    <g id="Group-5" transform="translate(0.000000, 120.553572)">
                        <mask id="mask-2" fill="white">
                            <use xlink:href="#path-1"></use>
                        </mask>
                        <g id="Clip-4"></g>
                        <path d="M2.46679882,0.687105365 C-0.761485207,9.15427537 -3.069,29.3893947 10.6338994,29.885073 C11.6617101,29.9225029 11.660645,28.3183659 10.6338994,28.280936 C-1.73763905,27.8333818 1.20520118,8.4623576 4.0074497,1.11380582 C4.37543787,0.148650032 2.83105917,-0.26896031 2.46679882,0.687105365" id="Fill-3" fill="#000000" mask="url(#mask-2)"></path>
                    </g>
                    <path d="M11.3261538,132.040102 C11.5583432,133.788077 11.8139645,135.565461 11.6659172,137.332685 C11.598284,138.140101 11.4443787,138.963558 11.1647929,139.724988 C11.0114201,140.062926 10.8580473,140.400865 10.7046746,140.739337 C10.3063314,141.635515 9.53094675,142.065424 8.37745562,142.030133 C8.0387574,141.062838 6.4943787,141.478845 6.83733728,142.456299 C7.64147929,144.751284 10.0304734,144.167913 11.334142,142.632219 C13.8152663,139.708947 13.3908284,135.556371 12.923787,132.040102 C12.7895858,131.031635 11.190355,131.018267 11.3261538,132.040102" id="Fill-6" fill="#000000"></path>
                    <path d="M8.41169822,142.263214 C9.11998225,140.202967 9.90069231,136.572271 8.31530769,134.667625 C6.94560355,133.022315 5.11791124,134.175155 4.27436095,135.732238 C3.06814793,137.959314 3.11714201,141.096472 4.21205325,143.346541 C4.7286213,144.407945 5.47631361,145.327651 6.45885799,145.98802 C6.95092899,146.319007 7.45897633,146.550538 8.01388757,146.744104 C8.31211243,146.848373 12.236432,148.004421 10.700574,148.945514 C9.82453846,149.482366 10.6260178,150.870479 11.5068462,150.330419 C13.7227633,148.972785 12.266787,146.638765 10.4295089,145.804614 C7.98992308,144.697225 6.01684615,144.561943 5.21962722,141.493228 C5.10033728,141.034445 4.89317751,134.224349 7.42702367,136.637506 C8.33927219,137.505878 7.23584024,140.776179 6.87104734,141.836514 C6.53501183,142.814503 8.0777929,143.234787 8.41169822,142.263214" id="Fill-8" fill="#000000"></path>
                    <path d="M25.2375444,33.7543585 C22.0609172,36.9508689 20.8110355,41.2734835 20.6209172,45.7025059 C20.3871302,51.1362528 23.5935799,55.8903802 23.241568,61.2840237 C22.8496154,67.2936557 20.2028698,73.1091872 17.7888462,78.5258233 C15.7364201,83.1302313 13.9065976,87.7699303 12.6460651,92.6636177 C7.36588757,113.168767 10.6788462,134.989308 18.2505621,154.469948 C22.6589645,165.811732 28.5217456,176.530576 35.4661243,186.501892 C36.050858,187.34139 37.4365385,186.540926 36.8454142,185.692337 C24.921213,168.569778 15.9158876,148.963481 12.7738757,128.198461 C11.2215089,117.937866 11.2023373,107.370881 13.2510355,97.1781941 C14.2910947,92.0021786 15.8530473,86.9288278 17.9438166,82.0827298 C19.9451183,77.4441002 22.148787,72.8910246 23.5589645,68.0208645 C24.3055917,65.4430163 24.9068343,62.7047544 24.8812722,60.004457 C24.8562426,57.37795 23.979142,54.9327104 23.2101479,52.4548534 C21.399497,46.6227459 21.8649408,39.4196358 26.367071,34.8884834 C27.0945266,34.1569969 25.965,33.0223373 25.2375444,33.7543585" id="Fill-10" fill="#000000"></path>
                    <path d="M69.6448757,34.8886438 C73.5164734,38.7850927 74.6135148,45.1978979 73.3774793,50.4439607 C72.8348166,52.7475015 71.8725089,54.930732 71.4241065,57.2594043 C70.9852899,59.5372789 71.130142,61.8001815 71.5226272,64.0759173 C73.2981302,74.3744771 79.3819172,83.382776 81.9274793,93.4973947 C86.9941065,113.623433 83.6412071,134.952573 76.2207337,154.043408 C71.8645207,165.251514 66.0278343,175.840422 59.1665325,185.691963 C58.5764734,186.540017 59.9605562,187.34262 60.546355,186.501517 C72.7757041,168.941029 81.9903195,148.700028 84.9635148,127.357519 C86.3790178,117.199054 86.3262959,106.8251 84.3015621,96.751654 C83.2897278,91.7157332 81.7762367,86.7910324 79.7834556,82.0593629 C77.5302604,76.7106353 74.898426,71.5094883 73.5233964,65.8345862 C72.6846391,62.3728584 72.4721538,59.1105784 73.4653491,55.6632879 C74.2247574,53.0260866 75.245645,50.486203 75.3926272,47.7142542 C75.659432,42.6949094 74.3802604,37.3825422 70.7744024,33.7545189 C70.0474793,33.0224977 68.9174201,34.1566226 69.6448757,34.8886438" id="Fill-12" fill="#000000"></path>
                    <path d="M11.3243432,105.399771 C28.1149349,103.464647 41.2730414,115.864626 47.6742249,130.44944 C55.326355,147.88534 55.0041657,167.129638 50.6516805,185.348891 C50.4120355,186.352546 51.9521538,186.780316 52.1923314,185.775592 C56.7146982,166.844636 56.9319763,146.826075 48.6881893,128.824984 C41.9499053,114.111839 28.3050533,101.838586 11.3243432,103.795634 C10.3146391,103.912201 10.3029231,105.517407 11.3243432,105.399771" id="Fill-14" fill="#000000"></path>
                    <path d="M84.5881775,106.85467 C77.640071,104.014812 69.9101893,105.686323 63.9590059,110.026048 C61.254213,111.998068 58.9280592,114.416572 56.9177041,117.090668 C54.6575858,120.097356 50.2007219,127.442699 45.7241538,123.050572 C44.9881775,122.328175 43.8575858,123.461766 44.5940947,124.184697 C50.6480592,130.124281 56.2733254,120.228895 59.4765799,116.428694 C65.5177633,109.259806 74.9475266,104.635079 84.1632071,108.401592 C85.1153964,108.790328 85.529716,107.239128 84.5881775,106.85467" id="Fill-16" fill="#000000"></path>
                    <g id="Group-20" transform="translate(0.000000, 0.243294)">
                        <mask id="mask-4" fill="white">
                            <use xlink:href="#path-3"></use>
                        </mask>
                        <g id="Clip-19"></g>
                        <path d="M53.6019763,1.29357611 C54.4503195,5.19751095 58.061503,6.73801722 61.5283669,7.78391457 C65.8536923,9.0886127 70.4538107,10.5039963 74.171503,13.1609819 C78.5894911,16.3184583 80.2110888,21.367747 81.1781893,26.5047285 C82.2028047,31.9470308 82.9611479,37.5198029 83.6044615,43.0187846 C84.9336923,54.3734013 85.0167692,65.8183844 85.2335148,77.2339583 C85.4390769,88.0527932 85.2452308,99.0363195 86.5430414,109.787246 C87.311503,116.150858 88.236,122.470088 88.2759408,128.895192 C88.3126864,134.791999 87.0846391,142.150176 80.5524497,144.076745 C79.5677751,144.367093 79.9868876,145.91562 80.9768876,145.623667 C90.8491953,142.712159 90.2426272,130.141606 89.5710888,121.976549 C89.0678343,115.853023 87.9654675,109.795801 87.5287811,103.665859 C87.1283077,98.0428239 87.2071243,92.3780813 87.0628047,86.7443521 C86.7544615,74.7224144 86.8125089,62.6625121 85.9242249,50.6646365 C85.4944615,44.8597993 84.6551716,39.1431896 83.8382485,33.3859417 C83.129432,28.386916 82.6000828,23.1937897 80.5236923,18.5369799 C78.4931006,13.9823001 74.7583669,11.1675743 70.289787,9.21747837 C68.009432,8.22237869 65.6449349,7.35293642 63.2671243,6.62251935 C60.000497,5.61939899 55.9888402,4.76278981 55.1426272,0.866875656 C54.9232189,-0.141057117 53.3831006,0.285643335 53.6019763,1.29357611" id="Fill-18" fill="#000000" mask="url(#mask-4)"></path>
                    </g>
                    <path d="M70.6129349,33.6289685 C56.6022249,27.6813631 39.7029941,27.1380953 25.7263669,33.4781796 C24.7912189,33.9027412 25.602284,35.2855073 26.5326391,34.8630846 C39.9271953,28.7871482 56.3774911,29.3133051 69.8066627,35.0138735 C70.7423432,35.4111647 71.5576686,34.0300027 70.6129349,33.6289685" id="Fill-21" fill="#000000"></path>
                </g>
                <path d="M46.8358882,127.806944 C50.1243079,124.696515 54.831469,124.654216 58.1642499,127.806944 C69.7962206,138.811978 120.149333,137.870586 100.498584,68.4156633 C83.4944422,8.31612612 59.5146182,20.6968511 53.3626687,25.1224734 C53.0175474,25.3708552 52.0285796,25.4067599 51.7196798,25.1824785 C45.7032555,20.8109592 21.5826155,8.04266024 4.50155423,68.4156633 C-15.1496024,137.870586 35.2039174,138.811978 46.8358882,127.806944" id="Fill-1" stroke="#13D792" stroke-width="2"></path>
                <path d="M68.6303692,9.16430155 C72.783034,10.4118394 77.1995224,11.7652134 80.7688099,14.3057935 C85.0104385,17.3249372 86.5673043,22.1530108 87.4957997,27.0649353 C88.4795139,32.2688041 89.2075851,37.5974267 89.8252186,42.8560031 C91.1013884,53.7126498 91.1811491,64.6562151 91.3892425,75.5716597 C91.5865989,85.9165091 91.4004908,96.4188346 92.6464947,106.698751 C93.3842804,112.783565 94.2718729,118.826454 94.3102193,124.969556 C94.3454981,130.608017 93.1664726,137.643824 86.8950386,139.485987 C85.9496708,139.763616 86.3520529,141.2443 87.3025335,140.965138 C96.7807532,138.181186 96.1983985,126.161363 95.5536668,118.354026 C95.0705016,112.498779 94.0121396,106.706931 93.5928851,100.845549 C93.208398,95.4688653 93.2840683,90.0523015 93.1455098,84.6653923 C92.8494752,73.1701494 92.9052054,61.6386052 92.0523804,50.1663702 C91.6397726,44.6163608 90.8339859,39.149691 90.0496732,33.6446747 C89.3691515,28.864662 88.8609332,23.8990525 86.8674292,19.4462628 C84.9178957,15.0911287 81.3322471,12.3997193 77.0420463,10.5350593 C74.8527197,9.58355607 72.5826099,8.75220505 70.299718,8.05378839 C67.1634897,7.09461587 63.3119724,6.27553571 62.4995389,2.550306 C62.2888891,1.58653191 60.81025,1.99453812 61.0203885,2.95831221 C61.8348671,6.69121122 65.3018974,8.16422616 68.6303692,9.16430155 Z" id="Fill-1" fill-opacity="0.6" fill="#000000"></path>
            </g>
        </g>
    </g>
</svg>