<?xml version="1.0" encoding="UTF-8"?>
<svg width="130px" height="126px" viewBox="0 0 130 126" version="1.1" xmlns="http://www.w3.org/2000/svg" xmlns:xlink="http://www.w3.org/1999/xlink">
    <!-- Generator: Sketch 40.3 (33839) - http://www.bohemiancoding.com/sketch -->
    <title>Packge 3@1.5x</title>
    <desc>Created with Sketch.</desc>
    <defs></defs>
    <g id="Symbols" stroke="none" stroke-width="1" fill="none" fill-rule="evenodd">
        <g id="Packge-3">
            <g id="Group-3-Copy-3">
                <g id="Page-1">
                    <path d="M103.570043,69.7308829 L62.5534361,57.363151 L101.601151,80.9583081 C103.515508,81.6554269 105.235388,81.9320505 106.872113,81.9109463 C112.783073,81.834699 117.606263,77.8705165 126.566449,75.776437 C121.03498,75.4435355 114.911064,76.1068422 109.954015,74.4455119 C107.45397,73.6074716 105.250261,72.1787411 103.570043,69.7308829" id="Fill-1" fill="#AF1F26"></path>
                    <path d="M13.3187918,31.331414 C5.48085464,42.9425722 37.4451077,33.7347946 68.5717306,49.1444788 L35.181005,18.3253373 L13.3187918,31.331414 Z" id="Fill-3" fill="#AF1F26"></path>
                    <path d="M13.3187918,31.331414 C16.8153397,29.3821137 20.5381402,28.1376477 24.2061803,27.5083799 C29.7396769,21.8349856 36.7672515,17.3540911 42.3870576,11.4365236 C44.2899225,9.43276091 46.4433777,7.57377742 47.7697944,5.23665938 C47.7362171,5.22758231 47.7037665,5.21737061 47.6701892,5.20852047 C37.7103459,19.0796417 17.7832228,24.3148405 13.3187918,31.331414" id="Fill-5" fill="#BC2534"></path>
                    <path d="M42.3870576,11.4365236 C36.7672515,17.3540911 29.7396769,21.8349856 24.2061803,27.5083799 C28.0610365,26.8471155 31.8550479,26.8684466 35.2616807,27.4766102 C39.8252661,20.1067119 45.8919435,13.4348401 47.8164421,5.24982112 C47.8006675,5.24573644 47.785569,5.24074406 47.7697944,5.23665938 C46.4433777,7.57377742 44.2899225,9.43276091 42.3870576,11.4365236" id="Fill-7" fill="#CB3346"></path>
                    <path d="M47.816397,5.2499119 C45.8918985,13.4349309 39.8252211,20.1068027 35.2616356,27.476701 C38.2874251,28.0167865 41.0076384,29.0198025 43.1933189,30.4197133 L68.5716855,49.1443426 C68.1541099,33.9500119 66.8815521,10.3848092 47.816397,5.2499119" id="Fill-9" fill="#BC2534"></path>
                    <path d="M79.5760087,43.2115711 C109.892269,39.0921708 114.891233,52.2725271 129.937251,46.8612332 L118.134261,30.7498916 L79.5760087,43.2115711 Z" id="Fill-11" fill="#AF1F26"></path>
                    <path d="M113.60601,17.3772603 C113.695024,19.4869978 114.623471,21.4966606 115.297721,23.5365047 C117.288924,29.5607277 120.961471,34.9593137 122.984222,40.7788489 C125.593563,42.3462315 127.996482,44.3801755 129.937206,46.8611651 C129.293378,40.3819541 115.853437,30.5381009 113.695024,17.3867912 C113.665278,17.3831604 113.635757,17.3808911 113.60601,17.3772603" id="Fill-13" fill="#BC2534"></path>
                    <path d="M113.60601,17.3772603 C113.592039,17.3756718 113.578067,17.3745372 113.564095,17.3729487 C111.751371,23.9399803 113.786066,30.6508835 114.364091,37.4187453 C117.27067,38.0021738 120.241925,39.131588 122.984222,40.7788489 C120.961471,34.9593137 117.288924,29.5607277 115.297721,23.5365047 C114.623471,21.4966606 113.695024,19.4869978 113.60601,17.3772603" id="Fill-15" fill="#CB3346"></path>
                    <path d="M113.564163,17.372926 C96.5965757,15.3737018 86.0571293,32.2248244 79.5760312,43.2114803 L106.978502,37.1770457 C109.252069,36.8130552 111.782537,36.900422 114.364159,37.4187226 C113.785908,30.6508608 111.751438,23.9401846 113.564163,17.372926" id="Fill-17" fill="#BC2534"></path>
                    <path d="M86.0160478,4.67583274 L75.1430818,45.5367074 C93.9128016,18.8862094 112.900887,5.09360479 109.557352,1.69537752 L86.0160478,4.67583274 Z" id="Fill-19" fill="#AF1F26"></path>
                    <path d="M69.7533817,2.30449416 C69.7312973,2.32968302 69.711241,2.35532574 69.689382,2.3805146 C71.8838511,3.30887171 74.4884593,3.42936979 76.9688991,3.79426791 C84.2943878,4.87239664 92.0101847,4.12921172 99.1470545,5.08094228 C102.328336,3.46840118 105.857109,2.26591662 109.557375,1.6954229 C91.8290024,3.98329785 75.8344816,-2.92934315 69.7533817,2.30449416" id="Fill-21" fill="#BC2534"></path>
                    <path d="M69.689382,2.38060537 C69.6790158,2.39240556 69.6697764,2.40443267 69.6594103,2.41645979 C75.2156674,7.19735141 83.2640825,8.56435783 90.4818534,11.2770395 C92.8462373,8.92494435 95.8039707,6.77549469 99.1470545,5.08080612 C92.0101847,4.12930249 84.2943878,4.87226049 76.9688991,3.79435868 C74.4884593,3.42923363 71.8838511,3.30896248 69.689382,2.38060537" id="Fill-23" fill="#CB3346"></path>
                    <path d="M68.591877,4.53302777 C68.3183007,5.22674268 68.0785271,5.98581248 67.869852,6.79707541 C70.2993624,13.6784005 77.6600059,17.577455 84.6136653,20.5581372 C84.6350736,20.5706181 84.6605383,20.5806029 84.6826227,20.5924031 L85.7327589,17.8470439 C85.8535471,17.5815397 85.9847015,17.3158085 86.1228417,17.0500774 C85.9603635,17.0219385 85.7987868,16.995615 85.6378861,16.9742839 C78.4994388,15.6075044 69.7900688,11.4279685 68.591877,4.53302777" id="Fill-25" fill="#CB3346"></path>
                    <path d="M67.8697393,6.79716618 C64.917189,18.2723953 68.3420752,40.5336773 75.1431719,45.5367301 L84.6827354,20.5924939 C84.660651,20.5804668 84.6349609,20.570482 84.6135526,20.5582279 C77.6601185,17.5775458 70.299475,13.6782644 67.8697393,6.79716618" id="Fill-27" fill="#BC2534"></path>
                    <path d="M68.591877,4.53302777 C69.7900688,11.4279685 78.4994388,15.6075044 85.6378861,16.9742839 C85.7987868,16.995615 85.9603635,17.0219385 86.1228417,17.0500774 C87.1459358,15.0821691 88.6314503,13.1176647 90.4818083,11.2770622 C83.2640374,8.56438052 75.2156223,7.19737411 69.6595905,2.41648248 C69.2589163,3.02759607 68.9046643,3.7401459 68.591877,4.53302777" id="Fill-29" fill="#BC2534"></path>
                    <polygon id="Fill-31" fill="#4FB49C" points="30.377015 105.825321 113.71028 63.3360205 114.487066 55.465295 25.40622 55.465295"></polygon>
                    <polygon id="Fill-33" fill="#7DCBB7" points="32.2586066 124.887912 47.3210752 124.887912 107.634724 124.887912 112.995827 70.5739155 113.71019 63.3360886 30.3769248 105.825389"></polygon>
                    <polygon id="Fill-35" fill="#61C1AA" points="21.3971786 58.7024724 18.6170219 45.3594096 16.9095365 45.3594096 20.0223115 60.2984478 120.233925 60.2984478 120.198094 58.7024724"></polygon>
                    <polygon id="Fill-37" fill="#7ECBBA" points="65.6465153 45.359455 18.6170895 45.359455 21.3972462 58.7025178 120.197936 58.7025178 119.972134 48.662373"></polygon>
                    <polygon id="Fill-39" fill="#9CD6CB" points="65.6465153 45.359455 119.972134 48.662373 120.233992 60.2984932 120.36064 60.2984932 122.750037 48.8314334 123.473415 45.359455 119.897768 45.359455"></polygon>
                    <polygon id="Fill-41" fill="#CB3346" points="60.1290637 47.1292336 86.0613434 45.9725882 86.2039906 44.7839462 59.8931211 43.7634568"></polygon>
                    <polygon id="Fill-43" fill="#BC2534" points="65.6465153 125.805559 76.4874815 125.805559 86.0615236 45.9725201 60.1290186 47.1291655"></polygon>
                    <path d="M69.0266919,83.7196883 L70.3499537,125.805513 L72.7979429,125.805513 L75.0604681,83.7196883 C71.4866247,95.69756 72.0436927,96.0656351 69.0266919,83.7196883" id="Fill-45" fill="#AF1F26"></path>
                    <path d="M32.0970074,45.359455 C32.0395428,45.4234483 31.9836557,45.4856262 31.9277687,45.5478041 L43.7418009,47.4017952 C44.1125035,46.9377302 44.5616283,46.5646627 45.0889499,46.2698849 L35.9297791,43.6565971 C34.4359266,44.0317069 33.1367774,44.5779194 32.0970074,45.359455" id="Fill-47" fill="#CB3346"></path>
                    <path d="M28.3929561,54.0133045 C28.1434924,57.147616 25.6121234,58.6671172 21.8661118,59.4068982 L35.0633492,69.059906 C38.4433906,66.0501772 41.8468685,60.7180807 42.4566686,52.2323838 L29.14315,49.5610028 C28.7343631,50.6597818 28.4959416,52.0224766 28.3929561,54.0133045" id="Fill-49" fill="#BC2534"></path>
                    <path d="M0,60.2984932 C9.26936746,61.2518123 22.2335918,73.3544937 29.3145746,72.2044292 C30.7196388,71.976141 32.8866151,70.9983138 35.0632816,69.059906 L21.8662695,59.4068982 C16.1479849,60.5358585 7.59748753,59.8462283 0,60.2984932" id="Fill-51" fill="#AF1F26"></path>
                    <path d="M35.9297341,43.6565063 L45.0889048,46.2697941 C49.5531104,45.242497 52.6401954,45.4076996 60.0181909,45.5477134 L59.8931211,45.1517263 C51.3750742,44.0649743 41.9578764,42.1426783 35.9297341,43.6565063" id="Fill-53" fill="#BC2534"></path>
                    <path d="M56.0337353,36.6472626 C59.4038613,38.70458 62.1439055,40.7464664 63.9555031,42.6261002 L65.6411294,42.5335141 C65.5818621,39.0835476 64.7669925,34.8484147 63.6972507,30.3482314 C63.8320107,39.8349019 62.9202401,39.0687974 56.0337353,36.6472626" id="Fill-55" fill="#AF1F26"></path>
                    <path d="M80.972487,42.8672325 C83.1723646,41.4074131 86.4192235,40.1826897 90.1438267,39.2699906 C85.8017614,39.2243783 84.9233428,39.5699877 91.435314,32.1193035 C87.2072763,36.0632894 83.388927,39.807353 80.972487,42.8672325" id="Fill-57" fill="#AF1F26"></path>
                    <path d="M29.1432627,49.5609347 L42.4565559,52.2323157 C42.4734572,51.9967658 42.4939642,51.7650737 42.5065839,51.5245314 C42.5356542,50.6013936 42.6555409,49.8096463 42.8612865,49.1304547 L29.4208952,48.9044357 C29.3203887,49.1136622 29.2284454,49.3319656 29.1432627,49.5609347" id="Fill-59" fill="#CB3346"></path>
                    <path d="M29.4208276,48.904345 L42.8612189,49.1305909 C43.0687673,48.4457261 43.3635266,47.8752324 43.7416657,47.4018633 L31.9278588,45.5476453 C30.8038074,46.7989191 29.9884871,47.7202415 29.4208276,48.904345" id="Fill-61" fill="#BC2534"></path>
                    <polygon id="Fill-63" fill="#BC2534" points="59.8930309 43.7634115 86.2039005 44.7841277 86.5078991 42.2489027 59.7868905 42.2489027"></polygon>
                    <path d="M72.0436025,31.331414 L74.1380158,42.8672325 L76.996144,32.1193035 C78.0532661,28.6207746 71.4461967,25.7791985 72.0436025,31.331414" id="Fill-65" fill="#AF1F26"></path>
                </g>
            </g>
        </g>
    </g>
</svg>