<?xml version="1.0" encoding="UTF-8"?>
<svg width="87px" height="180px" viewBox="0 0 87 180" version="1.1" xmlns="http://www.w3.org/2000/svg" xmlns:xlink="http://www.w3.org/1999/xlink">
    <!-- Generator: Sketch 40.3 (33839) - http://www.bohemiancoding.com/sketch -->
    <title>Column@3x</title>
    <desc>Created with Sketch.</desc>
    <defs>
        <path d="M0.686,1.892 C1.975,7.893 3.074,13.96 3.857,20.048 C4.937,28.43 4.069,36.755 5.543,45.113 C5.992,47.66 6.881,50.298 6.966,52.877 C7.074,56.101 6.744,59.376 6.757,62.608 C6.776,66.659 6.85,70.778 7.544,74.781 C8.34,79.377 10.29,83.601 8.148,88.093 C7.707,89.018 9.086,89.831 9.529,88.901 C12.355,82.975 9.194,77.063 8.672,70.929 C8.159,64.891 8.717,58.902 8.566,52.877 C8.531,51.448 8.144,50.071 7.854,48.666 C7.004,44.552 6.271,40.396 6.035,36.197 C5.851,32.939 6.269,29.706 6.086,26.448 C5.909,23.297 5.5,20.158 5.042,17.036 C4.279,11.821 3.335,6.62 2.228,1.467 C2.142,1.066 1.845,0.892 1.533,0.892 C1.062,0.892 0.556,1.287 0.686,1.892 L0.686,1.892 Z" id="path-1"></path>
        <path d="M35.973,0.507 C29.439,7.712 16.998,4.073 13.117,14.419 C11.782,17.976 12.315,22.127 12.421,25.844 C12.576,31.267 12.733,36.69 12.675,42.116 C12.624,47.116 12.562,52.274 11.52,57.184 C10.51,61.953 8.448,66.263 7.758,71.179 C6.002,83.718 7.886,96.892 4.819,109.23 C3.885,112.987 2.561,116.678 1.315,120.341 C0.393,123.054 0.013,125.161 0,127.799 L0,128.07 C0.003,128.549 0.016,129.046 0.041,129.568 C0.108,131.005 -0.104,133.79 0.693,135.116 C1.243,136.032 2.826,136.633 3.719,137.028 C5.985,138.029 8.272,138.719 10.37,140.1 C10.754,140.353 11.225,140.151 11.465,139.814 C12.754,138.001 11.591,136.659 10.106,135.679 C10.157,135.892 10.222,136.099 10.302,136.298 C10.453,136.678 10.134,137.206 9.743,137.281 C9.686,137.292 9.63,137.302 9.576,137.31 C9.885,137.576 10.11,137.846 10.214,138.119 C9.735,137.838 9.251,137.579 8.757,137.338 C8.26,137.285 7.865,137.092 7.551,136.792 C7.346,136.706 7.138,136.622 6.928,136.54 C5.503,135.986 3.311,135.617 2.349,134.39 C1.198,132.92 1.599,128.944 1.576,127.193 C1.497,121.128 5.058,115.142 6.449,109.283 C9.156,97.875 7.8,85.769 8.998,74.173 C9.55,68.819 11.207,64.283 12.677,59.201 C13.812,55.277 13.997,51.02 14.159,46.966 C14.524,37.856 13.716,28.769 13.894,19.669 C14.025,12.901 17.972,9.122 24.272,7.725 C28.765,6.728 33.923,5.146 37.105,1.638 C37.633,1.055 37.095,0.253 36.503,0.253 C36.322,0.253 36.135,0.328 35.973,0.507 L35.973,0.507 Z M10.214,138.119 C10.537,138.308 10.858,138.508 11.178,138.719 C10.813,138.814 10.448,138.91 10.083,139.006 C10.296,138.706 10.324,138.411 10.214,138.119 L10.214,138.119 Z M23.909,33.405 C23.262,40.179 22.629,46.955 22.081,53.735 C21.871,56.335 21.881,59.007 21.494,61.585 C20.94,65.266 19.914,68.917 19.021,72.525 C17.59,78.305 15.99,84.043 14.552,89.821 C13.078,95.732 11.053,101.884 10.243,107.915 C9.968,109.961 10.52,112.151 10.638,114.193 C10.805,117.077 10.656,119.867 10.129,122.699 C9.512,126.005 7.854,130.851 8.266,134.657 C8.225,134.637 8.182,134.617 8.141,134.597 C8.193,134.779 8.253,134.947 8.324,135.094 C8.301,134.951 8.282,134.805 8.266,134.657 C8.507,134.773 8.747,134.893 8.982,135.019 C9.355,135.218 9.74,135.437 10.106,135.679 C9.669,133.881 10.168,131.647 10.429,129.936 C10.827,127.33 11.398,124.756 11.851,122.16 C12.628,117.703 11.729,113.467 11.788,109.034 C11.818,106.619 12.824,103.972 13.381,101.64 C14.256,97.962 15.107,94.279 16.008,90.607 C18.774,79.337 22.614,68.204 23.46,56.59 C24.022,48.853 24.771,41.127 25.509,33.405 C25.558,32.894 25.183,32.639 24.784,32.639 C24.383,32.639 23.958,32.896 23.909,33.405 L23.909,33.405 Z M5.246,123.635 C4.322,125.914 1.907,131.084 3.156,133.435 C3.519,134.12 5.213,134.879 6.857,135.694 C6.713,135.327 6.604,134.913 6.519,134.471 C6.473,134.23 6.434,133.988 6.4,133.746 C4.899,132.957 4.463,132.948 4.752,130.884 C4.966,129.373 5.386,127.873 5.895,126.411 C5.762,125.619 5.561,124.835 5.246,124.06 L6.789,124.06 C6.478,124.828 6.173,125.614 5.895,126.411 C6.299,128.825 6.06,131.303 6.4,133.746 C6.429,133.762 6.459,133.777 6.488,133.793 C7.029,134.08 7.587,134.332 8.141,134.597 C7.694,133.041 7.848,130.384 7.814,129.643 C7.72,127.596 7.568,125.551 6.789,123.635 C6.636,123.258 6.327,123.069 6.017,123.069 C5.708,123.069 5.399,123.257 5.246,123.635 L5.246,123.635 Z M8.758,136.723 C8.196,136.372 7.531,136.029 6.857,135.694 C7.031,136.135 7.255,136.51 7.551,136.792 C7.962,136.965 8.363,137.146 8.757,137.338 C9.004,137.364 9.276,137.357 9.576,137.31 C9.345,137.112 9.067,136.917 8.758,136.723 C8.945,136.395 9.131,136.067 9.317,135.739 C8.864,135.827 8.546,135.561 8.324,135.094 C8.413,135.668 8.554,136.214 8.758,136.723 L8.758,136.723 Z" id="path-3"></path>
        <path d="M0.862,2.152 C4.945,5.359 9.284,5.841 14.258,6.424 C18.248,6.892 22.456,7.906 25.223,11.04 C29.532,15.918 28.7,24.118 29.154,30.176 C29.674,37.108 30.202,44.039 30.852,50.96 C31.39,56.7 32.233,62.424 32.411,68.192 C32.588,73.941 32.38,79.698 32.156,85.441 C31.753,95.804 30.415,106.822 32.2,117.109 C32.575,119.275 33.393,121.502 33.608,123.682 C33.664,124.263 33.702,123.593 33.546,124.589 C33.413,125.441 33.202,126.288 33.031,127.134 C32.878,127.883 32.844,128.868 32.547,129.574 C32.641,129.549 32.725,129.514 32.783,129.454 C32.74,129.499 32.275,130.184 32.525,129.625 C32.532,129.607 32.539,129.591 32.547,129.574 C32.327,129.632 32.051,129.635 31.912,129.78 C31.534,130.174 31.665,130.49 31.376,130.929 C31.288,131.063 31.204,131.231 31.211,131.299 C30.921,131.405 30.556,131.468 30.343,131.542 C30.022,131.657 29.74,131.948 29.757,132.314 C29.855,134.575 25.837,134.446 23.436,134.571 C23.322,134.742 23.282,134.958 23.343,135.232 C23.015,135.046 22.687,134.86 22.359,134.674 C22.649,134.622 23.018,134.593 23.436,134.571 C23.455,134.544 23.475,134.517 23.497,134.492 C23.236,134.473 22.949,134.406 22.634,134.288 C22.236,134.137 22.076,133.782 22.094,133.444 C21.675,133.928 21.567,134.62 21.801,135.657 C21.901,136.107 22.376,136.289 22.784,136.217 C24.803,135.86 28.495,136.394 30.266,135.18 C30.898,134.747 30.915,134.514 31.151,133.587 C31.128,133.677 31.212,133.165 31.28,132.883 C31.048,132.923 31.045,132.832 31.111,132.742 C31.205,132.613 31.434,132.483 31.325,132.733 C31.312,132.763 31.296,132.817 31.28,132.883 C31.381,132.866 31.525,132.824 31.726,132.748 C32.102,132.604 32.413,132.537 32.671,132.216 C32.827,132.02 33.164,131.021 32.98,130.999 C32.9,131.038 32.826,131.088 32.766,131.156 C32.87,131.039 32.939,130.993 32.98,130.999 C33.279,130.853 33.68,130.847 33.925,130.543 C34.211,130.191 34.197,129.411 34.28,129.004 C34.584,127.502 35.206,125.764 35.249,124.226 C35.287,122.837 34.687,121.324 34.393,119.97 C33.131,114.12 33.047,108.283 33.157,102.32 C33.398,89.296 34.904,76.104 33.719,63.096 C33.017,55.391 32.125,47.708 31.508,39.993 C30.907,32.465 30.995,24.567 29.665,17.131 C28.751,12.03 25.689,8.088 20.82,6.248 C14.516,3.865 7.612,5.435 1.993,1.021 C1.828,0.89 1.647,0.836 1.472,0.836 C0.803,0.836 0.219,1.647 0.862,2.152 L0.862,2.152 Z M31.545,131.119 C31.305,131.341 31.217,131.364 31.211,131.299 C31.346,131.251 31.466,131.192 31.545,131.119 L31.545,131.119 Z M25.885,121.274 C24.765,122.637 24.756,124.581 24.657,126.26 C24.603,127.18 24.766,131.601 23.767,132.597 C23.854,132.576 23.944,132.554 24.037,132.534 C24.712,132.388 25.273,132.367 25.732,132.319 C25.538,133.007 25.274,133.578 24.903,133.963 C26.059,133.81 27.497,133.887 27.933,133.55 C28.556,133.069 28.675,132.281 28.831,131.516 C29.541,128.047 28.675,124.548 27.141,121.436 C27.017,121.184 26.718,121.04 26.428,121.04 C26.22,121.04 26.017,121.114 25.885,121.274 L25.885,121.274 Z M26.514,123.981 C26.293,123.393 26.04,122.813 25.76,122.244 C26.178,122.298 26.598,122.352 27.016,122.406 C26.766,122.709 26.614,123.266 26.514,123.981 C27.289,126.05 27.654,128.226 27.364,130.466 C27.163,132.02 26.653,132.224 25.732,132.319 C26.396,129.949 26.202,126.204 26.514,123.981 L26.514,123.981 Z M23.164,132.777 C23.402,132.834 23.6,132.763 23.767,132.597 C23.55,132.651 23.348,132.711 23.164,132.777 L23.164,132.777 Z M22.094,133.444 C22.343,133.158 22.701,132.945 23.164,132.777 C23.13,132.769 23.095,132.758 23.059,132.745 C22.958,132.707 22.863,132.69 22.776,132.69 C22.372,132.69 22.115,133.055 22.094,133.444 L22.094,133.444 Z M23.497,134.492 C24.086,134.534 24.544,134.336 24.903,133.963 C24.294,134.044 23.764,134.188 23.497,134.492 L23.497,134.492 Z" id="path-5"></path>
        <path d="M1.283,2.424 C1.328,2.447 1.853,4.503 2.008,5.189 C2.485,7.298 2.851,9.432 3.208,11.563 C4.231,17.66 5.065,23.791 5.827,29.926 C6.615,36.27 7.323,42.626 7.857,48.997 C8.223,53.356 8.72,57.854 8.379,62.232 C8.299,63.259 9.899,63.253 9.979,62.232 C10.353,57.431 9.766,52.483 9.346,47.705 C8.739,40.794 7.947,33.898 7.058,27.018 C6.283,21.011 5.454,15.004 4.39,9.041 C4.104,7.439 3.889,1.962 2.09,1.043 C1.961,0.976 1.834,0.947 1.712,0.947 C0.981,0.947 0.495,2.021 1.283,2.424 L1.283,2.424 Z" id="path-7"></path>
        <path d="M50.002,0.476 C35.804,1.02 21.57,0.57 7.38,1.308 C7.046,1.325 6.682,1.543 6.609,1.896 C5.656,6.513 5.404,11.489 6.082,16.162 C6.544,19.354 7.534,22.444 8.142,25.608 C8.863,29.369 8.978,33.208 8.686,37.023 C7.775,48.975 -1.194,59.858 0.141,72.09 C0.148,72.157 0.161,72.219 0.181,72.277 C0.126,71.846 0.381,71.34 0.941,71.29 C1.185,71.268 1.426,71.25 1.668,71.233 C1.272,64.917 3.966,58.004 6.234,52.298 C9.021,45.285 10.695,38.566 10.384,30.968 C10.083,23.641 7.159,16.837 7.377,9.43 C7.415,8.119 7.497,6.806 7.642,5.502 C7.612,5.784 7.732,5.001 7.821,4.219 C7.902,3.514 7.956,2.808 7.847,2.884 C7.942,2.817 8.239,2.829 8.491,2.84 C8.663,2.848 8.814,2.855 8.869,2.838 C10.161,2.442 11.862,2.519 13.44,2.596 C14.177,2.632 14.888,2.668 15.517,2.655 C26.205,2.444 36.898,2.47 47.583,2.158 C47.94,2.148 48.808,1.96 49.14,2.108 C49.153,2.113 49.165,2.119 49.176,2.124 C48.891,1.69 49.195,1.859 49.368,2.025 C49.505,2.158 49.56,2.29 49.176,2.124 C49.238,2.219 49.329,2.342 49.455,2.5 C50.032,3.226 49.855,5.208 49.946,6.108 C50.229,8.929 50.362,11.779 50.327,14.614 C50.26,20.185 48.482,25.512 48.127,31.08 C47.7,37.764 48.626,43.89 50.969,50.134 C53.455,56.755 54.838,63.474 54.838,70.544 C48.51,69.743 42.645,71.111 37.964,75.737 C36.004,77.674 34.414,79.933 32.827,82.174 C31.993,83.352 29.649,87.593 27.963,87.96 C28.014,87.986 28.065,88.007 28.117,88.021 C28.847,88.216 28.84,89.235 28.271,89.52 C31.449,88.792 34.61,82.295 36.253,80.148 C41.13,73.78 47.35,70.933 55.418,72.231 C55.93,72.312 56.421,72.023 56.43,71.459 C56.541,64.928 55.576,58.542 53.469,52.356 C51.408,46.308 49.578,40.915 49.612,34.368 C49.644,28.16 51.624,22.326 51.889,16.202 C52.102,11.244 51.943,5.911 50.773,1.063 C50.696,0.742 50.359,0.475 50.026,0.475 C50.018,0.475 50.01,0.476 50.002,0.476 L50.002,0.476 Z M54.838,70.544 C55.172,70.585 55.507,70.634 55.844,70.688 C55.506,70.945 55.169,71.202 54.831,71.459 C54.837,71.153 54.838,70.848 54.838,70.544 L54.838,70.544 Z M1.668,71.233 C1.685,71.52 1.71,71.806 1.741,72.09 C1.845,73.047 0.455,73.1 0.181,72.277 C0.226,72.629 0.478,72.931 0.941,72.89 C8.282,72.24 14.848,74.246 20.361,79.244 C22.264,80.97 23.759,83.012 24.857,85.334 C25.623,86.955 25.659,88.758 27.312,89.436 C26.766,89.042 26.914,88.008 27.763,87.985 L27.763,89.039 C27.739,89.214 27.715,89.389 27.692,89.564 C27.557,89.528 27.43,89.484 27.312,89.436 C27.43,89.521 27.58,89.576 27.763,89.585 L27.763,89.039 C27.81,88.69 27.857,88.341 27.905,87.992 C27.857,87.99 27.81,87.988 27.763,87.985 C27.828,87.983 27.896,87.975 27.963,87.96 C27.099,87.505 26.615,85.32 26.239,84.526 C25.65,83.283 24.955,82.094 24.13,80.991 C22.756,79.154 21.058,77.632 19.219,76.271 C14.483,72.764 9.398,71.163 3.756,71.163 C3.068,71.163 2.372,71.187 1.668,71.233 L1.668,71.233 Z M27.763,89.585 C27.81,89.587 27.857,89.59 27.905,89.592 C28.045,89.599 28.168,89.572 28.271,89.52 C28.102,89.558 27.932,89.581 27.763,89.585 L27.763,89.585 Z" id="path-9"></path>
    </defs>
    <g id="Symbols" stroke="none" stroke-width="1" fill="none" fill-rule="evenodd">
        <g id="Column">
            <g id="Group">
                <polygon id="Page-1" stroke="#13D792" stroke-width="2" points="22 133.92927 71.0001436 133.92927 71.0001436 18 22 18"></polygon>
                <g id="Group-13" opacity="0.6">
                    <g id="Group-3" transform="translate(67.000000, 30.165000)">
                        <mask id="mask-2" fill="white">
                            <use xlink:href="#path-1"></use>
                        </mask>
                        <g id="Clip-2"></g>
                        <polygon id="Fill-1" fill="#221E1F" mask="url(#mask-2)" points="-4.335 94.312 15.689 94.312 15.689 -4.108 -4.335 -4.108"></polygon>
                    </g>
                    <g id="Group-8" transform="translate(18.000000, 98.165000)" fill="#221E1F">
                        <path d="M54.8362,0.544 C57.5862,25.711 50.2692,54.949 43.1322,78.975 C42.8382,79.964 44.3822,80.386 44.6752,79.4 C51.3842,56.812 58.1102,25.28 56.4302,1.459" id="Fill-4"></path>
                        <path d="M0.5051,2.2804 C-1.0779,28.3044 9.5421,55.1104 16.9371,79.4004 C17.2361,80.3824 18.7811,79.9634 18.4801,78.9754 C12.3291,58.7724 3.8941,39.4434 2.1091,18.1354 C1.6511,12.6694 1.1621,6.3704 2.1731,0.6544" id="Fill-6"></path>
                    </g>
                    <g id="Group-14" transform="translate(0.000000, 3.165000)">
                        <mask id="mask-4" fill="white">
                            <use xlink:href="#path-3"></use>
                        </mask>
                        <g id="Clip-13"></g>
                        <polygon id="Fill-12" fill="#221E1F" mask="url(#mask-4)" points="-5 145.214 42.32 145.214 42.32 -4.747 -5 -4.747"></polygon>
                    </g>
                    <g id="Group-17" transform="translate(51.000000, 0.165000)">
                        <mask id="mask-6" fill="white">
                            <use xlink:href="#path-5"></use>
                        </mask>
                        <g id="Clip-16"></g>
                        <polygon id="Fill-15" fill="#221E1F" mask="url(#mask-6)" points="-4.416 141.232 40.251 141.232 40.251 -4.165 -4.416 -4.165"></polygon>
                    </g>
                    <g id="Group-20" transform="translate(44.000000, 115.165000)">
                        <mask id="mask-8" fill="white">
                            <use xlink:href="#path-7"></use>
                        </mask>
                        <g id="Clip-19"></g>
                        <polygon id="Fill-18" fill="#221E1F" mask="url(#mask-8)" points="-4.121 68 15.098 68 15.098 -4.053 -4.121 -4.053"></polygon>
                    </g>
                    <g id="Group-23" transform="translate(18.000000, 28.165000)">
                        <mask id="mask-10" fill="white">
                            <use xlink:href="#path-9"></use>
                        </mask>
                        <g id="Clip-22"></g>
                        <polygon id="Fill-21" fill="#221E1F" mask="url(#mask-10)" points="-4.994 94.593 61.44 94.593 61.44 -4.524 -4.994 -4.524"></polygon>
                    </g>
                </g>
            </g>
        </g>
    </g>
</svg>