<?xml version="1.0" encoding="UTF-8"?>
<svg width="86px" height="190px" viewBox="0 0 86 190" version="1.1" xmlns="http://www.w3.org/2000/svg" xmlns:xlink="http://www.w3.org/1999/xlink">
    <!-- Generator: Sketch 40.3 (33839) - http://www.bohemiancoding.com/sketch -->
    <title>Lollipop@3x</title>
    <desc>Created with Sketch.</desc>
    <defs>
        <polygon id="path-1" points="0 0.161835043 0 151.905753 38.4428144 151.905753 38.4428144 0.161835043 5.26952893e-20 0.161835043"></polygon>
        <polygon id="path-3" points="36.0448276 147.976482 36.0448276 0.314228977 0.171766672 0.314228977 0.171766672 147.976482 36.0448276 147.976482"></polygon>
    </defs>
    <g id="Symbols" stroke="none" stroke-width="1" fill="none" fill-rule="evenodd">
        <g id="Lollipop">
            <g id="Group">
                <g id="Page-1" opacity="0.6">
                    <path d="M69.8786641,57.0730434 C68.844882,67.4726352 70.8580111,77.3836556 72.1921586,87.633477 C73.7834151,99.8569719 74.9702961,112.364013 74.039552,124.689778 C73.591434,130.624855 71.6891194,136.439242 71.9345636,142.416003 C71.9729599,143.348554 73.4310446,143.353401 73.3926484,142.416003 C73.1817122,137.280186 74.7039527,132.383809 75.2570528,127.319727 C75.9243696,121.208707 75.8879175,115.024013 75.605049,108.891181 C75.0733341,97.369523 73.5608142,85.9191148 71.6983539,74.5443189 C70.7608054,68.8186301 70.7632355,62.843324 71.3367489,57.0730434 C71.4290943,56.1424311 69.9705235,56.1487321 69.8786641,57.0730434" id="Fill-1" fill="#000000"></path>
                    <path d="M18.6528897,112.804745 C16.1391515,126.99852 18.2854523,141.358061 22.3787823,155.04824 C25.7770919,166.412857 30.871154,177.175 34.3350774,188.503265 C34.6082253,189.395587 36.0157631,189.015102 35.7411572,188.11648 C32.4298467,177.289388 27.5904633,166.983827 24.2402705,156.157704 C19.9452388,142.279464 17.4990586,127.644133 20.0589694,113.191531 C20.2208168,112.276429 18.8161952,111.883342 18.6528897,112.804745" id="Fill-3" fill="#000000"></path>
                    <path d="M61.4647859,188.503217 C68.6473115,164.370793 74.6366377,138.165334 71.7734453,112.836686 C71.6699213,111.917222 70.2103784,111.906559 70.3153605,112.836686 C73.1664023,138.058702 67.2120701,164.082401 60.0587062,188.116431 C59.7913906,189.015538 61.1979564,189.399901 61.4647859,188.503217" id="Fill-5" fill="#000000"></path>
                    <g id="Group-9" transform="translate(0.000000, 3.078776)">
                        <mask id="mask-2" fill="white">
                            <use xlink:href="#path-1"></use>
                        </mask>
                        <g id="Clip-8"></g>
                        <path d="M35.1612769,1.03443367 C36.6125572,4.67157653 37.7625001,8.97662755 36.5289604,12.8488469 C35.5136473,16.0371633 32.5158251,17.6812449 29.5797284,18.8668061 C25.772183,20.4047398 20.9697378,20.5196122 17.5563613,22.8529286 C13.2705641,25.7829031 12.0404266,30.3700459 12.1104147,35.275148 C12.1789447,40.0808878 12.3923111,44.8832347 12.4584109,49.6889745 C12.5352034,55.2566531 12.5434659,60.8631071 11.9723827,66.4084898 C11.7488097,68.5750714 11.4562207,70.7954541 10.7592561,72.8699439 C9.93932647,75.3098929 8.94296854,77.6073418 8.38695221,80.1427755 C5.58645739,92.9100969 7.53494468,106.158235 5.30747717,118.98275 C4.64064641,122.819587 3.31767749,126.523617 2.09240025,130.210684 C1.07708722,133.266679 -0.0330013187,135.806959 0.000534631083,139.045684 C0.0180316484,140.721755 0.077813124,142.402189 0.247436986,144.07099 C0.326659592,144.8465 0.283403077,146.158566 0.663963203,146.852163 C1.20442662,147.839 2.84282788,148.448745 3.82849319,148.862673 C6.0199946,149.782622 8.18816666,150.454893 10.1823406,151.800888 C10.5356831,152.039357 10.9556116,151.83627 11.1801566,151.540122 C12.975545,149.168515 10.0428505,147.552061 8.18233432,146.630173 C7.44162725,146.26326 6.6839092,145.928337 5.9563249,145.536219 C5.08876446,145.068005 4.57794876,144.857648 4.42339177,143.941577 C4.19495849,142.588796 5.11500998,140.335454 5.52618989,139.032112 C5.83676195,138.048184 6.19156257,137.08025 6.58281532,136.124918 L5.17673557,136.124918 C6.49970449,139.25701 5.91258235,142.710939 6.3777114,145.99474 C6.63725049,147.825429 7.39448251,149.505378 9.52425834,149.03474 C10.0321579,148.922776 10.1322797,148.370224 9.95973965,147.966959 C9.31915441,146.467316 9.82753997,144.179077 10.0443086,142.634357 C10.3626571,140.367929 10.8214678,138.122827 11.2511167,135.875786 C11.99474,131.991449 12.1463808,128.210837 11.7478376,124.261066 C11.5271808,122.075582 11.5816159,120.355888 12.0827111,118.256194 C12.8020329,115.241398 13.5218408,112.226602 14.2411626,109.211806 C16.7155324,98.8456582 19.7191871,88.6026224 21.9758163,78.1855816 C23.2380316,72.3585918 23.0582012,66.2979796 23.4936825,60.3643571 C23.5626985,59.4308367 22.1041277,59.435199 22.0355977,60.3643571 C21.6341384,65.8331582 21.8756944,71.523949 20.7612316,76.8987194 C19.3357108,83.7770102 17.4931776,90.5801735 15.7031356,97.3712194 C14.7383695,101.030658 13.8226922,104.687673 12.9439532,108.369893 C11.8119933,113.113107 9.68950794,118.421474 10.1910891,123.346449 C10.6751732,128.096934 10.4272988,132.436398 9.53446493,137.100607 C8.8924216,140.455658 7.28172396,145.378209 8.70092647,148.700786 C8.84624892,148.344536 8.99157137,147.98877 9.13640779,147.63252 C7.29095849,148.040148 7.64721721,143.068158 7.60396069,142.013949 C7.51696163,139.894383 7.41878392,137.718107 6.58281532,135.738617 C6.29605865,135.059561 5.46057608,135.04599 5.17673557,135.738617 C4.38839774,137.662367 3.7376059,139.649612 3.32156571,141.68775 C3.02849068,143.123413 2.42046932,144.693821 3.61269664,145.766934 C4.77867843,146.817265 11.3876907,148.868974 9.92085739,150.806296 C10.2533007,150.719536 10.5857441,150.632291 10.9186734,150.545531 C9.51745394,149.599408 8.06714562,148.909204 6.48998392,148.316423 C4.97892207,147.748362 2.50406619,147.237495 1.90625143,145.645276 C1.56554562,144.737929 1.63990794,143.454459 1.57818235,142.500097 C1.46056352,140.665531 1.24573903,138.630786 1.50284797,136.809791 C1.89944703,134.001959 3.34246493,131.108821 4.21682976,128.406653 C5.21172961,125.333209 6.22947278,122.273337 6.76313181,119.081143 C8.89193557,106.342418 7.01538047,93.1907347 9.79303196,80.5290765 C10.7636304,76.1052755 12.7276706,72.1894337 13.2890332,67.6531837 C13.9519758,62.2968316 13.9796794,56.8600204 13.9364229,51.4707092 C13.8960825,46.5064745 13.7041014,41.5470867 13.5937729,36.5847908 C13.5553767,34.8520102 13.4508806,33.0770612 13.7347211,31.3612449 C14.3787086,27.4730306 17.1403211,24.0244337 20.9381459,22.784102 C25.3974552,21.3275969 29.9763274,20.9112449 34.0239707,18.2202245 C40.0191293,14.2336173 38.9022364,6.49935714 36.5673566,0.647647959 C36.2247067,-0.211229592 34.8137667,0.163438776 35.1612769,1.03443367" id="Fill-7" fill="#000000" mask="url(#mask-2)"></path>
                    </g>
                    <g id="Group-12" transform="translate(48.602826, 0.170612)">
                        <mask id="mask-4" fill="white">
                            <use xlink:href="#path-3"></use>
                        </mask>
                        <g id="Clip-11"></g>
                        <path d="M23.6927111,146.072194 C28.5495915,148.025026 26.3989164,136.224668 27.9435142,134.450204 C27.561982,134.40125 27.1804499,134.352296 26.7984316,134.303342 C27.9313635,136.543597 28.5918759,138.963673 28.4708549,141.487474 C28.4426652,142.071531 28.5000166,143.356939 28.1073057,143.848418 C27.664534,144.402423 26.4572398,144.266709 25.5789868,144.396607 C23.6236951,144.685485 22.3877252,145.284082 22.9145798,147.453571 C23.0127576,147.858776 23.433658,148.030842 23.811302,147.961531 C26.5413227,147.458903 32.5889723,148.564005 32.1870269,144.19352 L31.6514238,144.894388 C32.1146087,144.731531 32.9374546,144.633138 33.2980875,144.272526 C33.4740298,144.096582 33.4842364,143.954566 33.5935927,143.758265 C33.788004,143.40977 34.1369723,142.573673 33.6144919,143.00602 C34.0942018,142.609056 34.4436561,142.813112 34.7989428,142.233903 C35.0764649,141.780714 35.0793811,140.85301 35.1853353,140.330995 C35.4662596,138.950102 36.092264,137.304082 36.0422031,135.891199 C35.9809635,134.177806 35.1940838,132.290408 34.8567802,130.608036 C33.6509441,124.595408 33.8482715,118.400536 34.0144932,112.298724 C34.2021001,105.431097 34.5880065,98.5707398 34.7668649,91.7031122 C35.1396486,77.3968878 33.0575035,63.2491582 31.9624819,49.0059439 C31.6446194,44.8690816 31.3403657,40.7317347 31.0273635,36.5948724 C30.8042765,33.6489031 30.6817974,30.7053571 29.5294244,27.941148 C27.8103425,23.8173724 24.2088731,21.2998724 19.9721648,20.1845918 C17.6625585,19.576301 15.2960869,19.3955102 12.9296153,19.1531633 C9.33252019,18.7843112 3.98329319,17.7940816 2.28656854,14.1448214 C0.538810926,10.3869898 2.01633683,4.94969388 3.2766081,1.20252551 C3.57551548,0.313596939 2.16797765,-0.0678571429 1.87052835,0.81622449 C0.824109513,3.9265051 0.10818989,7.35522959 0.176233846,10.6433929 C0.288506374,16.0666327 4.08049884,18.8725255 9.18282349,20.0401531 C13.7767626,21.0919388 18.617604,20.6154847 22.9267305,22.8310204 C29.3889623,26.1535969 29.3238345,33.3134949 29.8001422,39.6620153 C30.4013591,47.683699 30.9884813,55.7078061 31.7306464,63.7183418 C32.343528,70.3295663 33.2956574,76.9010459 33.3841145,83.5481378 C33.5590847,96.6605612 32.0835029,109.758929 32.5277327,122.869898 C32.6283406,125.839133 32.9724486,128.699796 33.5765817,131.609413 C33.8366068,132.860893 34.0733026,134.140969 34.424215,135.370153 C34.4903149,135.602806 34.5977271,135.894107 34.6123079,136.137423 C34.5743977,135.498597 34.5379456,136.214005 34.4946891,136.426301 C34.2847249,137.453367 34.0767048,138.480918 33.8681987,139.508469 C33.7632166,140.024668 33.6140059,140.554923 33.5488781,141.078878 C33.5158282,141.343036 33.2237252,141.965383 33.529923,141.635791 C33.890556,141.24852 32.9564097,141.629974 32.8178916,141.761811 C32.6161899,141.953265 32.5792517,142.097219 32.4485101,142.332781 C32.3347795,142.538291 32.0314979,143.567296 32.3522765,143.212015 C32.6472957,142.885332 31.5658828,143.38602 31.2640593,143.492168 C30.9826489,143.591531 30.6983224,143.864413 30.7289422,144.19352 C30.8907896,145.954413 29.522134,145.917092 28.1243167,146.059592 C26.5554175,146.220026 24.9772838,146.273342 23.4239375,146.559311 C23.7228448,146.728469 24.0217522,146.897628 24.3206596,147.066786 C23.8404637,145.091173 27.8487387,146.012577 28.7731645,145.388776 C29.4497158,144.932194 29.5619883,144.151352 29.7175174,143.359362 C30.3785158,139.994133 29.5809434,136.581888 28.0577309,133.569515 C27.8555431,133.169158 27.2096116,133.080944 26.9126483,133.422168 C25.7189629,134.793367 25.7850627,137.000663 25.7000078,138.705332 C25.6465447,139.77699 25.8876147,145.396531 24.0805616,144.669974 C23.210085,144.320026 22.831955,145.726122 23.6927111,146.072194" id="Fill-10" fill="#000000" mask="url(#mask-4)"></path>
                    </g>
                    <path d="M53.1959386,188.98825 C53.8797803,180.629704 52.722061,171.901337 52.0221803,163.580597 C51.2003066,153.80626 50.3016403,143.993148 48.7789138,134.298301 C48.5835304,133.053122 48.4829226,128.629321 47.0083128,127.955597 C46.1611656,127.568811 45.4190004,128.821745 46.2724661,129.211439 C46.0736805,129.120801 46.2146287,129.196413 46.3166946,129.456694 C46.4809722,129.875954 46.5650551,130.340291 46.6646909,130.777485 C46.9718607,132.121056 47.1871712,133.487893 47.3990796,134.849398 C48.0591059,139.090469 48.5553408,143.357714 49.023386,147.623505 C50.1286143,157.690112 51.0404033,167.793556 51.5740623,177.907663 C51.7675015,181.574857 52.0382193,185.319117 51.7378538,188.98825 C51.6615474,189.920801 53.1201182,189.915954 53.1959386,188.98825" id="Fill-13" fill="#000000"></path>
                    <path d="M19.3427096,115.599781 C24.1582776,113.604781 29.2985124,114.957077 33.626594,117.519653 C36.3522405,119.133684 38.785784,121.203327 40.9685369,123.487689 C42.2540816,124.833684 43.4589457,126.25626 44.5811849,127.739908 C45.3870198,128.804781 45.6616257,129.542485 47.0147284,129.858505 L47.2086537,128.430597 C47.2212904,128.437383 47.2344132,128.444168 47.2475359,128.451439 L47.0536107,129.879347 C48.7722066,129.866745 50.8961501,127.513556 52.0164452,126.340597 C53.7180301,124.559347 55.1411209,122.541566 56.6730819,120.62024 C60.4660465,115.863454 64.7328885,113.105546 71.0444515,113.563582 C71.5586694,113.600903 71.8211246,113.071617 71.7477344,112.643148 C70.4271956,104.95251 66.8189218,98.0640408 64.1331297,90.8125357 C61.3481878,83.2929949 60.4451473,75.6484031 65.1902411,68.6785051 C66.4811322,66.7823827 68.3081124,65.3224847 69.2539234,63.2353929 C70.1020427,61.3635051 70.864621,59.438301 71.3676603,57.4428163 C72.0655969,54.6742449 72.2964603,51.7292449 71.4274418,48.970852 C70.6794443,46.5968214 69.1849074,44.5727398 67.4458983,42.8205714 C66.6770016,42.0460306 65.5450418,40.6200612 64.5268126,40.2095255 C63.554756,39.8174082 61.8969137,40.2235816 60.853897,40.2618724 C53.9940942,40.5148827 47.1255429,40.5526888 40.2618518,40.6249082 C37.1420364,40.6573827 34.021735,40.6864643 30.9024057,40.7436582 C29.1113915,40.7766173 26.7089538,40.3626888 25.2406625,41.4634286 C20.296297,45.1698827 18.0955611,51.5387602 19.5356628,57.4631735 C21.001038,63.4922806 25.1862273,68.1317704 28.138849,73.4251122 C31.3709369,79.2201122 29.1585363,85.188148 26.6302173,90.8551888 C23.167752,98.6151378 19.6168295,106.174908 18.4459874,114.70552 C18.3201061,115.620622 19.7252138,116.016617 19.8520672,115.091821 C20.8542575,107.788939 23.5176923,100.807893 26.6793061,94.2000612 C28.965097,89.4234031 31.7952396,83.8067704 31.2951165,78.3384541 C30.925249,74.2985306 28.3672823,71.0026122 26.2248697,67.7134796 C22.2987334,61.6838878 18.1704094,54.2787347 22.1961815,47.2560051 C23.358275,45.2285306 25.2761425,42.3542959 27.7495403,42.2728673 C30.2992446,42.1890153 32.8508929,42.1633265 35.4010832,42.1323061 C42.0844578,42.0513622 48.7683184,42.0130714 55.4507209,41.8676633 C56.898113,41.8361582 58.3455052,41.8002908 59.7924113,41.7527908 C60.9511027,41.7149847 62.8038424,41.2913622 63.898378,41.6476122 C64.9025124,41.9742959 66.048567,43.4555204 66.769833,44.2126122 C67.7321689,45.223199 68.6055617,46.3224847 69.2621859,47.557 C70.8369174,50.5184796 70.7669294,53.8735306 69.9615805,57.0560306 C69.402162,59.2676888 68.6172264,61.694551 67.3496647,63.5926122 C66.1132088,65.4441429 64.4874443,66.9801378 63.3102838,68.897102 C54.4081903,83.3909031 67.8774914,98.6810561 70.3416546,113.029934 C70.5759203,112.723122 70.8101859,112.416311 71.0444515,112.1095 C65.5887843,111.713505 61.0546267,113.520444 57.3773369,117.537102 C55.7160923,119.351796 54.3090405,121.375878 52.7566662,123.279755 C51.9833953,124.228301 51.1809626,125.15552 50.2983353,126.004704 C49.6300465,126.646923 48.0475385,128.417995 47.0536107,128.425265 C46.2638148,128.431082 46.0222587,129.729577 46.8596854,129.853658 C46.9763322,129.870622 47.0910349,129.894372 47.2086537,129.884679 C47.9819246,129.822153 48.2526424,128.655495 47.4020929,128.456286 C46.0232308,128.133964 44.548621,125.324194 43.6173909,124.242842 C42.4280797,122.861949 41.15906,121.54552 39.8054713,120.324092 C37.5809199,118.31649 35.1187008,116.517306 32.4110374,115.212026 C28.1991165,113.181158 23.3820904,112.36348 18.954859,114.197561 C18.1009074,114.551388 18.4756352,115.958939 19.3427096,115.599781" id="Fill-15" fill="#000000"></path>
                </g>
                <path d="M77,48.9982536 C77,31.8784857 63.1175849,18 45.997817,18 C28.8780491,18 15,31.8784857 15,48.9982536 C15,65.0885302 27.2307757,78.3125599 42.9482001,79.8454453 L42.9482001,155.8536 C42.9482001,157.53842 44.3195454,158.90409 46.004366,158.90409 C47.6891865,158.90409 49.0605318,157.53842 49.0605318,155.8536 L49.0605318,79.8454453 C64.7779562,78.3125599 77,65.0885302 77,48.9982536" id="Fill-1" stroke="#13D792" stroke-width="2"></path>
            </g>
        </g>
    </g>
</svg>