<?xml version="1.0" encoding="UTF-8"?>
<svg width="124px" height="142px" viewBox="0 0 124 142" version="1.1" xmlns="http://www.w3.org/2000/svg" xmlns:xlink="http://www.w3.org/1999/xlink">
    <!-- Generator: Sketch 40.3 (33839) - http://www.bohemiancoding.com/sketch -->
    <title>Heavy Selected</title>
    <desc>Created with Sketch.</desc>
    <defs></defs>
    <g id="Symbols" stroke="none" stroke-width="1" fill="none" fill-rule="evenodd">
        <g id="Heavy-Selected" fill="#13D792">
            <path d="M53.4153619,51.2219164 C47.9514889,52.5307293 42.3542667,54.0560162 36.7186635,54.4319973 C33.7165841,54.6328054 29.7116794,54.0769041 28.1789016,51.1958066 C26.6987746,48.4134516 28.4441238,44.010865 29.7279175,41.4283686 C30.1363302,40.6061473 28.863854,39.8826686 28.452981,40.7096371 C27.0259968,43.5812401 25.7308857,47.2029064 26.3818857,50.4267544 C27.0176317,53.575596 30.297727,55.2618142 33.3411397,55.746507 C36.5720286,56.2606326 40.0297587,55.5343055 43.1981556,54.9418505 C46.7611873,54.2758133 50.2863302,53.4388756 53.8080286,52.5952917 C54.7291714,52.3745453 54.3389651,51.0006952 53.4153619,51.2219164" id="Fill-1"></path>
            <path d="M74.0194381,54.4941386 C77.4343587,55.3120874 80.8522317,56.12339 84.3055333,56.779458 C87.5713587,57.399447 91.1521048,58.1756201 94.486327,57.6453539 C97.3934381,57.1824984 100.657295,55.5860029 101.396867,52.5971432 C102.204835,49.3319943 100.821152,45.5199638 99.3739937,42.608484 C98.9636127,41.7824649 97.6901524,42.5040448 98.0995492,43.3272155 C99.3636603,45.8707845 100.951549,49.9225504 99.8301365,52.7286416 C98.5571683,55.9126127 94.1669778,56.5354501 91.1088032,56.331319 C85.4727079,55.9548631 79.8759778,54.4295762 74.4121048,53.1207633 C73.4899778,52.9000168 73.096327,54.2729174 74.0194381,54.4941386" id="Fill-3"></path>
            <path d="M49.2743524,0.513983237 C47.3252889,7.49336953 38.4223841,9.86793696 32.3173524,12.3061173 C24.9201619,15.2612717 17.2233048,18.7315012 11.9287016,24.7234624 C6.13071746,31.2841425 3.37466984,40.3841191 4.55119365,48.8887923 C5.21990794,53.7229027 6.0008127,58.2944909 5.45659048,63.1879417 C4.88087619,68.3662267 3.40173333,73.3864287 2.31673333,78.4740415 C1.1904,83.7562909 0.649622222,89.1007292 1.20270159,94.4826706 C1.75627302,99.8693592 2.85406667,105.201455 2.78074921,110.633717 C2.76844762,111.550408 4.2446381,111.550883 4.25693968,110.633717 C4.32090794,105.886956 3.4991619,101.210928 2.91262222,96.5130634 C2.28179683,91.4605802 2.34428889,86.5139603 3.2255746,81.4885363 C4.85036825,72.2276284 8.19935238,63.3066226 6.81124127,53.7855662 C6.03033651,48.4306841 5.15643175,43.5975231 6.57652698,38.251186 C7.81160635,33.6003189 9.93043175,29.086647 13.2252889,25.4516884 C18.8175905,19.2821806 27.0404635,15.8556257 34.7693048,12.8791087 C40.908781,10.5145105 48.7872095,7.73500384 50.6978921,0.892812666 C50.9454,0.00650371326 49.5218603,-0.371376269 49.2743524,0.513983237" id="Fill-5"></path>
            <path d="M73.0516476,0.892575304 C73.7351238,4.41027714 76.4867429,6.52564549 79.5769016,8.19145058 C82.8786476,9.97118934 86.3442508,11.4599225 89.7882032,12.9614733 C96.6116476,15.9360913 103.800203,18.9069116 109.258663,23.9997463 C112.045711,26.5993327 114.266886,29.7495985 115.578727,33.2801179 C116.369473,35.4083037 117.160711,37.6152937 117.739378,39.8070926 C118.4696,42.5728322 118.228981,45.3888926 117.936203,48.1973574 C117.431346,53.0319425 116.488552,57.8513364 116.710473,62.7305456 C116.81233,64.9641201 117.496298,67.1877254 117.732981,69.4236735 C117.982457,71.7830498 118.774679,74.1376788 119.327267,76.4510069 C120.675521,82.0911979 121.757076,87.7831338 121.277806,93.5947001 C120.80887,99.2842624 119.830648,104.919706 119.686473,110.633954 C119.663346,111.550645 121.139537,111.550171 121.162663,110.633954 C121.292076,105.51501 122.08233,100.458254 122.583251,95.3677927 C123.058584,90.5427021 122.789425,85.8685736 121.863854,81.1085201 C121.396886,78.7049945 120.814775,76.3252051 120.235616,73.9454158 C119.631854,71.4664092 119.316933,69.015886 118.885886,66.5150421 C118.433679,63.8883964 118.079886,61.4720533 118.233902,58.7922386 C118.381029,56.2254081 118.735806,53.6770919 119.06106,51.1273514 C119.661378,46.4285373 120.091441,42.064878 118.569489,37.4966128 C117.30341,33.6973999 116.08014,29.9864856 113.640981,26.7118422 C109.506171,21.1604245 103.306663,17.5795844 97.0461397,14.6386717 C93.1342349,12.8010167 89.1214571,11.1717653 85.1957746,9.36116952 C81.0521079,7.44993233 75.4199492,5.37491549 74.4751873,0.513745875 C74.3000127,-0.385855338 72.8774571,-0.00465229123 73.0516476,0.892575304" id="Fill-7"></path>
            <path d="M103.923367,100.962268 C95.5189222,107.803035 83.5524302,110.414015 72.887446,111.525817 C60.6690175,112.799501 47.8148429,112.099758 36.1450651,108.181864 C30.1571444,106.17141 24.457573,103.185398 20.0388429,98.7386626 C19.3804619,98.0754737 18.3372873,99.0837866 18.9951762,99.7455513 C27.231827,108.034225 39.5073349,111.493536 50.9999698,112.846498 C63.7926365,114.352796 77.3042079,113.450347 89.6097317,109.646387 C95.1159222,107.944503 100.519271,105.589399 104.967033,101.969157 C105.694303,101.377651 104.645716,100.37456 103.923367,100.962268" id="Fill-9"></path>
            <path d="M66.5051857,96.2100948 C64.8292175,95.7961358 63.1557095,96.1963278 61.8443603,97.2734757 C61.1200429,97.8683043 62.1686302,98.8713953 62.888027,98.2803644 C63.7899794,97.5393209 64.9724079,97.3019591 66.112519,97.5834702 C67.0336619,97.8108628 67.4263286,96.4374874 66.5051857,96.2100948" id="Fill-11"></path>
            <path d="M20.7903714,111.398734 C21.0752762,112.358625 21.5845619,113.112961 22.073673,113.98123 C22.9426571,115.523132 23.228546,117.121527 23.112419,118.862338 C22.9254349,121.672702 22.2070222,124.611716 20.6427524,127.011918 C20.1354349,127.78999 21.4123397,128.505399 21.9171968,127.73065 C23.4977048,125.305762 24.2367841,122.425139 24.5261175,119.596261 C24.6683238,118.205321 24.6845619,116.759787 24.305181,115.397331 C23.8633079,113.81033 22.6798952,112.589341 22.2139111,111.019904 C21.9526254,110.140716 20.5276095,110.514798 20.7903714,111.398734" id="Fill-13"></path>
            <path d="M18.8537571,118.110661 C17.9144079,125.014091 21.1113444,131.795993 27.0038048,135.770853 C27.7837254,136.297322 28.5223127,135.063515 27.7487889,134.541319 C22.2558841,130.835627 19.4609635,124.495693 20.3299476,118.110661 C20.4534556,117.204888 18.9757889,117.213433 18.8537571,118.110661" id="Fill-15"></path>
            <path d="M2.80717302,110.444444 C2.20882381,113.101947 0.766585714,115.498352 0.210553968,118.160602 C-0.317922222,120.690879 0.217442857,123.218307 1.0524746,125.628953 C2.5257127,129.882952 4.55399841,134.137424 8.5598873,136.6696 C9.35703016,137.173282 10.0970937,135.940425 9.30487143,135.439591 C5.42839524,132.989543 3.49458571,128.566543 2.20291905,124.429327 C1.41660159,121.910443 1.24093492,119.51214 2.06710952,116.979015 C2.74566508,114.898776 3.74799841,112.966176 4.2307127,110.823274 C4.43196667,109.929369 3.00891905,109.547692 2.80717302,110.444444" id="Fill-17"></path>
            <path d="M8.5598381,136.669505 C12.8614571,138.782025 17.6251238,141.257709 22.6323619,140.587874 C24.865346,140.288798 30.2711556,137.684464 28.0135683,134.79672 C27.4486794,134.074191 26.1663619,134.782954 26.7391238,135.515452 C27.9692825,137.089161 24.307346,138.776328 23.1864254,139.049294 C21.4272984,139.47797 19.4556,139.244406 17.7191079,138.852759 C14.7347429,138.180076 12.0165841,136.771571 9.30482222,135.439971 C8.45994921,135.025063 7.7120127,136.253172 8.5598381,136.669505" id="Fill-19"></path>
            <path d="M101.729895,111.020142 C101.263911,112.589103 100.088371,113.812941 99.6381333,115.397568 C99.2518635,116.757176 99.2759746,118.206982 99.4176889,119.596498 C99.7070222,122.4268 100.445117,125.305049 102.026117,127.730887 C102.530975,128.504686 103.808863,127.790702 103.301054,127.011681 C101.744657,124.624296 100.999673,121.66297 100.830895,118.862576 C100.734451,117.25706 100.91061,115.724178 101.697419,114.276746 C102.23426,113.289795 102.832117,112.479917 103.153435,111.398971 C103.415705,110.515985 101.991673,110.139055 101.729895,111.020142" id="Fill-21"></path>
            <path d="M103.61376,118.110661 C104.482744,124.494744 101.687824,130.835627 96.194919,134.541319 C95.4218873,135.062566 96.1589984,136.297796 96.9399032,135.770853 C102.832363,131.795993 106.0293,125.014091 105.089951,118.110661 C104.967919,117.214857 103.490252,117.202989 103.61376,118.110661" id="Fill-23"></path>
            <path d="M119.713094,110.823084 C120.195808,112.965986 121.198141,114.899061 121.876697,116.9793 C122.702871,119.512425 122.527205,121.910254 121.740887,124.429137 C120.448729,128.566828 118.514919,132.989353 114.638935,135.439876 C113.847205,135.940235 114.586284,137.173567 115.383919,136.66941 C119.388824,134.137709 121.418094,129.882762 122.891332,125.628763 C123.68503,123.336323 124.199237,120.975048 123.799681,118.560129 C123.333205,115.743594 121.763522,113.228508 121.136633,110.444255 C120.934887,109.549401 119.511348,109.92823 119.713094,110.823084" id="Fill-25"></path>
            <path d="M114.638787,135.439781 C111.927517,136.771381 109.208867,138.179886 106.224502,138.852569 C104.658756,139.205763 103.014279,139.396602 101.417533,139.144524 C100.375343,138.979795 95.7312476,137.40039 97.2049778,135.515737 C97.7767556,134.783713 96.4959143,134.073052 95.9300413,134.796531 C93.672946,137.6838 99.0728508,140.28481 101.311248,140.587684 C106.313565,141.264165 111.088057,138.778987 115.383771,136.669315 C116.230613,136.253457 115.484644,135.024398 114.638787,135.439781" id="Fill-27"></path>
            <path d="M31.4449238,55.5400497 C30.2132889,60.6874776 26.7220984,65.3692017 24.5324159,70.1933429 C22.4258921,74.8347155 20.6480667,79.6346457 19.4715429,84.5779425 C17.3851937,93.3446632 18.8092254,102.733746 20.790273,111.398876 C20.9949714,112.293255 22.4185111,111.914901 22.2138127,111.020047 C20.1412413,101.953776 18.8795905,92.3985391 21.3192413,83.2885933 C22.6404317,78.3566898 24.5073206,73.5724254 26.7230825,68.9524154 C28.7774476,64.6694591 31.7593524,60.5550297 32.8684635,55.9188791 C33.081527,55.0268735 31.6589714,54.6461451 31.4449238,55.5400497" id="Fill-30"></path>
            <path d="M95.332381,57.2740251 C96.0557143,61.612524 98.0229841,65.7573357 99.4494762,69.9154397 C101.024571,74.5083905 102.316238,79.0590909 102.932302,83.8704145 C104.079794,92.8322465 104.803127,102.33194 101.729698,111.020332 C101.422651,111.889551 102.847667,112.262683 103.153238,111.398686 C106.270952,102.585918 105.562873,92.9608966 104.408492,83.8704145 C103.834254,79.349147 102.739413,75.0315359 101.272079,70.7053798 C99.7329048,66.1665475 97.5437143,61.6239174 96.7559206,56.8951956 C96.6053492,55.9927461 95.1827937,56.375848 95.332381,57.2740251" id="Fill-32"></path>
        </g>
    </g>
</svg>