<?xml version="1.0" encoding="UTF-8"?>
<svg width="120px" height="142px" viewBox="0 0 120 142" version="1.1" xmlns="http://www.w3.org/2000/svg" xmlns:xlink="http://www.w3.org/1999/xlink">
    <!-- Generator: Sketch 40.3 (33839) - http://www.bohemiancoding.com/sketch -->
    <title>Husky Selected@1.5x</title>
    <desc>Created with Sketch.</desc>
    <defs>
        <polygon id="path-1" points="92.3124075 140.70803 112.022523 140.70803 112.022523 134.501166 92.3124075 134.501166 92.3124075 140.70803"></polygon>
    </defs>
    <g id="Symbols" stroke="none" stroke-width="1" fill="none" fill-rule="evenodd">
        <g id="Husky-Selected">
            <path d="M49.1129048,51.6596939 C43.7190952,52.9339162 37.1452857,53.765199 31.7700476,52.0081586 C28.4952857,50.937603 27.5071905,49.0063303 26.7524286,45.8696737 C26.2300476,43.7005525 25.9852857,41.4459768 25.2295714,39.3390475 C24.9224286,38.4821283 23.5414762,38.8514818 23.8519524,39.7174212 C25.561,44.4819869 24.7881429,50.6408859 30.228619,52.956704 C36.0105238,55.4182697 43.5605238,54.4345929 49.4929048,53.0331384 C50.3867143,52.8218758 50.0081429,51.4479566 49.1129048,51.6596939" id="Fill-1" fill="#13D792"></path>
            <path d="M47.6848571,0.514009091 C45.7986667,7.49374646 37.1829524,9.86843333 31.2748571,12.3067364 C24.1162857,15.2620394 16.6677143,18.7324434 11.5439048,24.7247061 C5.93295238,31.2857162 3.26580952,40.3861505 4.40438095,48.8912515 C5.05152381,53.7256051 5.8072381,58.2974232 5.28057143,63.1911202 C4.72342857,68.3696657 3.292,73.3901202 2.242,78.4779889 C1.152,83.760504 0.628666667,89.1052111 1.16390476,94.4874232 C1.69961905,99.8743828 2.762,105.206746 2.69104762,110.639282 C2.67914286,111.556019 4.10771429,111.556494 4.11961905,110.639282 C4.18152381,105.892282 3.38628571,101.216019 2.81866667,96.5179182 C2.20819048,91.4651808 2.26866667,86.5183121 3.12152381,81.4926354 C4.69390476,72.2312616 7.93485714,63.3098071 6.59152381,53.7882717 C5.83580952,48.4331202 4.99009524,43.5997162 6.36438095,38.2531101 C7.55961905,33.6020091 9.61009524,29.0881101 12.7986667,25.4529687 C18.2105714,19.2831505 26.1681905,15.8564232 33.6477143,12.8797566 C39.5891429,10.5150394 47.2134286,7.73539293 49.0624762,0.892857576 C49.302,0.0065040404 47.924381,-0.371394949 47.6848571,0.514009091" id="Fill-3" fill="#13D792"></path>
            <path d="M26.766,50.0387636 C28.956,61.6368444 26.5364762,73.0896525 23.7212381,84.3535111 C22.4012381,89.6350768 21.0864762,94.9180667 19.963619,100.242834 C19.1979048,103.871804 19.5374286,107.77043 20.1198095,111.404147 C20.2640952,112.307117 21.6412381,111.923996 21.4974286,111.025774 C19.8779048,100.916501 23.5912381,91.0588444 25.9374286,81.3274707 C28.4517143,70.8996424 30.1579048,60.3289152 28.143619,49.6599152 C27.973619,48.7602687 26.5964762,49.1414909 26.766,50.0387636" id="Fill-5" fill="#13D792"></path>
            <path d="M21.9245714,92.1247 C22.3979048,95.9212556 23.6464762,99.5739626 24.1288571,103.340609 C24.5626667,106.726033 23.0717143,110.763286 21.6955238,113.859114 C21.3264762,114.689922 22.5569524,115.415336 22.9288571,114.577882 C24.1826667,111.758831 25.3950476,108.464559 25.638381,105.378225 C25.7945714,103.402326 25.2417143,101.541316 24.7669524,99.6442253 C24.1455238,97.1617707 23.6698095,94.6641242 23.3531429,92.1247 C23.2412381,91.2269525 21.8112381,91.2160333 21.9245714,92.1247" id="Fill-7" fill="#13D792"></path>
            <path d="M70.2648571,53.0330909 C76.1986667,54.4350202 83.7477143,55.4177475 89.5291429,52.9566566 C94.9705714,50.6403636 94.1953333,44.4852626 95.9053333,39.7173737 C96.2153333,38.8528586 94.8358095,38.4806566 94.5277143,39.339 C93.8053333,41.3533535 93.5524762,43.5049091 93.0729524,45.5828788 C92.3258095,48.8211313 91.402,50.8919798 87.9877143,52.0081111 C82.612,53.7651515 76.0386667,52.9343434 70.6448571,51.6596465 C69.7505714,51.4483838 69.3691429,52.8213535 70.2648571,53.0330909" id="Fill-9" fill="#13D792"></path>
            <path d="M70.6951429,0.892620202 C71.3565714,4.41049899 74.0194286,6.52597374 77.0099048,8.19186263 C80.2051429,9.97169091 83.5589524,11.460499 86.8918095,12.9621253 C93.4951429,15.9368929 100.45181,18.9078626 105.73419,24.0009535 C108.431333,26.6006707 110.580857,29.7510949 111.850381,33.2817919 C112.615619,35.4100848 113.381333,37.6171859 113.941333,39.8090949 C114.648,42.5749737 114.415143,45.3911758 114.13181,48.1997818 C113.643238,53.0346101 112.730857,57.8542465 112.945619,62.733701 C113.04419,64.9673879 113.706095,67.1911051 113.935143,69.4271657 C114.176571,71.7866606 114.943238,74.1414081 115.478,76.4548525 C116.782762,82.0953273 117.829429,87.7875495 117.365619,93.5994081 C116.91181,99.2892566 115.965143,104.924984 115.825619,110.639519 C115.803238,111.556257 117.23181,111.555782 117.25419,110.639519 C117.379429,105.520317 118.14419,100.463307 118.628952,95.3725899 C119.088952,90.5472566 118.828476,85.8728929 117.932762,81.1126 C117.480857,78.7089535 116.917524,76.3290444 116.357048,73.9491354 C115.772762,71.470004 115.468,69.0193576 115.050857,66.5183879 C114.613238,63.8916101 114.270857,61.4751455 114.419905,58.795196 C114.562286,56.2282364 114.905619,53.6797919 115.220381,51.1299232 C115.801333,46.4308727 116.217524,42.0669939 114.744667,37.498499 C113.519429,33.6990949 112.335619,29.9879939 109.975143,26.7131859 C105.973714,21.1614889 99.9741905,17.5804687 93.915619,14.6394081 C90.1299048,12.8016606 86.2465714,11.1723273 82.4475238,9.3616404 C78.4375238,7.45030707 72.9870476,5.37518586 72.0727619,0.513771717 C71.9032381,-0.385874747 70.5265714,-0.00465252525 70.6951429,0.892620202" id="Fill-11" fill="#13D792"></path>
            <path d="M91.614,49.6601525 C89.496381,60.2318293 90.6197143,71.2877485 93.4659048,81.6158798 C94.876381,86.7346071 96.8568571,91.7840212 97.8744762,96.999597 C98.7792381,101.635506 98.7568571,106.519708 98.4225714,111.214961 C98.3578095,112.129799 99.786381,112.125526 99.8511429,111.214961 C100.154952,106.951254 100.136381,102.616334 99.541619,98.3773141 C98.8420952,93.3915162 96.9754286,88.5709303 95.5625714,83.7555667 C92.3649524,72.8610616 90.7382857,61.2867182 92.991619,50.039001 C93.1706667,49.1436273 91.794,48.7605061 91.614,49.6601525" id="Fill-13" fill="#13D792"></path>
            <path d="M96.404381,92.1247 C96.0877143,94.6641242 95.612,97.1617707 94.9905714,99.6442253 C94.5158095,101.541316 93.9629524,103.402326 94.1186667,105.378225 C94.3548571,108.367235 95.5381905,111.46971 96.7605714,114.193811 C97.1353333,115.029367 98.3667619,114.305852 97.9939048,113.475043 C96.642,110.462296 95.2053333,106.644377 95.6286667,103.340609 C96.1110476,99.5739626 97.359619,95.9207808 97.8329524,92.1247 C97.9462857,91.2174576 96.5162857,91.2255283 96.404381,92.1247" id="Fill-15" fill="#13D792"></path>
            <path d="M94.033,104.854959 C84.9301429,112.506464 72.605381,115.415241 60.910619,115.350676 C48.4110952,115.281837 35.8120476,111.816181 25.4891905,104.692595 C24.7310952,104.169898 24.0163333,105.403767 24.7677619,105.922666 C35.4710952,113.308312 48.635381,116.834262 61.5910952,116.775393 C73.475381,116.721272 85.8134762,113.619746 95.043,105.861898 C95.7468095,105.270363 94.7320476,104.267221 94.033,104.854959" id="Fill-17" fill="#13D792"></path>
            <path d="M64.3598571,96.2149343 C62.7379524,95.8009545 61.1184286,96.2011667 59.849381,97.2783687 C59.1484286,97.8732273 60.1631905,98.8763687 60.859381,98.2853081 C61.7322381,97.5442273 62.8765238,97.3068535 63.9798571,97.5883788 C64.8712857,97.8157828 65.2512857,96.4423384 64.3598571,96.2149343" id="Fill-19" fill="#13D792"></path>
            <path d="M20.1197143,111.404337 C20.3954286,112.364277 20.8882857,113.118651 21.361619,113.986964 C22.2025714,115.528943 22.4792381,117.127418 22.3668571,118.868317 C22.1859048,121.678822 21.4906667,124.617984 19.9768571,127.018307 C19.4859048,127.796418 20.721619,128.511863 21.2101905,127.737075 C22.7397143,125.312065 23.4549524,122.431297 23.7349524,119.602277 C23.8725714,118.211267 23.8882857,116.765661 23.5211429,115.403135 C23.0935238,113.816055 21.9482857,112.595004 21.4973333,111.025489 C21.2444762,110.146257 19.8654286,110.520358 20.1197143,111.404337" id="Fill-21" fill="#13D792"></path>
            <path d="M18.2455714,118.116602 C17.3365238,125.02038 20.4303333,131.802622 26.1327143,135.777683 C26.8874762,136.304178 27.6022381,135.070309 26.8536667,134.548087 C21.5379524,130.842208 18.8331905,124.501956 19.6741429,118.116602 C19.7936667,117.210784 18.3636667,117.219329 18.2455714,118.116602" id="Fill-23" fill="#13D792"></path>
            <path d="M2.71661905,110.45 C2.13757143,113.107636 0.741857143,115.504162 0.203761905,118.166545 C-0.307666667,120.696949 0.210428571,123.224505 1.01852381,125.635273 C2.4442381,129.889485 4.40709524,134.144172 8.2837619,136.676475 C9.05519048,137.180182 9.77138095,135.947263 9.00471429,135.446404 C5.25328571,132.996232 3.38185714,128.57301 2.13185714,124.435586 C1.37090476,121.916576 1.20090476,119.518152 2.00042857,116.984899 C2.65709524,114.904556 3.62709524,112.971859 4.0942381,110.828848 C4.289,109.934899 2.91185714,109.553202 2.71661905,110.45" id="Fill-25" fill="#13D792"></path>
            <path d="M8.28371429,136.67638 C12.4465714,138.789006 17.0565714,141.264814 21.9022857,140.594945 C24.0632381,140.295855 29.2946667,137.69139 27.1099048,134.803501 C26.5632381,134.080935 25.3222857,134.789733 25.8765714,135.522269 C27.0670476,137.096057 23.5232381,138.783309 22.4384762,139.056289 C20.7360952,139.484986 18.828,139.25141 17.1475238,138.859743 C14.2594286,138.187026 11.6289524,136.778451 9.00466667,135.446784 C8.18704762,135.031855 7.4632381,136.260026 8.28371429,136.67638" id="Fill-27" fill="#13D792"></path>
            <path d="M98.4482857,111.025726 C97.9973333,112.594767 96.8597143,113.818666 96.424,115.403373 C96.0501905,116.763049 96.0735238,118.212928 96.2106667,119.602514 C96.4906667,122.432959 97.2049524,125.311353 98.7349524,127.737312 C99.2235238,128.511151 100.46019,127.79713 99.9687619,127.01807 C98.4625714,124.630565 97.741619,121.66909 97.5782857,118.868555 C97.4849524,117.262959 97.6554286,115.729999 98.4168571,114.282494 C98.936381,113.295494 99.5149524,112.485575 99.8259048,111.404575 C100.079714,110.521544 98.701619,110.144595 98.4482857,111.025726" id="Fill-29" fill="#13D792"></path>
            <path d="M100.271381,118.116602 C101.112333,124.501006 98.4075714,130.842208 93.0918571,134.548087 C92.3437619,135.06936 93.0570952,136.304653 93.8128095,135.777683 C99.5151905,131.802622 102.609,125.02038 101.699952,118.116602 C101.581857,117.220754 100.151857,117.208885 100.271381,118.116602" id="Fill-31" fill="#13D792"></path>
            <path d="M115.851381,110.828659 C116.318524,112.971669 117.288524,114.90484 117.94519,116.985184 C118.744714,119.518436 118.574714,121.916386 117.813762,124.435396 C116.563286,128.573295 114.691857,132.996042 110.940905,135.446689 C110.174714,135.947073 110.889952,137.180467 111.661857,136.676285 C115.537571,134.144457 117.501381,129.889295 118.927095,125.635083 C119.69519,123.342527 120.19281,120.981133 119.806143,118.566093 C119.354714,115.749416 117.835667,113.234204 117.229,110.44981 C117.033762,109.554911 115.656143,109.93376 115.851381,110.828659" id="Fill-33" fill="#13D792"></path>
            <mask id="mask-2" fill="white">
                <use xlink:href="#path-1"></use>
            </mask>
            <g id="Clip-36"></g>
            <path d="M110.940762,135.446594 C108.316952,136.778261 105.686,138.186836 102.797905,138.859554 C101.282667,139.212766 99.6912381,139.403614 98.146,139.151523 C97.1374286,138.986786 92.6431429,137.407301 94.0693333,135.522554 C94.6226667,134.790493 93.3831429,134.079796 92.8355238,134.803311 C90.6512381,137.690725 95.8769524,140.291867 98.0431429,140.594756 C102.884095,141.271271 107.504571,138.785968 111.661714,136.67619 C112.481238,136.260311 111.759333,135.03119 110.940762,135.446594" id="Fill-35" fill="#13D792" mask="url(#mask-2)"></path>
        </g>
    </g>
</svg>