<?xml version="1.0" encoding="UTF-8"?>
<svg width="96px" height="143px" viewBox="0 0 96 143" version="1.1" xmlns="http://www.w3.org/2000/svg" xmlns:xlink="http://www.w3.org/1999/xlink">
    <!-- Generator: Sketch 40.3 (33839) - http://www.bohemiancoding.com/sketch -->
    <title>Slim@1.5x</title>
    <desc>Created with Sketch.</desc>
    <defs>
        <polygon id="path-1" points="0.243794861 25.7775506 12.680192 25.7775506 12.680192 0.315437361 0.243794861 0.315437361 0.243794861 25.7775506"></polygon>
    </defs>
    <g id="Symbols" stroke="none" stroke-width="1" fill="none" fill-rule="evenodd">
        <g id="Slim">
            <g id="Page-1">
                <path d="M36.5893989,0.746930306 C36.5601369,2.95606639 36.3019123,5.14664264 36.0760299,7.34185885 C35.9743829,8.33068569 37.5150032,8.32346797 37.6161369,7.34185885 C37.8420193,5.14612709 38.1002439,2.95606639 38.1295059,0.746930306 C38.1428535,-0.248598698 36.6027465,-0.249114249 36.5893989,0.746930306" id="Fill-1" fill="#231F1F"></path>
                <path d="M36.1046759,6.98834552 C29.2404193,13.4440753 19.9669219,16.0558567 12.0271572,20.8231569 C11.1770182,21.3335524 11.9506652,22.6714073 12.8043979,22.1589496 C20.8704513,17.3153478 30.2173604,14.6432469 37.1935316,8.08182921 C37.9189219,7.40027078 36.8280128,6.30833373 36.1046759,6.98834552" id="Fill-3" fill="#231F1F"></path>
                <path d="M11.7506567,21.1008327 C8.86192941,25.6650058 7.54975829,30.4508658 6.46346952,35.7167039 C5.16053904,42.0322038 3.85914866,48.3477037 2.55724492,54.6637191 C2.35703102,55.6350172 3.84118075,56.0505513 4.04242139,55.0746133 C5.27553369,49.0916438 6.50915936,43.1081587 7.74278503,37.1251892 C8.86808984,31.6680818 10.0739936,26.6321795 13.0802824,21.8813769 C13.6136727,21.0389666 12.2814802,20.2620312 11.7506567,21.1008327" id="Fill-5" fill="#231F1F"></path>
                <path d="M2.55714225,54.6635644 C0.548329412,65.3885721 0.463623529,76.109971 0.00261818182,86.9767552 C-0.0394780749,87.9722842 1.50062888,87.970222 1.54272513,86.9767552 C1.99757005,76.2553563 2.06020107,65.6576898 4.04231872,55.0749741 C4.22456471,54.1021294 2.74041497,53.6850486 2.55714225,54.6635644" id="Fill-7" fill="#231F1F"></path>
                <g id="Group-11" transform="translate(0.000000, 85.912967)" fill="#231F1F">
                    <path d="M0.00282352941,1.06394262 L1.74776471,23.484225 C1.82477005,24.4704741 3.36539037,24.4787229 3.28787166,23.484225 L1.54293048,1.06394262 C1.4664385,0.0782090885 -0.0746951872,0.0699602723 0.00282352941,1.06394262" id="Fill-9"></path>
                </g>
                <path d="M1.74781604,109.397347 C1.90542032,112.075634 1.81352727,114.744126 1.54246845,117.411587 C1.44184813,118.40093 2.98246845,118.394228 3.0825754,117.411587 C3.35363422,114.744126 3.44552727,112.075634 3.28792299,109.397347 C3.2299123,108.408005 1.68929198,108.401302 1.74781604,109.397347" id="Fill-12" fill="#231F1F"></path>
                <path d="M1.56977968,117.206192 C0.825394652,122.767441 0.070742246,128.628225 2.23253904,133.98016 C4.01392941,138.390698 7.70915936,141.665479 12.508646,142.104212 C13.4953412,142.194434 13.4891807,140.647265 12.508646,140.557559 C1.34851765,139.537799 1.98098824,125.638544 3.05495615,117.617602 C3.18535187,116.644241 1.70120214,116.223036 1.56977968,117.206192" id="Fill-14" fill="#231F1F"></path>
                <path d="M13.2247957,141.877731 C14.3572877,140.967783 15.4307422,140.006796 16.4610738,138.981881 C16.6535872,138.791127 16.7362396,138.492107 16.6592342,138.229692 C15.8558118,135.492632 15.2849455,132.7267 14.9651166,129.890139 C14.8547422,128.912138 13.3136086,128.900796 13.4250096,129.890139 C13.6611594,131.985854 13.9892021,134.063009 14.4856299,136.114386 C14.8013519,137.419761 15.1540364,137.846122 14.3403465,138.892175 C13.7782075,139.615493 12.8459294,140.213532 12.1359401,140.784247 C11.3617797,141.406002 12.4578225,142.493814 13.2247957,141.877731" id="Fill-16" fill="#231F1F"></path>
                <path d="M11.8007615,114.159079 C12.8182588,117.026058 13.852184,119.887366 14.8532535,122.760017 C15.7460021,125.322821 14.3640128,126.848852 13.5559701,129.165738 C13.2279273,130.107134 14.7151572,130.511842 15.0411465,129.577148 C15.7331679,127.592276 17.2255316,125.965197 16.7891679,123.766888 C16.1202481,120.396731 14.433831,116.982752 13.285938,113.747669 C12.9553283,112.8171 11.4670717,113.218199 11.8007615,114.159079" id="Fill-18" fill="#231F1F"></path>
                <path d="M18.4119273,47.6842926 C18.129061,54.7875545 16.2711786,61.5716902 14.2331037,68.3372661 C13.9456171,69.2920666 15.431307,69.700383 15.7182802,68.7486758 C17.7969112,61.8485411 19.6640342,54.9252066 19.9520342,47.6842926 C19.9915636,46.6887636 18.4514567,46.6908258 18.4119273,47.6842926" id="Fill-20" fill="#231F1F"></path>
                <path d="M14.2056385,68.5431257 C13.6486332,83.6797034 13.3883551,98.8827871 11.7732963,113.953374 C11.6675422,114.941686 13.2081626,114.934468 13.3134032,113.953374 C14.928462,98.8827871 15.1887401,83.6797034 15.7457455,68.5431257 C15.7821947,67.5475967 14.2420877,67.5491433 14.2056385,68.5431257" id="Fill-22" fill="#231F1F"></path>
                <path d="M22.6507636,57.1236707 C23.3905283,76.3031995 23.5096299,95.4997414 23.0090952,114.686488 C22.9829134,115.682532 24.5230203,115.681501 24.5492021,114.686488 C25.0497369,95.4997414 24.9306353,76.3031995 24.1908706,57.1236707 C24.1523679,56.1317506 22.612261,56.1265951 22.6507636,57.1236707" id="Fill-24" fill="#231F1F"></path>
                <path d="M15.9380535,42.8086751 C19.3016471,47.663619 20.6697754,53.6455574 24.1637647,58.3953289 C26.9657326,62.2042197 31.2010267,62.6269716 35.6483422,62.0990473 C36.6206631,61.9835639 36.6319572,60.4353642 35.6483422,60.5523943 C33.5168342,60.8055299 31.1938396,60.8875025 29.1059679,60.3044143 C26.4795722,59.5707852 24.9928556,57.0889226 23.7766845,54.8143115 C21.513754,50.5821533 20.0172834,45.9968426 17.2676791,42.0281309 C16.7055401,41.2166536 15.3702674,41.988949 15.9380535,42.8086751" id="Fill-26" fill="#231F1F"></path>
                <path d="M57.5001497,0.746930306 C57.5294118,2.95606639 57.7876364,5.14664264 58.0135187,7.34185885 C58.1146524,8.32192132 59.6557861,8.33223234 59.5536257,7.34185885 C59.3277433,5.14612709 59.0695187,2.95606639 59.0402567,0.746930306 C59.0269091,-0.247567596 57.4868021,-0.250145351 57.5001497,0.746930306" id="Fill-28" fill="#231F1F"></path>
                <path d="M58.4359701,8.08198388 C65.4121412,14.6428861 74.7595636,17.3155025 82.8256171,22.1591043 C83.678323,22.6710464 84.4535102,21.3342226 83.6028578,20.8233116 C75.6625797,16.0554958 66.3895957,13.44423 59.5248257,6.98850018 C58.8020021,6.3084884 57.7105797,7.39990989 58.4359701,8.08198388" id="Fill-30" fill="#231F1F"></path>
                <path d="M82.5491679,21.88148 C85.5544299,26.6302204 86.7623872,31.6707626 87.8866652,37.1247768 C89.1202909,43.1082618 90.3539166,49.0917469 91.5875422,55.0747164 C91.7882695,56.0485922 93.2729326,55.636667 93.0727187,54.6638222 C91.7703016,48.3478068 90.4694246,42.0323069 89.1664941,35.716807 C88.079692,30.4509689 86.7675209,25.6651089 83.8787936,21.1009358 C83.3489968,20.2631654 82.0152642,21.0380386 82.5491679,21.88148" id="Fill-32" fill="#231F1F"></path>
                <path d="M91.5873882,55.0747164 C93.5695059,65.6579475 93.6321369,76.2556141 94.0864684,86.977013 C94.1285647,87.9684176 95.669185,87.9735731 95.6265754,86.977013 C95.1660834,76.1091976 95.0813775,65.3888299 93.0725647,54.6633067 C92.889292,53.6863375 91.4051422,54.100325 91.5873882,55.0747164" id="Fill-34" fill="#231F1F"></path>
                <path d="M94.0866738,86.9769099 C93.5050267,94.4503373 92.9233797,101.923765 92.3417326,109.397192 C92.2642139,110.389628 93.8048342,110.384988 93.8818396,109.397192 C94.4634866,101.923765 95.0451337,94.4503373 95.6267807,86.9769099 C95.7037861,85.9844742 94.1636791,85.9896297 94.0866738,86.9769099" id="Fill-36" fill="#231F1F"></path>
                <path d="M92.3416813,109.397347 C92.184077,112.075634 92.2759701,114.744126 92.5470289,117.411587 C92.6471358,118.392165 94.1882695,118.402476 94.0871358,117.411587 C93.816077,114.744126 93.724184,112.075634 93.8817882,109.397347 C93.9403123,108.402849 92.4002053,108.406458 92.3416813,109.397347" id="Fill-38" fill="#231F1F"></path>
                <g id="Group-42" transform="translate(82.139037, 116.330477)">
                    <mask id="mask-2" fill="white">
                        <use xlink:href="#path-1"></use>
                    </mask>
                    <g id="Clip-41"></g>
                    <path d="M10.4357134,1.28686688 C11.510708,9.31451168 12.1488257,23.2065492 0.98151016,24.2273402 C0.00251550802,24.3165306 -0.00672513369,25.8642147 0.98151016,25.7739933 C5.78202353,25.3352594 9.47468663,22.0589327 11.2581305,17.6499404 C13.4219807,12.3005831 12.6647615,6.43464373 11.9208898,0.875457173 C11.7894674,-0.106151953 10.3053176,0.311959917 10.4357134,1.28686688" id="Fill-40" fill="#231F1F" mask="url(#mask-2)"></path>
                </g>
                <path d="M83.4938695,140.784092 C82.7838802,140.213378 81.8516021,139.615338 81.2894631,138.892536 C80.4757733,137.846483 80.8284578,137.419607 81.1441797,136.114747 C81.6400941,134.06337 81.9686503,131.986214 82.2048,129.889984 C82.3162011,128.902704 80.7750674,128.910437 80.664693,129.889984 C80.3448642,132.726546 79.7734845,135.493508 78.9705754,138.229537 C78.8935701,138.491953 78.9762225,138.790972 79.1682225,138.982242 C80.1990674,140.006642 81.2725219,140.968144 82.4050139,141.877576 C83.1714738,142.49366 84.2680299,141.405847 83.4938695,140.784092" id="Fill-43" fill="#231F1F"></path>
                <path d="M82.343769,113.747927 C81.2025497,116.963934 79.4740364,120.410909 78.840539,123.76663 C78.4241968,125.971126 79.8929455,127.582223 80.5885604,129.57689 C80.9140364,130.510037 82.402293,130.108423 82.0737369,129.165996 C81.2569668,126.823848 79.8688171,125.363292 80.7764535,122.760274 C81.777523,119.887624 82.8114481,117.025801 83.8289455,114.159337 C84.1621219,113.220003 82.674892,112.815295 82.343769,113.747927" id="Fill-45" fill="#231F1F"></path>
                <path d="M75.6775701,47.6842926 C75.9655701,54.924691 77.832693,61.8485411 79.9113241,68.7486758 C80.197784,69.6988364 81.6845005,69.2941288 81.3965005,68.3372661 C79.3579123,61.5711747 77.5005433,54.78807 77.217677,47.6842926 C77.1781476,46.6923725 75.6380406,46.687217 75.6775701,47.6842926" id="Fill-47" fill="#231F1F"></path>
                <path d="M79.8839102,68.5431257 C80.4409155,83.6797034 80.7011936,98.8827871 82.3162524,113.953374 C82.4209797,114.932921 83.9626267,114.943748 83.8563594,113.953374 C82.2413005,98.8827871 81.9810225,83.6797034 81.4240171,68.5431257 C81.3875679,67.55069 79.847461,67.54605 79.8839102,68.5431257" id="Fill-49" fill="#231F1F"></path>
                <path d="M71.438785,57.1236707 C70.6990203,76.3031995 70.5799187,95.4997414 71.0804535,114.686488 C71.1066353,115.679955 72.6467422,115.684079 72.6205604,114.686488 C72.1200257,95.4997414 72.2391273,76.3031995 72.978892,57.1236707 C73.0173947,56.1281417 71.4772877,56.1302039 71.438785,57.1236707" id="Fill-51" fill="#231F1F"></path>
                <path d="M78.3617711,42.0280794 C75.6121668,45.996791 74.1156963,50.5821017 71.8527658,54.81426 C70.6987123,56.9728721 69.2736,59.4268949 66.8191829,60.2172346 C64.6686802,60.9101352 62.1962952,60.8152738 59.9816214,60.5523428 C58.9990332,60.4353127 59.0077604,61.9829968 59.9816214,62.0989958 C64.430477,62.6274356 68.6616642,62.2062304 71.4661989,58.3952773 C74.9607016,53.6460214 76.3278032,47.6635675 79.6913968,42.8086236 C80.2591829,41.9899286 78.9244235,41.2160865 78.3617711,42.0280794" id="Fill-53" fill="#231F1F"></path>
                <path d="M52.5891594,93.0886124 C49.9314481,93.1525408 47.4066995,93.7809974 45.018507,94.9502671 C44.1278118,95.3864233 44.9076193,96.7206693 45.7957476,96.2860598 C47.9395765,95.2358824 50.2055872,94.6924916 52.5891594,94.6352655 C53.5784214,94.6115501 53.582015,93.0648971 52.5891594,93.0886124" id="Fill-55" fill="#231F1F"></path>
                <path d="M49.5947294,52.6456978 L49.5947294,44.7407541 C49.5947294,43.7452251 48.0546225,43.7436785 48.0546225,44.7407541 L48.0546225,52.6456978 C48.0546225,53.6407112 49.5947294,53.6427734 49.5947294,52.6456978" id="Fill-57" fill="#231F1F"></path>
                <path d="M60.0950246,17.6396294 C59.2977626,18.2139532 58.5005005,18.7887926 57.7027251,19.3631164 C57.3654417,19.6064565 57.2027037,20.0369416 57.4265326,20.4210271 C57.6216128,20.7561353 58.1406289,20.9432803 58.4804791,20.6989091 C59.2777412,20.1240697 60.0750032,19.5497459 60.8722652,18.9749065 C61.2095487,18.732082 61.3722866,18.3015969 61.1484578,17.9169959 C60.9533775,17.5824033 60.4348749,17.3947427 60.0950246,17.6396294" id="Fill-59" fill="#231F1F"></path>
                <path d="M38.9555679,19.9972442 C37.3677176,19.0646124 35.7798674,18.1319806 34.1925305,17.1993489 C33.3352043,16.6956555 32.5589904,18.0319637 33.4147765,18.534626 C35.0026267,19.4672578 36.590477,20.3998895 38.1783273,21.3325213 C39.0356535,21.8362147 39.811354,20.4999064 38.9555679,19.9972442" id="Fill-61" fill="#231F1F"></path>
                <path d="M71.102323,110.669469 C55.804954,116.533346 39.4623658,116.865361 24.4791786,109.845619 C23.5864299,109.427507 22.8035422,110.760206 23.701938,111.181411 C39.061938,118.377472 55.8013604,118.183109 71.5119914,112.160958 C72.4283551,111.809352 72.0304941,110.313739 71.102323,110.669469" id="Fill-63" fill="#231F1F"></path>
            </g>
        </g>
    </g>
</svg>